<svg xmlns="http://www.w3.org/2000/svg" xmlns:xlink="http://www.w3.org/1999/xlink" width="263.91" height="232.261" viewBox="0 0 263.91 232.261">
  <defs>
    <filter id="Union_2" x="0" y="0" width="263.91" height="232.261" filterUnits="userSpaceOnUse">
      <feOffset dx="3" dy="6" input="SourceAlpha"/>
      <feGaussianBlur stdDeviation="3" result="blur"/>
      <feFlood flood-opacity="0.271"/>
      <feComposite operator="in" in2="blur"/>
      <feComposite in="SourceGraphic"/>
    </filter>
  </defs>
  <g id="Group_204" data-name="Group 204" transform="translate(-1656.188 -300.037)">
    <g id="Group_202" data-name="Group 202" transform="matrix(0.951, 0.309, -0.309, 0.951, 1028.634, -571.853)">
      <g transform="matrix(0.95, -0.31, 0.31, 0.95, 866.27, 635.29)" filter="url(#Union_2)">
        <path id="Union_2-2" data-name="Union 2" d="M-785.459,414.107c-.057,0-.113,0-.17,0-22.818-.1-42.746-4.694-57.632-13.288-16.816-9.7-26.252-24.066-27.292-41.527-.478-8.031,1.076-19.652,4.055-30.325,3.521-12.612,8.659-22.813,14.467-28.729,2.019-2.054,5.021-3.829,9.152-5.408,7.336-24.9,15.5-37.525,24.266-37.54h.016c7.876,0,15.115,9.934,22.1,30.349,3.481-.142,7.034-.228,10.589-.255.069-.005.138-.008.206-.008l1.566,0a2.141,2.141,0,0,1,.253.01c3.536.013,7.073.086,10.552.216,6.916-20.456,14.127-30.417,22.007-30.435h.017c8.761,0,16.962,12.6,24.388,37.452,4.139,1.562,7.148,3.327,9.17,5.372a43.942,43.942,0,0,1,6.98,9.637,25.6,25.6,0,0,1,18.387-9.407,25.735,25.735,0,0,1,19.163,6.392,26.369,26.369,0,0,1,8.738,17.89c.539,10.794-1.633,17.572-7.747,24.173a56.394,56.394,0,0,1-5.87,5.139c-2.957,2.371-6.289,5.041-8.039,7.57-.529.766-.49,1.948-.383,3.81.193,3.3.551,9.443-7.36,12.2a10.558,10.558,0,0,1-3.443.6h-.017a9.652,9.652,0,0,1-5.751-1.9c-4.954,11.069-14.255,20.241-27.214,26.747-14.359,7.212-32.884,11.1-53.577,11.254l-1.579.007Zm7.484-4.7-.742.031.743-.031c4.39-.191,8.644-.551,12.733-1.088C-769.331,408.852-773.583,409.212-777.974,409.4Zm12.734-1.088v0Zm-65.549-21.067h12.734v0h-26.4v0Zm79.22,18.5q1.64-.408,3.228-.859Q-749.93,405.342-751.569,405.75Zm12.736-4.084v0Zm16.1-8.825a55.4,55.4,0,0,0,6.452-5.593A55.546,55.546,0,0,1-722.732,392.84Zm-132.024-6.915c.108.121.219.239.329.358l-.329-.358c-.315-.35-.63-.7-.932-1.052C-855.386,385.229-855.071,385.575-854.756,385.925Zm-11.268-26.907a44.735,44.735,0,0,0,1.9,10.543c.2.652.419,1.294.649,1.934.038.1.072.194.108.292a42.6,42.6,0,0,0,3.56,7.367c.113.186.229.373.343.56.3.483.616.962.94,1.438.142.206.292.407.436.614q.9,1.268,1.9,2.488-1-1.22-1.9-2.488c-.144-.208-.293-.409-.436-.614-.324-.476-.635-.956-.94-1.439-.114-.187-.23-.373-.343-.56a42.537,42.537,0,0,1-3.56-7.367c-.036-.1-.07-.193-.108-.291-.229-.64-.447-1.283-.649-1.934a44.743,44.743,0,0,1-1.9-10.543c-.052-.886-.079-1.824-.079-2.808C-866.1,357.193-866.076,358.133-866.024,359.018Zm153.883,23.492q.683-.9,1.314-1.832Q-711.458,381.607-712.141,382.51Zm3.871-6.11a43.013,43.013,0,0,1-2.469,4.149,42.993,42.993,0,0,0,2.469-4.148,41.388,41.388,0,0,0,3.46-9.121A41.381,41.381,0,0,1-708.27,376.4Zm32.717-30.818a52.724,52.724,0,0,1-5.4,4.7c-3.182,2.551-6.789,5.443-8.914,8.516-1.444,2.086-1.309,4.41-1.18,6.655.19,3.233.352,6.025-4.326,7.655a6.149,6.149,0,0,1-1.612.342,6.176,6.176,0,0,0,1.612-.341c4.678-1.631,4.516-4.423,4.327-7.655-.13-2.246-.265-4.569,1.179-6.655,2.126-3.073,5.732-5.965,8.914-8.516a52.956,52.956,0,0,0,5.4-4.7c4.662-5.032,6.553-9.85,6.622-17.481C-669,335.733-670.891,340.55-675.554,345.582ZM-698.2,373.389a5.2,5.2,0,0,1-2.2-.94A5.2,5.2,0,0,0-698.2,373.389Zm-2.239-.973-.006,0Zm-.4-.324.063.055-.063-.055-.094-.084Zm-3.965-12.615a16.149,16.149,0,0,1,1.51-4.239A16.125,16.125,0,0,0-704.8,359.477Zm10.735-35.2c-1.311.22-1.742.823-2.5,4.924a31.41,31.41,0,0,1-.862,3.786,10.922,10.922,0,0,1-3.416,5.279c.492,2.508.9,4.99,1.2,7.4,1.132-1.033,2.28-1.993,3.372-2.913,3.808-3.2,7.405-6.217,8.874-10.307,1-2.8.872-5.45-.344-6.9a5.145,5.145,0,0,0-4.066-1.473A13.681,13.681,0,0,0-694.068,324.281Zm-16.453,6.979c1.5,2.893,3.3,4.4,5.048,4.249,1.584-.137,3.011-1.625,3.722-3.884a23.929,23.929,0,0,0,.644-2.808,23.879,23.879,0,0,1-.644,2.807c-.711,2.258-2.138,3.747-3.722,3.883-1.752.155-3.55-1.355-5.047-4.249a13.731,13.731,0,0,1-1.394-4.152A13.737,13.737,0,0,0-710.521,331.26Zm28.335-2.362a9.61,9.61,0,0,0-2.069-6.264A9.612,9.612,0,0,1-682.187,328.9Zm-9.645-9.361a18.118,18.118,0,0,0-2.989.267c-4.778.807-5.538,4.938-6.208,8.581.671-3.642,1.43-7.773,6.209-8.581a18,18,0,0,1,2.988-.267h.04a10.991,10.991,0,0,1,4.8.986,11,11,0,0,0-4.8-.986Zm-20.391-.664a19.032,19.032,0,0,0-1.108,6.106,19.031,19.031,0,0,1,1.108-6.1c.123-.365.265-.736.414-1.106C-711.958,318.138-712.1,318.508-712.223,318.874Zm25.286,1.678Zm-39.182-6.116c.062.1.35.669.53,1.019-.18-.35-.468-.916-.53-1.019Zm-58.591-13.027h.32c28.722,0,53.066,4.588,58.181,12.878-5.114-8.29-29.453-12.879-58.173-12.879Zm108.47,8.576a21.785,21.785,0,0,1,3.541,4.09,21.752,21.752,0,0,0-3.54-4.09,20.825,20.825,0,0,0-2.215-1.727A20.841,20.841,0,0,1-676.24,309.984ZM-844.366,313.5c0,.188.021.373.031.558-.01-.186-.031-.37-.031-.559Zm118.98.329c.007-.183.03-.365.03-.551C-725.356,313.467-725.378,313.649-725.386,313.833Zm0,0c-5.255-8.633-30.209-13.435-59.5-13.379h.5C-755.309,300.454-730.611,305.25-725.386,313.833Zm-118.778-5.014a9.532,9.532,0,0,0-1.282,4.686h0a9.527,9.527,0,0,1,1.282-4.686.561.561,0,0,1,.14-.163A.557.557,0,0,0-844.163,308.819Zm119.885,4.46a9.521,9.521,0,0,0-1.3-4.681A9.521,9.521,0,0,1-724.278,313.279Zm-118.876-4.188a.555.555,0,0,0-.274-.478A.557.557,0,0,1-843.153,309.092Zm116.839-.7a.556.556,0,0,0-.27.442.553.553,0,0,1,.27-.441.534.534,0,0,1,.636.073.539.539,0,0,0-.368-.147A.53.53,0,0,0-726.314,308.395Zm.725.182-.015-.023Zm-.017-.026,0-.005Zm-.012-.014v0Zm-.035-.042-.008-.008Zm-.013-.013-.01-.01ZM-730.7,297.8q-.088-.3-.186-.638Q-730.791,297.5-730.7,297.8Zm-.221-.756c-.022-.073-.043-.147-.066-.221C-730.966,296.9-730.945,296.973-730.923,297.046Zm-.108-.365-.012-.039Zm-.049-.162c-.015-.051-.03-.1-.045-.154C-731.11,296.417-731.1,296.467-731.08,296.518ZM-807,273.949a52.208,52.208,0,0,0-3.39-5.842A52.236,52.236,0,0,1-807,273.949Zm-11.549-12.128h0Zm67.275-.124h0Z" transform="matrix(0.95, 0.31, -0.31, 0.95, 962.64, 28.11)" fill="#fcf7e8" stroke="rgba(0,0,0,0)" stroke-miterlimit="10" stroke-width="1"/>
      </g>
    </g>
    <g id="Group_203" data-name="Group 203">
      <g id="Group_199" data-name="Group 199" transform="matrix(0.951, 0.309, -0.309, 0.951, 831.634, -571.853)">
        <g id="Group_198" data-name="Group 198" transform="translate(1107.202 560.832)">
          <g id="Group_196" data-name="Group 196">
            <g id="Group_192" data-name="Group 192" transform="translate(4.533 4.539)">
              <path id="Path_1975" data-name="Path 1975" d="M1244.757,666.1a5.267,5.267,0,0,0,5.469,1.013c4.678-1.631,4.516-4.422,4.327-7.655-.129-2.246-.264-4.569,1.18-6.655,2.125-3.073,5.732-5.965,8.914-8.516a52.771,52.771,0,0,0,5.4-4.7c5.316-5.737,7.029-11.2,6.546-20.864a22.043,22.043,0,0,0-7.233-14.734,21.787,21.787,0,0,0-34.808,9.286c-1.535,4.521-1.366,8.331.527,11.989,1.5,2.893,3.3,4.4,5.047,4.249,1.584-.137,3.011-1.626,3.722-3.884a27.328,27.328,0,0,0,.723-3.239c.67-3.643,1.43-7.774,6.208-8.581a18.052,18.052,0,0,1,2.989-.267c4.027-.01,6.315,1.592,7.576,3.1,2.28,2.726,2.7,6.966,1.132,11.344-1.88,5.247-6.122,8.807-10.223,12.251-4.647,3.9-9.033,7.583-10.242,13.494C1240.959,658.868,1242.039,663.722,1244.757,666.1Z" transform="translate(-1079.493 -555.704)" fill="#fcf7e8"/>
              <path id="Path_1976" data-name="Path 1976" d="M1112.794,672.312c.2.651.419,1.294.649,1.934.038.1.072.193.108.291a42.55,42.55,0,0,0,3.56,7.367c.113.187.229.373.343.56.3.483.616.963.94,1.439.142.206.291.407.435.614.6.845,1.234,1.675,1.9,2.488.169.206.329.417.5.62.3.355.618.7.933,1.052.132.144.266.291.4.437H1261.52a46.612,46.612,0,0,0,4.57-5.684,42.94,42.94,0,0,0,2.557-4.278,41.358,41.358,0,0,0,3.459-9.121,18.64,18.64,0,0,1,.008-7.8,16.112,16.112,0,0,1,1.51-4.239l-.167,0a95.632,95.632,0,0,0-2.33-18.484c-1.407-.029-3.709-.821-5.834-4.928-2.06-3.977-2.251-8.093-.6-12.954.123-.365.265-.736.414-1.106-2.745-6.313-5.827-11.226-9.16-14.595-1.791-1.811-4.934-3.478-9.335-4.955l-.309-.105-.09-.311c-2.454-8.476-11.187-36.123-20.609-36.105-7.781.014-15.014,18.88-18.63,30.123l-.147.454-.473-.023c-4.637-.218-9.4-.334-14.168-.341h-.342c-4.764.025-9.53.157-14.166.4l-.473.023-.147-.452c-3.66-11.231-10.964-30.069-18.746-30.055-9.42.02-18.052,27.7-20.471,36.184l-.092.311-.309.106c-4.4,1.492-7.532,3.172-9.317,4.99-11.821,12.037-18.1,40.974-17.232,55.606a44.777,44.777,0,0,0,1.9,10.543Zm19.961-60.741a.539.539,0,0,1,.736-.206.558.558,0,0,1,.2.751,8.393,8.393,0,0,0-1.142,4.139c0,.188.021.373.031.559,5.214-8.653,30.126-13.553,59.449-13.607,29.29-.056,54.245,4.746,59.5,13.379.008-.183.03-.365.03-.551a8.4,8.4,0,0,0-1.157-4.136.555.555,0,0,1,.2-.751.536.536,0,0,1,.738.2,9.521,9.521,0,0,1,1.3,4.681c.013,6.379-5.206,11.619-15.088,15.151-10.4,3.717-25.69,5.62-45.457,5.656s-35.068-1.809-45.478-5.487c-9.9-3.5-15.132-8.715-15.144-15.094A9.518,9.518,0,0,1,1132.755,611.571Z" transform="translate(-1110.813 -564.448)" fill="#fcf7e8"/>
            </g>
            <g id="Group_193" data-name="Group 193">
              <path id="Path_1977" data-name="Path 1977" d="M1313.364,628.168a26.37,26.37,0,0,0-8.738-17.89,26.39,26.39,0,0,0-37.55,3.015,43.93,43.93,0,0,0-6.98-9.638c-2.022-2.045-5.031-3.81-9.17-5.371-7.426-24.854-15.627-37.452-24.388-37.452h-.018c-7.879.018-15.091,9.979-22.006,30.435-3.48-.129-7.017-.2-10.553-.216a2.092,2.092,0,0,0-.252-.01l-1.566,0c-.068,0-.137,0-.206.008-3.555.028-7.107.113-10.588.255-6.99-20.414-14.23-30.349-22.105-30.349h-.016c-8.768.015-16.93,12.643-24.265,37.54-4.131,1.579-7.134,3.354-9.152,5.408-5.808,5.916-10.946,16.118-14.467,28.729-2.979,10.672-4.533,22.294-4.054,30.325,1.039,17.461,10.475,31.823,27.292,41.527,14.886,8.594,34.813,13.185,57.632,13.288.057,0,.113.005.169.005h.005l1.578-.007c20.693-.152,39.218-4.042,53.577-11.254,12.959-6.506,22.261-15.678,27.214-26.747a9.655,9.655,0,0,0,5.752,1.9h.016a10.6,10.6,0,0,0,3.443-.6c7.911-2.763,7.553-8.9,7.36-12.2-.108-1.863-.147-3.044.383-3.81,1.75-2.529,5.081-5.2,8.039-7.57a56.273,56.273,0,0,0,5.87-5.139C1311.731,645.739,1313.9,638.962,1313.364,628.168Zm-60.687,70.056a74.347,74.347,0,0,1-13.671,7.115,96.045,96.045,0,0,1-9.507,3.226q-1.589.45-3.229.859a123.06,123.06,0,0,1-13.671,2.565c-4.09.537-8.343.9-12.734,1.088-2.153.1-4.331.157-6.549.164H1193c-2.3,0-4.568-.056-6.808-.149-4.376-.182-8.63-.532-12.735-1.062-.163-.021-.33-.036-.492-.059q-3.811-.5-7.446-1.209c-1.953-.377-3.859-.808-5.734-1.269a97.859,97.859,0,0,1-12.735-4.046,77.922,77.922,0,0,1-10.2-4.887c-1.2-.693-2.349-1.418-3.466-2.161a54.916,54.916,0,0,1-9.041-7.478h137.219A56.512,56.512,0,0,1,1252.677,698.224Zm20.352-27.271a41.357,41.357,0,0,1-3.459,9.121,42.94,42.94,0,0,1-2.557,4.278,46.53,46.53,0,0,1-4.521,5.627H1123.434c-.118-.125-.236-.252-.35-.38-.315-.35-.63-.7-.933-1.052-.173-.2-.333-.414-.5-.62-.664-.813-1.3-1.643-1.9-2.488-.144-.207-.294-.408-.435-.614-.324-.476-.635-.955-.94-1.438-.114-.187-.23-.373-.343-.56a42.55,42.55,0,0,1-3.56-7.367c-.036-.1-.07-.193-.108-.291-.23-.64-.448-1.283-.649-1.934a44.779,44.779,0,0,1-1.9-10.543c-.87-14.631,5.411-43.569,17.232-55.606,1.785-1.818,4.921-3.5,9.317-4.99l.309-.105.092-.311c2.419-8.486,11.051-36.164,20.471-36.184,7.783-.014,15.086,18.824,18.746,30.055l.147.452.473-.023c4.636-.238,9.4-.37,14.166-.4h.342c4.764.008,9.531.123,14.168.341l.473.023.147-.454c3.616-11.242,10.849-30.109,18.63-30.123,9.422-.017,18.155,27.63,20.609,36.105l.09.311.309.105c4.4,1.476,7.544,3.143,9.335,4.955,3.333,3.369,6.414,8.282,9.16,14.595-.149.37-.291.74-.414,1.106-1.652,4.862-1.461,8.978.6,12.954,2.125,4.107,4.427,4.9,5.834,4.928a95.632,95.632,0,0,1,2.33,18.484l.167,0a16.112,16.112,0,0,0-1.51,4.239A18.64,18.64,0,0,0,1273.029,670.954Zm29.258-21.7a52.771,52.771,0,0,1-5.4,4.7c-3.182,2.551-6.789,5.443-8.914,8.516-1.444,2.086-1.309,4.41-1.18,6.655.189,3.232.351,6.024-4.327,7.655a5.267,5.267,0,0,1-5.469-1.013c-2.719-2.377-3.8-7.232-2.749-12.368,1.209-5.911,5.595-9.594,10.242-13.494,4.1-3.444,8.343-7,10.223-12.251,1.572-4.378,1.147-8.617-1.132-11.344-1.26-1.505-3.549-3.107-7.576-3.1a18.052,18.052,0,0,0-2.989.267c-4.779.807-5.538,4.938-6.208,8.581a27.325,27.325,0,0,1-.723,3.239c-.71,2.258-2.138,3.747-3.722,3.884-1.752.154-3.55-1.356-5.047-4.249-1.893-3.658-2.062-7.468-.527-11.989a21.787,21.787,0,0,1,34.808-9.286,22.043,22.043,0,0,1,7.233,14.734C1309.316,638.06,1307.6,643.52,1302.286,649.257ZM1277,641.943a10.925,10.925,0,0,0,3.416-5.278,31.6,31.6,0,0,0,.862-3.786c.753-4.1,1.184-4.7,2.5-4.924,2.106-.359,4.918-.424,6.333,1.267,1.216,1.452,1.346,4.1.344,6.9-1.469,4.09-5.066,7.11-8.873,10.307-1.093.92-2.241,1.88-3.373,2.913C1277.9,646.933,1277.49,644.452,1277,641.943Z" transform="translate(-1107.202 -560.832)" fill="#b0a5a7"/>
              <path id="Path_1978" data-name="Path 1978" d="M1246.4,603.265a.555.555,0,0,0-.2.751,8.4,8.4,0,0,1,1.157,4.136c0,.186-.022.368-.03.551-5.255-8.632-30.209-13.435-59.5-13.379-29.323.054-54.235,4.955-59.449,13.607-.01-.186-.031-.37-.031-.559a8.393,8.393,0,0,1,1.142-4.139.558.558,0,0,0-.2-.751.539.539,0,0,0-.736.206,9.518,9.518,0,0,0-1.282,4.686c.011,6.379,5.248,11.6,15.144,15.094,10.41,3.678,25.71,5.523,45.478,5.487s35.06-1.939,45.457-5.656c9.883-3.532,15.1-8.772,15.088-15.151a9.521,9.521,0,0,0-1.3-4.681A.536.536,0,0,0,1246.4,603.265Zm-58.509,24.593c-35.6.066-56.919-6.227-59.31-17.358a2.731,2.731,0,0,1,.406-.774c.046-.067.08-.121.1-.154,4.766-8.341,30.023-13.239,58.745-13.293,29.108-.054,53.822,4.594,58.764,13.026.062.1.35.669.53,1.019C1244.73,621.435,1223.449,627.792,1187.892,627.858Z" transform="translate(-1102.079 -552.027)" fill="#b0a5a7"/>
            </g>
            <path id="Path_1979" data-name="Path 1979" d="M1187.626,627.664c35.557-.067,56.837-6.423,59.235-17.535-.18-.35-.468-.916-.53-1.019-4.942-8.432-29.656-13.08-58.764-13.026-28.722.054-53.979,4.952-58.745,13.293-.02.034-.054.088-.1.154a2.731,2.731,0,0,0-.406.774C1130.707,621.437,1152.022,627.731,1187.626,627.664Z" transform="translate(-1101.812 -551.833)" fill="#d7794c"/>
            <g id="Group_194" data-name="Group 194" transform="translate(17.138 130.089)">
              <path id="Path_1980" data-name="Path 1980" d="M1202.057,664.467v18.5q1.64-.409,3.229-.859a95.982,95.982,0,0,0,9.507-3.226V664.467Z" transform="translate(-1100.127 -664.467)" fill="#f1b8b7"/>
              <path id="Path_1981" data-name="Path 1981" d="M1159.984,664.467v21.109c4.1.53,8.359.88,12.735,1.062V664.467Z" transform="translate(-1110.867 -664.467)" fill="#f1b8b7"/>
              <path id="Path_1982" data-name="Path 1982" d="M1138.947,664.467v14.526a97.878,97.878,0,0,0,12.735,4.046V664.467Z" transform="translate(-1116.237 -664.467)" fill="#f1b8b7"/>
              <path id="Path_1983" data-name="Path 1983" d="M1223.094,671.77a56.506,56.506,0,0,0,8.882-7.3h-8.882Z" transform="translate(-1094.757 -664.467)" fill="#f1b8b7"/>
              <path id="Path_1984" data-name="Path 1984" d="M1120.855,664.467a54.91,54.91,0,0,0,9.041,7.478v-7.478Z" transform="translate(-1120.855 -664.467)" fill="#f1b8b7"/>
              <path id="Path_1985" data-name="Path 1985" d="M1181.022,664.467v22.156c4.391-.191,8.644-.551,12.734-1.088V664.467Z" transform="translate(-1105.496 -664.467)" fill="#f1b8b7"/>
            </g>
            <g id="Group_195" data-name="Group 195" transform="translate(26.179 130.089)">
              <path id="Path_1986" data-name="Path 1986" d="M1128.057,664.467v7.478c1.117.743,2.264,1.469,3.466,2.161a77.923,77.923,0,0,0,10.2,4.887V664.467Z" transform="translate(-1128.057 -664.467)" fill="#ed8a63"/>
              <path id="Path_1987" data-name="Path 1987" d="M1149.092,664.467v18.572c1.875.461,3.781.892,5.734,1.269q3.634.7,7.446,1.209c.162.023.329.038.492.059V664.467Z" transform="translate(-1122.688 -664.467)" fill="#ed8a63"/>
              <path id="Path_1988" data-name="Path 1988" d="M1170.129,664.467v22.171c2.24.093,4.5.149,6.809.149h.316c2.218-.008,4.4-.069,6.549-.164V664.467Z" transform="translate(-1117.317 -664.467)" fill="#ed8a63"/>
              <path id="Path_1989" data-name="Path 1989" d="M1191.166,664.467v21.067a123.009,123.009,0,0,0,13.671-2.565v-18.5Z" transform="translate(-1111.948 -664.467)" fill="#ed8a63"/>
              <path id="Path_1990" data-name="Path 1990" d="M1212.2,664.467v14.418a74.339,74.339,0,0,0,13.671-7.115v-7.3Z" transform="translate(-1106.577 -664.467)" fill="#ed8a63"/>
            </g>
          </g>
          <g id="Group_197" data-name="Group 197" transform="translate(97.008 117.823)">
            <path id="Path_1991" data-name="Path 1991" d="M1205.789,660.783a3.677,3.677,0,0,0-1.41-.726c-.422-1.377-1.749-5.315-3.173-5.291-1.186.018-2.213,2.773-2.743,4.5-.679-.024-1.376-.029-2.072-.021h0a.1.1,0,0,0-.026,0h-.025c-.7.013-1.39.041-2.071.085-.584-1.708-1.7-4.427-2.886-4.408-1.427.023-2.623,4-3,5.391a3.585,3.585,0,0,0-1.385.773c-1.667,1.745-2.591,5.955-2.425,8.222.368,4.98,5.7,7.385,12.051,7.294h.046v0c6.355-.113,11.6-2.693,11.807-7.681C1208.572,666.653,1207.51,662.476,1205.789,660.783Z" transform="translate(-1184.465 -654.676)" fill="#fcf7e8"/>
            <path id="Path_1992" data-name="Path 1992" d="M1203.509,660.51c-1.487-.8-4.406-1.106-7.757-1.049s-6.259.453-7.72,1.3a2.76,2.76,0,0,0-.983.961c.334,1.59,3.18,2.588,8.779,2.5,5.572-.09,8.385-1.17,8.692-2.758C1204.546,661.137,1203.509,660.51,1203.509,660.51Z" transform="translate(-1183.828 -653.48)" fill="#ac5d42"/>
            <path id="Path_1993" data-name="Path 1993" d="M1206.665,663.988c.375-1.1-.113-2.207-1.636-1.927-.836.152-.73,1.052-.916,1.677-.211.7-1.028,1.126-1.45-.018a2.568,2.568,0,0,1-.108-1.821,3.25,3.25,0,0,1,6.325.731,3.728,3.728,0,0,1-.934,3.126,19.864,19.864,0,0,0-2.054,1.949c-.478.717.409,1.687-.817,2.135-.892.326-1.6-.7-1.348-2.04C1204.049,666.109,1206.12,665.575,1206.665,663.988Z" transform="translate(-1179.901 -653.426)" fill="#fcf7e8"/>
            <path id="Path_1994" data-name="Path 1994" d="M1203.622,666.205a14.013,14.013,0,0,0-.39-2.744l.177-.042a14.178,14.178,0,0,1,.4,2.781Z" transform="translate(-1179.697 -652.468)" fill="#4c2c14"/>
            <path id="Path_1995" data-name="Path 1995" d="M1196.689,676.716h-.134a16.648,16.648,0,0,1-8.226-1.757,6.9,6.9,0,0,1-3.827-5.622c-.159-2.167.713-6.475,2.449-8.291a3.6,3.6,0,0,1,1.376-.777c.451-1.658,1.625-5.391,3.072-5.414,1.178-.019,2.251,2.369,2.952,4.406.628-.041,1.272-.069,1.917-.082h.116l.115,0h0c.644-.008,1.289,0,1.917.019.635-2.059,1.633-4.481,2.807-4.5,1.45-.024,2.744,3.668,3.249,5.311a3.622,3.622,0,0,1,1.4.733,7.247,7.247,0,0,1,1.421,2.2l-.166.075a7.011,7.011,0,0,0-1.383-2.145,3.544,3.544,0,0,0-1.373-.705l-.047-.013-.012-.046c-.377-1.234-1.711-5.252-3.084-5.227-1.137.016-2.153,2.787-2.657,4.435l-.021.067-.069,0c-.677-.023-1.373-.028-2.07-.02l-.031,0h-.018c-.7.013-1.39.041-2.066.085l-.069.005-.024-.065c-.557-1.631-1.663-4.367-2.8-4.347-1.373.021-2.577,4.08-2.912,5.325l-.013.044-.044.018a3.544,3.544,0,0,0-1.351.747c-1.7,1.782-2.557,6.019-2.4,8.155a6.731,6.731,0,0,0,3.733,5.477,16.575,16.575,0,0,0,8.223,1.734h.034l.013,0c6.25-.113,10.677-2.552,11.555-6.365l.177.043a7.343,7.343,0,0,1-4.051,4.8,17.438,17.438,0,0,1-7.588,1.7h0Z" transform="translate(-1184.483 -654.695)" fill="#4c2c14"/>
            <path id="Path_1996" data-name="Path 1996" d="M1204.47,661.507c-.013-.024-.085-.164-.1-.183-.741-1.221-4.357-1.849-8.609-1.78-4.192.068-7.869.836-8.546,2.064a.091.091,0,0,0-.015.023.338.338,0,0,0-.067.144l-.134-.015a.447.447,0,0,1,.088-.208l.007-.012c.712-1.287,4.357-2.064,8.664-2.135s7.964.586,8.727,1.846c.016.024.093.175.105.193Z" transform="translate(-1183.84 -653.494)" fill="#4c2c14"/>
            <path id="Path_1997" data-name="Path 1997" d="M1195.854,664.1a20.962,20.962,0,0,1-6.652-.706c-1.451-.491-2.228-1.24-2.243-2.173a1.385,1.385,0,0,1,.18-.685.076.076,0,0,1,.1-.033.081.081,0,0,1,.033.11,1.2,1.2,0,0,0-.157.6c.029,1.82,3.212,2.811,8.733,2.722s8.669-1.184,8.64-3a1.218,1.218,0,0,0-.177-.6.082.082,0,0,1,.028-.11.079.079,0,0,1,.108.03,1.387,1.387,0,0,1,.2.679c.017.931-.736,1.706-2.17,2.243A20.938,20.938,0,0,1,1195.854,664.1Z" transform="translate(-1183.851 -653.285)" fill="#4c2c14"/>
            <path id="Path_1998" data-name="Path 1998" d="M1204.785,670.01a.946.946,0,0,1-.635-.235,2.111,2.111,0,0,1-.49-1.973,3.824,3.824,0,0,1,1.526-2.094,4.276,4.276,0,0,0,1.415-1.731,1.513,1.513,0,0,0-.154-1.479,1.4,1.4,0,0,0-1.377-.331c-.572.106-.655.6-.743,1.118a4.816,4.816,0,0,1-.105.5.887.887,0,0,1-.689.7c-.193.02-.571-.044-.924-.7a2.284,2.284,0,0,1-.115-1.89,3.364,3.364,0,0,1,5.355-1.51,3.363,3.363,0,0,1,1.147,2.259,3.849,3.849,0,0,1-.956,3.195,8.154,8.154,0,0,1-.8.717,6.589,6.589,0,0,0-1.248,1.22,1.307,1.307,0,0,0-.128.861,1.141,1.141,0,0,1-1.078,1.377Zm.687-8.065a1.366,1.366,0,0,1,1.113.436,1.687,1.687,0,0,1,.188,1.656h0a4.412,4.412,0,0,1-1.469,1.809,3.644,3.644,0,0,0-1.466,1.991,1.926,1.926,0,0,0,.427,1.8.771.771,0,0,0,.8.137c.679-.247.649-.654.615-1.125a1.439,1.439,0,0,1,.159-.977,6.76,6.76,0,0,1,1.282-1.263,7.637,7.637,0,0,0,.779-.7,3.642,3.642,0,0,0,.91-3.06,3.217,3.217,0,0,0-1.086-2.135,3.18,3.18,0,0,0-5.063,1.43,2.113,2.113,0,0,0,.1,1.747c.225.419.49.635.745.611a.725.725,0,0,0,.537-.576,4.606,4.606,0,0,0,.1-.473c.092-.535.192-1.139.887-1.265A2.6,2.6,0,0,1,1205.472,661.945Zm1.216,2.061Z" transform="translate(-1179.924 -653.444)" fill="#4c2c14"/>
          </g>
        </g>
        <path id="Path_2004" data-name="Path 2004" d="M1715.629,206.891l93.293,23.742" transform="translate(-543.283 1043.604) rotate(-19)" fill="none" stroke="#007aa7" stroke-width="3"/>
      </g>
      <g id="Group_200" data-name="Group 200" transform="matrix(0.966, 0.259, -0.259, 0.966, 634.552, 422.04)">
        <path id="Path_2000" data-name="Path 2000" d="M1048.774-301.192c.406-.59.813-1.217,1.256-1.808a11.849,11.849,0,0,1,2.583,1.514,1.621,1.621,0,0,1-.221.368c3.4.111,7.05.259,10.889.444a19.024,19.024,0,0,1-.222,2.805c-4.208,0-8.379-.074-12.475-.259-.554.886-1.108,1.7-1.625,2.473,4.429-.221,8.859-.406,13.214-.554a3.763,3.763,0,0,1,.3,1.292v1.588c-5.2.332-10.372.59-15.539.775-1.07,1.7-2.03,3.137-2.842,4.319-.48.738-.923,1.4-1.366,1.956a9.813,9.813,0,0,1-1.255,1.476,4,4,0,0,1-2.546-1.882c.774-1.181,2.066-3.1,3.838-5.721-1.034.073-1.993.11-2.953.11a3.167,3.167,0,0,1-.369-1.513v-1.366c1.809-.074,3.617-.184,5.389-.258.628-.96,1.292-1.92,1.956-2.879-1.181-.074-2.362-.148-3.506-.222v-1.587c.037-.369.073-.775.073-1.144C1045.084-301.265,1046.892-301.228,1048.774-301.192Zm12.033-3.58a117.6,117.6,0,0,1-17.2,2.067,5.641,5.641,0,0,1-.664-2.953q8.415-1.163,17.495-1.993A12.277,12.277,0,0,1,1060.807-304.772Zm1.846,14.137a29.642,29.642,0,0,1,.369,4.651,69.439,69.439,0,0,1-.295,8.121c-1.7.147-5.278.258-10.741.258a17.375,17.375,0,0,1-5.685-.812,69.116,69.116,0,0,1-.221-7.493,37.781,37.781,0,0,1,.333-3.913,25.036,25.036,0,0,1,3.174.222c0,.59-.038,1.144-.038,1.66.481,0,1.071-.036,1.736-.036,1.255,0,2.214.036,2.952.074a6.54,6.54,0,0,1,.148,1.292v1.144a13.505,13.505,0,0,1-3.212.258c-.664,0-1.217,0-1.661-.037v.775c.444,0,1-.036,1.588-.074,1.44,0,2.583.038,3.4.074a7.3,7.3,0,0,1,.147,1.329V-282a17.569,17.569,0,0,1-3.654.259c-.627,0-1.144,0-1.55-.037,0,.369-.037.7-.037,1.033,3.765.259,7.161.369,10.188.369,0-2.509-.038-5.056-.075-7.6a30.823,30.823,0,0,1-7.456-.886v-1.4a6.251,6.251,0,0,1,.112-1.255C1055.493-291.373,1059-291.078,1062.653-290.635Z" fill="#007aa7"/>
        <path id="Path_2001" data-name="Path 2001" d="M1088.677-306.654a44.194,44.194,0,0,1-.922,10.409,22.01,22.01,0,0,1-5.057.369v.923a44.829,44.829,0,0,1,6.2.369,4.358,4.358,0,0,1,.11,1.181,4.644,4.644,0,0,1-.11,1.255,42.328,42.328,0,0,1-6.349.221,93.92,93.92,0,0,1-9.6-.221,3.875,3.875,0,0,1-.148-1.255,3.942,3.942,0,0,1,.222-1.366c2.067-.037,4.245-.074,6.57-.148a8.966,8.966,0,0,1-.037-1,20.853,20.853,0,0,1-5.241-.812c-.222-2.51-.369-5.574-.443-9.117.922-.074,1.845-.148,2.731-.222.074.96.148,1.883.222,2.806.516,0,1.144-.038,1.883-.074a21.685,21.685,0,0,1,2.546.147,7.434,7.434,0,0,1,.111,1.329v1.182a13.47,13.47,0,0,1-2.805.184c-.628,0-1.144,0-1.551-.037,0,.59.037,1.144.075,1.661q4.317.332,8.083.332,0-2.049.332-5.536a37.749,37.749,0,0,1-7.123-.96c.036-.849.073-1.661.073-2.436C1082.217-307.282,1085.614-307.024,1088.677-306.654Zm-10.482,25.395a11.554,11.554,0,0,1-3.175,2.288,6.882,6.882,0,0,1-1.661-2.362c.886-.738,1.92-1.477,3.027-2.252A6.012,6.012,0,0,1,1078.195-281.259Zm8.9-9.228a5.8,5.8,0,0,1,.406,2.694,10.2,10.2,0,0,1-.406,3.655,13.028,13.028,0,0,1-3.469.3q.443,2.6.664,5.2a2.262,2.262,0,0,1-1.587.443,22.741,22.741,0,0,1-2.732-.147,5.883,5.883,0,0,1-.295-1.883c.553-.037,1.107-.074,1.661-.148a14.564,14.564,0,0,1-.627-3.506,19.781,19.781,0,0,1-4.577-.554,10.759,10.759,0,0,1-.407-3.137,15.257,15.257,0,0,1,.481-2.732c.332-.074.737-.11,1.218-.184a4.647,4.647,0,0,1,1.329.184v3.581a41.388,41.388,0,0,0,5.536.332c0-.517.037-1.107.037-1.7a19.521,19.521,0,0,1-4.282-.886v-1.218a2.762,2.762,0,0,1,.184-.923A44.243,44.243,0,0,1,1087.09-290.487Zm2.879,9.338a6.9,6.9,0,0,1-1.956,1.661,8.845,8.845,0,0,1-2.51-2.473,16.475,16.475,0,0,1,1.993-1.587A18.95,18.95,0,0,1,1089.969-281.149Zm10.261-18.935a22.945,22.945,0,0,1-8.046,3.174,4.47,4.47,0,0,1-1.181-2.251,45.723,45.723,0,0,1,8.341-3.175A4.389,4.389,0,0,1,1100.23-300.084Zm1.773,16.2a33.261,33.261,0,0,1-8.564,1.956,5.923,5.923,0,0,1-.554-2.51,52.73,52.73,0,0,1,8.6-1.993A7.274,7.274,0,0,1,1102-283.88Zm-.665-7.678a69.04,69.04,0,0,1-7.2,1.145,6.419,6.419,0,0,1-.406-2.4,33.855,33.855,0,0,1,7.05-1.328A5.783,5.783,0,0,1,1101.338-291.558Z" fill="#007aa7"/>
        <path id="Path_2002" data-name="Path 2002" d="M1113.888-291.078c5.094.074,10.114.3,15.023.665a65.355,65.355,0,0,1,.738,9.449,6.546,6.546,0,0,1-1.291.074,14.663,14.663,0,0,1-1.625-.074,54.24,54.24,0,0,1-1.143-6.718c-3.987,0-7.973-.184-12-.553-.258,2.325-.516,4.613-.812,6.828-.96-.074-1.882-.222-2.732-.369.554-7.382,1.219-14.506,1.994-21.445,1,.073,1.92.147,2.731.221q-.165,2.492-.332,4.872c3.322.037,6.57.074,9.818.148.038-2.141.075-4.208.148-6.2a14.821,14.821,0,0,0,1.735-.074,9.171,9.171,0,0,1,1.365.222v6.164q2.769.109,5.426.221a18.042,18.042,0,0,1-.258,2.842c-6.275,0-12.4-.074-18.456-.3C1114.11-293.7,1114-292.37,1113.888-291.078Z" fill="#007aa7"/>
        <path id="Path_2003" data-name="Path 2003" d="M1143.565-281.591a7.186,7.186,0,0,1-1.143,2.066,11.6,11.6,0,0,1-4.43-1.919,14.29,14.29,0,0,1,1.808-4.171,9.548,9.548,0,0,1,4.467,1.735A7.063,7.063,0,0,1,1143.565-281.591Zm1.034-15.319a49.828,49.828,0,0,1-1.292,8.342,4.268,4.268,0,0,1-1.033.148,3.578,3.578,0,0,1-1.809-.369,15.331,15.331,0,0,1-.111-1.993c0-1.108.111-3.286.369-6.534.295-3.949.591-6.9.96-8.858a7.068,7.068,0,0,1,3.4.332c.037.886.074,1.55.074,1.919C1145.153-302.816,1144.968-300.453,1144.6-296.91Z" fill="#007aa7"/>
      </g>
    </g>
  </g>
</svg>
