<svg xmlns="http://www.w3.org/2000/svg" width="384.98" height="145.759" viewBox="0 0 384.98 145.759">
  <g id="Group_950" data-name="Group 950" transform="translate(-451 -508)">
    <g id="Group_205" data-name="Group 205" transform="translate(35.403 1392.832)">
      <path id="Path_2005" data-name="Path 2005" d="M443.012-882.144a2.285,2.285,0,0,0-.3.019,12.977,12.977,0,0,0-2.257.509,2.263,2.263,0,0,0-.774-.757,8.82,8.82,0,0,0-3.349-1.127,2.362,2.362,0,0,0-.3-.02,2.266,2.266,0,0,0-.779.138,2.262,2.262,0,0,0-1-.55,11.857,11.857,0,0,0-2.919-.356,2.267,2.267,0,0,0-2.232,1.867l-.046.258-.147-.146a2.266,2.266,0,0,0-1.574-.635,2.282,2.282,0,0,0-.511.058,18.467,18.467,0,0,0-2.455.7,2.269,2.269,0,0,0-1.423,2.434,9.9,9.9,0,0,0,.771,2.693c-2.234.071-4.21.166-6.009.291a2.267,2.267,0,0,0-2.108,2.378c.145,2.822.392,5.432.756,7.979a2.268,2.268,0,0,0,2.245,1.947c1.7,0,3.373-.077,5-.229a2.252,2.252,0,0,0-.066.634,21.2,21.2,0,0,0,.253,2.755,2.268,2.268,0,0,0,2.237,1.895c.18,0,.36,0,.541,0q-.282.969-.549,1.922a2.267,2.267,0,0,0,.849,2.445,5.914,5.914,0,0,0,1.9.923l.2.048a9.565,9.565,0,0,0,1.762.2,2.268,2.268,0,0,0,2.017-1.231,22.441,22.441,0,0,0,1-2.216,22.477,22.477,0,0,0,4.448,2.745,2.267,2.267,0,0,0,.979.222,2.263,2.263,0,0,0,1.4-.488,6.21,6.21,0,0,0,2.039-2.762,2.269,2.269,0,0,0-.624-2.472,2.267,2.267,0,0,0,1.752-2.208v-1.28a6.516,6.516,0,0,0-.241-1.72,2.259,2.259,0,0,0-.783-1.181v-.622a2.266,2.266,0,0,0,1.013-1.475,8.532,8.532,0,0,0,.171-1.689v-.927a2.268,2.268,0,0,0-1.424-2.106,14.169,14.169,0,0,0,.154-1.452c.531-.144,1.076-.31,1.639-.5a2.267,2.267,0,0,0,1.551-2.151,7.985,7.985,0,0,0-.766-3.473A2.266,2.266,0,0,0,443.012-882.144Z" fill="#fff"/>
      <path id="Path_2006" data-name="Path 2006" d="M473.407-882.144a2.274,2.274,0,0,0-.3.019,12.968,12.968,0,0,0-2.258.509,2.245,2.245,0,0,0-.772-.756,8.8,8.8,0,0,0-3.351-1.128,2.338,2.338,0,0,0-.3-.02,2.233,2.233,0,0,0-.778.139,2.252,2.252,0,0,0-1.005-.551,11.851,11.851,0,0,0-2.919-.356,2.268,2.268,0,0,0-2.232,1.867l-.046.258-.147-.146a2.266,2.266,0,0,0-1.574-.635,2.276,2.276,0,0,0-.511.058,18.555,18.555,0,0,0-2.455.7,2.269,2.269,0,0,0-1.423,2.434,9.866,9.866,0,0,0,.771,2.693c-2.233.071-4.208.166-6.009.291a2.266,2.266,0,0,0-2.107,2.378c.144,2.825.391,5.435.755,7.979a2.268,2.268,0,0,0,2.245,1.947c1.7,0,3.374-.077,5-.229a2.289,2.289,0,0,0-.067.634,21.427,21.427,0,0,0,.254,2.755,2.269,2.269,0,0,0,2.238,1.895c.179,0,.36,0,.541,0q-.284.969-.549,1.923a2.265,2.265,0,0,0,.849,2.444,5.915,5.915,0,0,0,1.9.923l.2.048a9.436,9.436,0,0,0,1.763.2,2.267,2.267,0,0,0,2.017-1.232,22.057,22.057,0,0,0,1-2.215,22.517,22.517,0,0,0,4.449,2.745,2.26,2.26,0,0,0,.978.222,2.263,2.263,0,0,0,1.4-.488,6.2,6.2,0,0,0,2.039-2.762,2.267,2.267,0,0,0-.623-2.472,2.268,2.268,0,0,0,1.752-2.208v-1.28a6.56,6.56,0,0,0-.239-1.715,2.262,2.262,0,0,0-.785-1.187v-.621a2.262,2.262,0,0,0,1.011-1.468,8.5,8.5,0,0,0,.173-1.7v-.927a2.268,2.268,0,0,0-1.424-2.106,14.189,14.189,0,0,0,.154-1.452c.53-.144,1.075-.31,1.639-.5a2.268,2.268,0,0,0,1.549-2.151,7.974,7.974,0,0,0-.764-3.473A2.267,2.267,0,0,0,473.407-882.144Z" fill="#fff"/>
      <path id="Path_2007" data-name="Path 2007" d="M496.564-880.772a2.267,2.267,0,0,0-1.425-2.011,7.639,7.639,0,0,0-2.837-.5,10.925,10.925,0,0,0-1.2.069,2.265,2.265,0,0,0-1.978,1.834,77.774,77.774,0,0,0-.865,7.92c-.214,2.7-.326,4.719-.326,5.841a15.223,15.223,0,0,0,.117,2.029,2.292,2.292,0,0,0,.217.709,2.269,2.269,0,0,0-.506.6,14.43,14.43,0,0,0-1.838,4.344,2.268,2.268,0,0,0,.871,2.229,12.186,12.186,0,0,0,4.692,2.059,2.239,2.239,0,0,0,.507.057,2.266,2.266,0,0,0,1.606-.667,7.112,7.112,0,0,0,1.47-2.5,7.508,7.508,0,0,0,.791-2.877,2.266,2.266,0,0,0-1.029-1.9c-.216-.141-.432-.275-.645-.4a2.263,2.263,0,0,0,.726-1.047,42.822,42.822,0,0,0,1.224-7.713c.33-3.181.492-5.246.492-6.313,0-.247-.016-.633-.04-1.133Z" fill="#fff"/>
      <path id="Path_2008" data-name="Path 2008" d="M535.706-868.085a67.158,67.158,0,0,0,.6-9.264,2.267,2.267,0,0,0-2.129-2.264c-1.889-.115-4.022-.24-5.933-.318v-.17a2.268,2.268,0,0,0-1.922-2.241,15.016,15.016,0,0,0-2.2-.122l-.362.02a2.268,2.268,0,0,0-1.338-.891,7.7,7.7,0,0,0-1.723-.217,2.144,2.144,0,0,0-.3.02,7.562,7.562,0,0,1-.979.076,2.262,2.262,0,0,0-.848.164,2.272,2.272,0,0,0-1.168-.324,2.269,2.269,0,0,0-.551.068c-3.209.8-6.1,1.572-8.839,2.355a2.266,2.266,0,0,0-1.605,2.6c.234,1.249.437,2.144.658,2.9a2.263,2.263,0,0,0,1.235,1.429c.222,2.426.515,4.778.874,7.022a2.266,2.266,0,0,0-1.013,1.971,22.643,22.643,0,0,0,.251,2.8,2.267,2.267,0,0,0,2.238,1.909l.971-.027q-.311.45-.638.932a2.266,2.266,0,0,0,.181,2.782,7.507,7.507,0,0,0,2.944,1.979,2.267,2.267,0,0,0,.83.157,2.268,2.268,0,0,0,1.6-.665,14.928,14.928,0,0,0,1.185-1.373c.275-.357.585-.724.925-1.091l.12-.142c.659-.843,1.184-1.54,1.6-2.2a2.258,2.258,0,0,0,.305-.757q1.336-.07,2.67-.149a2.265,2.265,0,0,0,.679,1.3,28.929,28.929,0,0,0,5.068,3.823,2.276,2.276,0,0,0,1.167.322,2.273,2.273,0,0,0,.985-.224,6.94,6.94,0,0,0,2.912-2.523,2.267,2.267,0,0,0-.566-3.039l-.487-.359c.4-.033.794-.068,1.191-.1a2.268,2.268,0,0,0,2.071-2.259v-1.312a6.907,6.907,0,0,0-.229-1.737A2.277,2.277,0,0,0,535.706-868.085Z" fill="#fff"/>
      <path id="Path_2009" data-name="Path 2009" d="M563.568-868.292a2.255,2.255,0,0,0-.294.019l-2.458.324a2.339,2.339,0,0,0-.872-1.209,10.228,10.228,0,0,0,2.273-.457,2.259,2.259,0,0,0,.628-.344c1.1-.854,1.326-2.4,1.326-4.447,0-5.014-.41-6.378-.544-6.827a2.267,2.267,0,0,0-1.863-1.594c-1.909-.263-4.137-.463-6.621-.594l-.152,0c-3.253-.032-6.537-.064-9.884-.064a2.267,2.267,0,0,0-2.23,1.859,13.539,13.539,0,0,0-.162,1.5l0,.152a10.969,10.969,0,0,0,.087,1.635,2.311,2.311,0,0,0,.139.521,2.306,2.306,0,0,0-.17.3c-1.55,3.284-3.177,7.013-4.974,11.4a2.267,2.267,0,0,0,.631,2.589,8.449,8.449,0,0,0,3.094,1.628,2.273,2.273,0,0,0,.645.094,2.266,2.266,0,0,0,1.815-.909l.006-.008c-.039,1.349-.058,2.75-.058,4.216a2.268,2.268,0,0,0,1.745,2.206,29.441,29.441,0,0,0,6.761.733,2.27,2.27,0,0,0,2.075-1.351,2.263,2.263,0,0,0,.895.452,20.934,20.934,0,0,0,4.933.419,15.647,15.647,0,0,0,1.918-.054,2.266,2.266,0,0,0,1.92-1.881,10.379,10.379,0,0,0,.093-1.58v-1.024a2.261,2.261,0,0,0-.176-.878l.168-.032a2.268,2.268,0,0,0,1.825-2.4,24.647,24.647,0,0,0-.286-2.539A2.269,2.269,0,0,0,563.568-868.292Zm-14-7.623-.023-.171q.859.054,1.672.1Zm4.308,8.423c0,.091-.008.181-.011.271-.728-.082-1.5-.166-2.287-.243,0-.207.01-.416.016-.627a2.22,2.22,0,0,0-.087-.7c1.065-.01,2.022-.027,2.882-.048A2.252,2.252,0,0,0,553.878-867.492Z" fill="#fff"/>
      <path id="Path_2010" data-name="Path 2010" d="M593.962-868.292a2.243,2.243,0,0,0-.294.019l-2.457.324a2.345,2.345,0,0,0-.872-1.209,10.269,10.269,0,0,0,2.273-.457,2.247,2.247,0,0,0,.631-.347c1.1-.854,1.321-2.394,1.321-4.444,0-5.011-.408-6.376-.542-6.825a2.268,2.268,0,0,0-1.863-1.6c-1.909-.263-4.137-.463-6.621-.594l-.15,0c-3.254-.032-6.54-.064-9.887-.064a2.268,2.268,0,0,0-2.231,1.859,13.314,13.314,0,0,0-.161,1.5l-.005.152a10.841,10.841,0,0,0,.088,1.635,2.162,2.162,0,0,0,.14.522,2.234,2.234,0,0,0-.17.3c-1.552,3.286-3.18,7.016-4.975,11.4a2.268,2.268,0,0,0,.63,2.587,8.449,8.449,0,0,0,3.1,1.629,2.26,2.26,0,0,0,.643.094,2.269,2.269,0,0,0,1.816-.909l.006-.008c-.039,1.349-.058,2.75-.058,4.216a2.268,2.268,0,0,0,1.744,2.206,29.45,29.45,0,0,0,6.762.733,2.268,2.268,0,0,0,2.074-1.351,2.274,2.274,0,0,0,.9.452,20.924,20.924,0,0,0,4.932.419,15.607,15.607,0,0,0,1.918-.054,2.267,2.267,0,0,0,1.92-1.881,10.381,10.381,0,0,0,.093-1.58v-1.024a2.269,2.269,0,0,0-.176-.877l.169-.033a2.267,2.267,0,0,0,1.824-2.4,24.433,24.433,0,0,0-.287-2.536A2.267,2.267,0,0,0,593.962-868.292Zm-14-7.623-.024-.171q.859.054,1.672.1Zm4.307,8.423c0,.091-.008.181-.011.271-.727-.082-1.5-.166-2.288-.243q.006-.311.017-.627a2.25,2.25,0,0,0-.087-.7c1.065-.01,2.021-.027,2.883-.048A2.253,2.253,0,0,0,584.272-867.492Z" fill="#fff"/>
      <path id="Path_2011" data-name="Path 2011" d="M626.005-876.091a7.562,7.562,0,0,0,.554-2.89,2.268,2.268,0,0,0-1.94-2.244,37.729,37.729,0,0,0-4.4-.4,2.268,2.268,0,0,0-2.2-1.705c-.134,0-.278-.007-.436-.012-.253-.01-.533-.02-.844-.02a2.192,2.192,0,0,0-.281.018,8.886,8.886,0,0,1-1.063.078,2.269,2.269,0,0,0-1.615.676,2.269,2.269,0,0,0-.652,1.626c.021,1.4.112,2.837.27,4.288a2.265,2.265,0,0,0-.9,1.185H610.95a2.262,2.262,0,0,0-.309.02c-.052-.133-.11-.264-.172-.393a2.266,2.266,0,0,0-2.046-1.291l-.246.013a28.339,28.339,0,0,0-9.6,2.913,2.269,2.269,0,0,0-1.254,2.029,7.915,7.915,0,0,0,.544,2.95,2.266,2.266,0,0,0,2.1,1.43,2.257,2.257,0,0,0,.346-.027c.135-.021.27-.043.406-.067.366,2.06.785,4.071,1.267,6.094a2.267,2.267,0,0,0,2.206,1.741,9.308,9.308,0,0,0,3.206-.488,2.266,2.266,0,0,0,1.28-1.171q.038.342.078.666a2.268,2.268,0,0,0,1.8,1.941l-.111.216a2.269,2.269,0,0,0,.278,2.458,5.663,5.663,0,0,0,3.289,1.9,2.267,2.267,0,0,0,.477.05,2.268,2.268,0,0,0,1.6-.664c.508-.508.96-1,1.362-1.477a2.343,2.343,0,0,0,.378.306,21.155,21.155,0,0,0,3.8,1.937,2.274,2.274,0,0,0,.821.154,2.266,2.266,0,0,0,1.888-1.01,12.923,12.923,0,0,0,1.468-2.741,2.262,2.262,0,0,0-.021-1.569,2.271,2.271,0,0,0,1.326-1.874c.106-1.248.232-3.56.232-7.487a27.212,27.212,0,0,0-.5-5.841A2.262,2.262,0,0,0,626.005-876.091Zm-17.737,8.1q.016.459.035.9c-.15-.917-.313-1.816-.49-2.7.175-.058.353-.117.531-.179q-.059.938-.077,1.854Zm11.176,2.361c.009-.132.013-.264.013-.394a6.523,6.523,0,0,0-.181-1.447,2.258,2.258,0,0,0-.327-.769,7.551,7.551,0,0,0,.3-1.663l.676.044s.069,3.149.088,4.2C619.839-865.651,619.65-865.64,619.444-865.63Z" fill="#fff"/>
      <path id="Path_2012" data-name="Path 2012" d="M656.468-881.078c-4.083-.389-8.289-.586-12.5-.586a2.235,2.235,0,0,0-.457.046l-.167-.055a6.947,6.947,0,0,0-1.935-.279,2.4,2.4,0,0,0-.281.017c-.375.047-.731.075-1.038.1l-.244.02a2.27,2.27,0,0,0-2.039,1.826,18.184,18.184,0,0,0-.247,1.83,2.129,2.129,0,0,0-.257-.245,2.27,2.27,0,0,0-1.429-.507l-.242.012c-1.007.109-1.839.208-2.626.339a2.266,2.266,0,0,0-1.894,2.3q.018.623.045,1.246-.625.037-1.192.075a2.266,2.266,0,0,0-2,1.546,6.234,6.234,0,0,0-.34,2,5.078,5.078,0,0,0,.351,2.1,2.267,2.267,0,0,0,.475.691c.609.609,1.3.807,3.1.864l.006.095-.892.112a2.268,2.268,0,0,0-1.986,2.314,6.782,6.782,0,0,0,.977,3.718,2.266,2.266,0,0,0,1.867.981l.15-.005c.135-.009.268-.018.4-.029.054.653.111,1.283.167,1.878a2.266,2.266,0,0,0,2.258,2.059,8.984,8.984,0,0,0,3.4-.514,2.265,2.265,0,0,0,.712-.455,7.121,7.121,0,0,0,.92,1.215,2.259,2.259,0,0,0,1.652.714,2.272,2.272,0,0,0,.956-.211q1.365-.636,2.689-1.3.036.476.077.967a2.267,2.267,0,0,0,2.26,2.079h1.249a7.888,7.888,0,0,0,1.862-.2,2.268,2.268,0,0,0,1.716-2.2q0-.647-.008-1.285.8.138,1.663.241a2.072,2.072,0,0,0,.271.017,2.269,2.269,0,0,0,2.059-1.32,9.42,9.42,0,0,0,.869-3.048,2.264,2.264,0,0,0-.174-1.1,2.271,2.271,0,0,0,.193-.468,7.362,7.362,0,0,0,.309-2.031v-1.247a2.265,2.265,0,0,0-.349-1.211,2.271,2.271,0,0,0,.766-1.7,12.913,12.913,0,0,0-.108-1.671,2.268,2.268,0,0,0,1.42-2.1,42.606,42.606,0,0,0-.4-5.68A2.267,2.267,0,0,0,656.468-881.078Z" fill="#fff"/>
      <path id="Path_2013" data-name="Path 2013" d="M685-880.25c-2.578-.2-5.212-.365-7.859-.488v-.9a2.269,2.269,0,0,0-2.081-2.261c-.435-.035-.942-.071-1.6-.071a2.206,2.206,0,0,0-.372.031,6.745,6.745,0,0,1-1.13.1,2.268,2.268,0,0,0-2.268,2.268c0,.222,0,.442.008.658-.714-.008-1.432-.014-2.156-.014a2.256,2.256,0,0,0-1.468.54,2.266,2.266,0,0,0-1.19-.707,8.169,8.169,0,0,0-1.821-.217,2.414,2.414,0,0,0-.282.017c-.392.049-.743.077-1.053.1l-.194.016a2.266,2.266,0,0,0-2.046,1.861,48.238,48.238,0,0,0-.484,8.045,2.27,2.27,0,0,0,.875,1.79,4.214,4.214,0,0,0,2.51.794,2.3,2.3,0,0,0-.214.546,10.694,10.694,0,0,0-.316,1.75l-.007.176a4.3,4.3,0,0,0,.577,2.512,2.269,2.269,0,0,0,1.772,1q.869.043,1.821.08a34.413,34.413,0,0,0-1.6,5.545,2.269,2.269,0,0,0,1.164,2.467,7.28,7.28,0,0,0,3.424.772,2.266,2.266,0,0,0,2.028-1.252,36.127,36.127,0,0,0,2.249-6.725,2.288,2.288,0,0,0,.069-.623l.751.011a28.576,28.576,0,0,0,.9,6.377,2.27,2.27,0,0,0,2.123,1.7l.563.018c.765.026,1.4.047,1.878.047H681.4a2.268,2.268,0,0,0,2.268-2.268v-1.151c0-.238-.01-.464-.02-.68-.006-.132-.013-.257-.013-.376a2.267,2.267,0,0,0-1.947-2.245l-.317-.046c-.065-.439-.129-.883-.194-1.329h1.279a2.269,2.269,0,0,0,2.2-1.714,7.565,7.565,0,0,0,.2-1.8v-1.183a2.268,2.268,0,0,0-2.147-2.265q-.929-.05-1.845-.094a2.234,2.234,0,0,0,.4-.8,2.27,2.27,0,0,0,1.494.8,13.164,13.164,0,0,0,1.562.078,6.537,6.537,0,0,0,1.606-.131,2.269,2.269,0,0,0,1.717-2.2,42.7,42.7,0,0,0-.572-6.659A2.266,2.266,0,0,0,685-880.25Zm-19.126,10.394a2.269,2.269,0,0,0,.348-1.019c.049-.544.093-1.068.133-1.575.039.74.1,1.466.19,2.164a2.22,2.22,0,0,0,.1.435Zm.572-3.815c.015-.2.027-.4.04-.59l.19.1A2.328,2.328,0,0,0,666.448-873.671Z" fill="#fff"/>
      <path id="Path_2014" data-name="Path 2014" d="M713.582-880.128l-.291-.007q.137-.507.23-1.066a2.267,2.267,0,0,0-1.4-2.477,23.911,23.911,0,0,0-2.682-.915,2.238,2.238,0,0,0-.592-.079,2.265,2.265,0,0,0-1.972,1.149,10.4,10.4,0,0,0-1.225,3.206l-2.6-.058a8.4,8.4,0,0,0-1.736-3.645,2.267,2.267,0,0,0-1.712-.779,2.305,2.305,0,0,0-.459.046,16.694,16.694,0,0,0-2.749.786,2.267,2.267,0,0,0-1.411,2.381,9.86,9.86,0,0,0,.183,1.045l-.2,0a2.27,2.27,0,0,0-2.084,1.373,6.225,6.225,0,0,0-.5,2l-.006.175a6.478,6.478,0,0,0,.244,2.091,2.267,2.267,0,0,0,2.074,1.551l.622.02a2.257,2.257,0,0,0-.029.369c0,.234-.023.51-.046.827l-.018.324a5.328,5.328,0,0,0,.357,2,2.266,2.266,0,0,0,1.357,1.294,2.125,2.125,0,0,0-.018.289,13.116,13.116,0,0,0,.235,2.657l-1.678.069a2.268,2.268,0,0,0-2.172,2.344,24.223,24.223,0,0,0,.25,2.892,2.269,2.269,0,0,0,2.24,1.921c.015,0,.98-.02,1.452-.033l-.152.3a2.269,2.269,0,0,0,.6,2.776,8.782,8.782,0,0,0,3.14,1.633,2.216,2.216,0,0,0,.623.088,2.265,2.265,0,0,0,1.707-.776,8.26,8.26,0,0,0,1.212-1.721c.167-.306.333-.613.528-.919l.139-.254c.2-.414.472-.923.759-1.437l.324-.012a2.267,2.267,0,0,0,.7,2.2,17.129,17.129,0,0,0,3.46,2.427,2.262,2.262,0,0,0,1.061.264,2.265,2.265,0,0,0,1.388-.474,6.667,6.667,0,0,0,2.249-3.041,2.268,2.268,0,0,0-.641-2.475l-.076-.066a2.262,2.262,0,0,0,.53-1.458V-862.7a6.957,6.957,0,0,0-.228-1.738,2.269,2.269,0,0,0-1.693-1.657l0-1.309a12.806,12.806,0,0,0-.077-1.347,2.211,2.211,0,0,0-.4-1.068,2.273,2.273,0,0,0,.191-.912V-872.9l0-.133h.807a2.268,2.268,0,0,0,2.237-1.892,10.846,10.846,0,0,0,.159-1.815v-1.12A2.268,2.268,0,0,0,713.582-880.128Z" fill="#fff"/>
      <path id="Path_2015" data-name="Path 2015" d="M748.119-877.4c-1.194-.123-2.387-.22-3.562-.308q-.028-.824-.07-1.649a2.268,2.268,0,0,0-.757-1.576,2.269,2.269,0,0,0-1.508-.574l-.146.005c-1,.064-1.929.129-2.829.194a2.267,2.267,0,0,0-2.107,2.261c0,.322.005.642.014.964l-1.234-.032A2.267,2.267,0,0,0,734-877.047a2.266,2.266,0,0,0-1.471-1.1,57.953,57.953,0,0,0-10.351-1.463l-.11,0a2.266,2.266,0,0,0-2.2,1.716,11.465,11.465,0,0,0-.324,2.792,2.269,2.269,0,0,0,1.5,2.134l-.037.07c-.813,1.482-1.43,2.626-1.865,3.432l-.381.705a2.267,2.267,0,0,0,.03,2.213,6,6,0,0,0,3.56,2.728l.068.02c.134,1.272.3,2.572.511,3.891A2.267,2.267,0,0,0,725.171-858a49.49,49.49,0,0,0,6.672-.436,2.29,2.29,0,0,0,.3-.062l.12.022c.859.137,1.786.274,2.757.344l.163.005a2.266,2.266,0,0,0,2.242-1.944c.031-.207.06-.415.089-.622.257.138.522.274.794.41l-.119.748a2.268,2.268,0,0,0,1.057,2.291,7.585,7.585,0,0,0,3.261.993l.225.011a2.266,2.266,0,0,0,1.914-1.052c.059-.092.117-.192.175-.3.355.109.722.213,1.1.315a2.266,2.266,0,0,0,.585.077,2.269,2.269,0,0,0,1.816-.909,7.638,7.638,0,0,0,1.337-2.636,2.267,2.267,0,0,0-1.086-2.558c-.612-.342-1.2-.661-1.775-.961.227-.995.447-2.067.658-3.2a2.265,2.265,0,0,0,.034-.548,5.508,5.508,0,0,0,.7-.142,2.269,2.269,0,0,0,1.647-1.874,37.588,37.588,0,0,0,.31-5.113A2.268,2.268,0,0,0,748.119-877.4Zm-16.824,7.476h-.011c-1.215.033-2.418.074-3.6.123.336-.631.656-1.263.969-1.895.936.078,1.885.122,2.839.13C731.425-871.028,731.36-870.482,731.295-869.922Z" fill="#fff"/>
      <path id="Path_2016" data-name="Path 2016" d="M773.114-872.791a7.31,7.31,0,0,0,1.743.173,7.629,7.629,0,0,0,2-.206,2.267,2.267,0,0,0,1.653-2.512,13.205,13.205,0,0,1-.074-1.725c0-.906-.068-2.048-.2-3.393a2.268,2.268,0,0,0-1.909-2.015c-2.027-.315-4.258-.538-6.795-.681a2.27,2.27,0,0,0-2.189-1.682l-.159.006c-.974.067-1.988.168-3.013.3a2.269,2.269,0,0,0-1.854,1.511c-1.671.045-3.242.089-4.7.134a2.18,2.18,0,0,0-1.385.422,7.2,7.2,0,0,0-1.4-.134,2.381,2.381,0,0,0-.28.017c-.438.054-.852.083-1.32.116a2.27,2.27,0,0,0-2.085,1.941,45.766,45.766,0,0,0-.278,6.08,2.268,2.268,0,0,0,.968,1.858,4.64,4.64,0,0,0,2.739.73,6.859,6.859,0,0,0,1.954-.2,2.275,2.275,0,0,0,1.532,1.228q-.126.466-.248.951a2.27,2.27,0,0,0,1,2.473h-1.675a2.269,2.269,0,0,0-2.267,2.268c0,.269-.025.58-.048.916l-.011.143-.005.157a5.832,5.832,0,0,0,.255,1.785,15.114,15.114,0,0,0-1.647,2.543,2.264,2.264,0,0,0,.249,2.422,5.688,5.688,0,0,0,3.476,2,2.244,2.244,0,0,0,.446.044,2.269,2.269,0,0,0,1.554-.616,19.721,19.721,0,0,0,1.386-1.432c.058.358.124.691.2,1a2.271,2.271,0,0,0,2.012,1.71c.7.058,1.792.136,3.133.136a4.1,4.1,0,0,0,2.443-.769,2.268,2.268,0,0,0,.9-2.027q-.042-.447-.084-.876a16.2,16.2,0,0,0,4.643,2.527,2.267,2.267,0,0,0,.733.122,2.269,2.269,0,0,0,1.815-.909,10.669,10.669,0,0,0,1.532-2.761,2.269,2.269,0,0,0-.894-2.675c-.83-.54-1.562-.993-2.234-1.381v-1.965a2.268,2.268,0,0,0-1.544-2.15,6.856,6.856,0,0,0,.393-2.361,2.268,2.268,0,0,0-.869-1.786,2.281,2.281,0,0,0,.332-.886Q773.078-872.507,773.114-872.791Z" fill="#fff"/>
      <path id="Path_2017" data-name="Path 2017" d="M790.743-857.714a12.186,12.186,0,0,0,4.692,2.059,2.24,2.24,0,0,0,.507.057,2.264,2.264,0,0,0,1.606-.667,7.094,7.094,0,0,0,1.47-2.5,7.49,7.49,0,0,0,.791-2.877,2.27,2.27,0,0,0-1.029-1.9q-.326-.211-.645-.4a2.28,2.28,0,0,0,.727-1.048,42.874,42.874,0,0,0,1.223-7.711c.331-3.179.492-5.244.492-6.314,0-.247-.016-.633-.039-1.133l-.028-.626a2.266,2.266,0,0,0-1.424-2.011,7.639,7.639,0,0,0-2.837-.5,10.928,10.928,0,0,0-1.2.069,2.265,2.265,0,0,0-1.978,1.834,77.579,77.579,0,0,0-.864,7.919c-.21,2.649-.327,4.724-.327,5.842A15.408,15.408,0,0,0,792-865.6a2.262,2.262,0,0,0,.217.713,2.261,2.261,0,0,0-.5.6,14.43,14.43,0,0,0-1.838,4.344A2.265,2.265,0,0,0,790.743-857.714Z" fill="#fff"/>
      <path id="Path_2018" data-name="Path 2018" d="M747.043-839.971a2.27,2.27,0,0,0-1.815-.907,2.264,2.264,0,0,0-.828.157,9.078,9.078,0,0,0-2.254,1.3,2.27,2.27,0,0,0-.845,2.13c-1.149-.071-2.12-.136-2.939-.2,1.056-1.339,2.009-2.561,2.85-3.652a2.269,2.269,0,0,0-.329-3.11,14.076,14.076,0,0,0-2.187-1.567,2.256,2.256,0,0,0-1.114-.294,2.266,2.266,0,0,0-1.753.829q-2.869,3.49-4.943,6.187a28.328,28.328,0,0,0-2.616,3.869,2.27,2.27,0,0,0,.636,2.735,5.33,5.33,0,0,0,2.486.969,2.3,2.3,0,0,0-.111.671l-.024,1.51c-.015.838-.025,1.459-.025,1.848a11.1,11.1,0,0,0,.569,4.206,2.269,2.269,0,0,0,1.657,1.343,32.344,32.344,0,0,0,6.151.555,36.357,36.357,0,0,0,6.193-.382,2.268,2.268,0,0,0,1.837-2.077c.047-.7.1-1.91.1-3.67a13.084,13.084,0,0,0-.352-3.888,2.256,2.256,0,0,0-.416-.761,5.542,5.542,0,0,0,2.328-1.584,2.266,2.266,0,0,0,.183-2.625C748.723-837.617,747.9-838.828,747.043-839.971Z" fill="#fff"/>
      <path id="Path_2019" data-name="Path 2019" d="M774.167-837.067c-.994-.142-1.988-.26-2.971-.355.01-.16.019-.321.027-.482a2.267,2.267,0,0,0-2.066-2.378,12.567,12.567,0,0,1-1.343-.209,2.224,2.224,0,0,0-.444-.044,2.267,2.267,0,0,0-1.289.4,2.262,2.262,0,0,0-.667.718c.013-.469.02-.843.02-1.125a2.268,2.268,0,0,0-1.737-2.205,10.318,10.318,0,0,0-2.437-.307A2.267,2.267,0,0,0,759-840.943q-.057.812-.115,1.589c-1.492-.136-2.919-.22-4.315-.252h-.053a2.265,2.265,0,0,0-1.585.646,2.271,2.271,0,0,0-.682,1.622c0,.536-.023,1.094-.047,1.746a2.268,2.268,0,0,0,1.831,2.313,38.148,38.148,0,0,0,4.415.587q-.035.678-.058,1.34c-1.263.077-2.411.192-3.47.348a2.269,2.269,0,0,0-1.939,2.244,9.844,9.844,0,0,0,.228,2.213,2.267,2.267,0,0,0,2.211,1.765,31.04,31.04,0,0,0,3.6-.208,2.263,2.263,0,0,0,1.146.565,12.838,12.838,0,0,0,2.2.181,2.268,2.268,0,0,0,2.192-1.686,2.287,2.287,0,0,0,.442.313,13.849,13.849,0,0,0,4.236,1.167,8.313,8.313,0,0,0,2.392.5,2.268,2.268,0,0,0,2.151-1.551,10.231,10.231,0,0,0,.58-3.258,2.268,2.268,0,0,0-1.382-2.088q.336.006.679.006a2.267,2.267,0,0,0,2.227-1.84,11.282,11.282,0,0,0,.236-2.139A2.268,2.268,0,0,0,774.167-837.067Z" fill="#fff"/>
      <path id="Path_2020" data-name="Path 2020" d="M798.755-843.326c-.788-.158-1.6-.3-2.509-.441a2.264,2.264,0,0,0-.774-.8,6.964,6.964,0,0,0-2.811-.957,2.21,2.21,0,0,0-.291-.019,2.268,2.268,0,0,0-1.977,1.157q-.327.582-.614,1.132a2.218,2.218,0,0,0-.515-.154c-.462-.08-.926-.153-1.395-.22a2.256,2.256,0,0,0-.691-.727,9.038,9.038,0,0,0-2.542-1.174,2.276,2.276,0,0,0-.624-.088,2.268,2.268,0,0,0-1.893,1.02c-1.442,2.186-2.512,3.87-3.1,4.87a2.27,2.27,0,0,0,.4,2.793,6.079,6.079,0,0,0,2.464,1.383,2.265,2.265,0,0,0-.322.914c-.028.222-.057.529-.084.89l-.007.174a7.006,7.006,0,0,0,.079,1.2l.03.145a40.7,40.7,0,0,0-1.682,5.178,2.267,2.267,0,0,0,1.11,2.523,7.439,7.439,0,0,0,2.082.75c.069.56.154,1.1.258,1.618a2.268,2.268,0,0,0,2.224,1.823,5.7,5.7,0,0,0,2.975-.666,2.148,2.148,0,0,0,.322-.233,4.333,4.333,0,0,0,1.42.214,5.473,5.473,0,0,0,1.508-.186l.078-.024a4.225,4.225,0,0,0,1.542.259,5.971,5.971,0,0,0,1.424-.163,2.324,2.324,0,0,0,.293-.094,7.792,7.792,0,0,0,2.2.518l.19.009a2.27,2.27,0,0,0,2.253-2.025c.24-2.228.376-4.088.4-5.529a2.268,2.268,0,0,0-1.346-2.114,15.359,15.359,0,0,0-.392-4.291,2.261,2.261,0,0,0-.564-.935,2.247,2.247,0,0,0,.328-.487,5.815,5.815,0,0,0,.438-1.18,2.267,2.267,0,0,0,1.686-1.755,10.455,10.455,0,0,0,.241-2.085A2.269,2.269,0,0,0,798.755-843.326Z" fill="#fff"/>
      <path id="Path_2021" data-name="Path 2021" d="M425.128-867.143a49.85,49.85,0,0,1-6.528.415c-.384-2.687-.607-5.278-.735-7.774,2.3-.16,4.671-.256,7.1-.32C425.063-872.262,425.128-869.7,425.128-867.143Zm-4.256-2.08,1.76-.224-.161-2.975-1.919.16Zm8.318-7.646a4.4,4.4,0,0,1-2.208.672,6.936,6.936,0,0,1-1.791-3.871,16.345,16.345,0,0,1,2.144-.609A7.233,7.233,0,0,1,429.19-876.869Zm.416,5.311a11.469,11.469,0,0,1-.288-1.44c.7-.16,1.439-.288,2.176-.384a11.455,11.455,0,0,1,.672,1.919c1.343.064,2.687.1,4.031.128a13.433,13.433,0,0,1,.7-1.887,12.066,12.066,0,0,1,2.208.352,6.921,6.921,0,0,1-.416,1.6c.992.033,1.983.064,2.943.1v.927a6.166,6.166,0,0,1-.128,1.248c-2.239,0-4.478-.032-6.654-.1-.128.448-.224.832-.32,1.216,2.815,0,4.8.063,5.919.127v1.953c-.448.223-2.56.319-6.335.319h-.224c-.128.384-.224.736-.32,1.056,2.559-.1,5.119-.192,7.742-.256a4.262,4.262,0,0,1,.16,1.12v1.28c-2.911.191-5.79.319-8.67.416-.256.767-.511,1.5-.7,2.271a16.914,16.914,0,0,1-1.375,3.455,7.59,7.59,0,0,1-1.344-.16,3.67,3.67,0,0,1-1.183-.576q.67-2.4,1.439-4.895c-1.215.065-2.431.1-3.615.1a19.212,19.212,0,0,1-.225-2.464l4.64-.192c.128-.384.256-.8.384-1.184a21.755,21.755,0,0,1-3.039-.223,2.63,2.63,0,0,1-.16-1.057c0-.383.032-.7.032-1.024,1.151,0,2.463,0,3.967-.031.128-.448.288-.864.448-1.312q-3.072-.048-6.143-.192a3.772,3.772,0,0,1-.129-1.184,3.635,3.635,0,0,1,.289-1.119C427.27-871.623,428.454-871.59,429.606-871.558Zm4.1-10.174c0,.512-.128,1.664-.352,3.455q-.143,1.152-.384,2.3c.448.031.9.064,1.344.064a47.988,47.988,0,0,1,1.728-5.343,6.548,6.548,0,0,1,2.5.831c-.256.768-.8,2.3-1.6,4.639,1.184.064,2.336.16,3.455.224a11.97,11.97,0,0,1-.191,2.176c-4.1,0-8.223-.128-12.381-.448a9.811,9.811,0,0,1,.255-2.3c.832.031,1.632.064,2.464.064a48.207,48.207,0,0,1,.8-5.952A9.591,9.591,0,0,1,433.7-881.732Zm6.783,23.354a3.933,3.933,0,0,1-1.312,1.76,20.062,20.062,0,0,1-4.16-2.591,14.922,14.922,0,0,1,1.12-1.76A19.811,19.811,0,0,1,440.484-858.378Zm3.071-19a23.555,23.555,0,0,1-3.807.959,6.689,6.689,0,0,1-.384-2.3,11.494,11.494,0,0,1,3.647-1.152A5.719,5.719,0,0,1,443.555-877.381Z" fill="#007aa7"/>
      <path id="Path_2022" data-name="Path 2022" d="M455.522-867.143a49.835,49.835,0,0,1-6.527.415c-.384-2.687-.608-5.278-.736-7.774,2.3-.16,4.671-.256,7.1-.32C455.458-872.262,455.522-869.7,455.522-867.143Zm-4.256-2.08,1.76-.224-.16-2.975-1.919.16Zm8.319-7.646a4.4,4.4,0,0,1-2.207.672,6.924,6.924,0,0,1-1.792-3.871,16.326,16.326,0,0,1,2.143-.609A7.233,7.233,0,0,1,459.585-876.869Zm.416,5.311a11.463,11.463,0,0,1-.288-1.44c.7-.16,1.439-.288,2.175-.384a11.46,11.46,0,0,1,.672,1.919c1.344.064,2.688.1,4.031.128a13.43,13.43,0,0,1,.7-1.887,12.079,12.079,0,0,1,2.208.352,6.974,6.974,0,0,1-.416,1.6c.992.033,1.984.064,2.944.1v.927A6.231,6.231,0,0,1,471.9-869c-2.239,0-4.479-.032-6.654-.1-.128.448-.225.832-.321,1.216,2.816,0,4.8.063,5.919.127v1.953c-.448.223-2.559.319-6.335.319h-.223c-.128.384-.224.736-.321,1.056,2.56-.1,5.12-.192,7.744-.256a4.346,4.346,0,0,1,.16,1.12v1.28c-2.912.191-5.791.319-8.671.416-.256.767-.512,1.5-.7,2.271a16.97,16.97,0,0,1-1.375,3.455,7.579,7.579,0,0,1-1.344-.16,3.686,3.686,0,0,1-1.184-.576q.672-2.4,1.44-4.895c-1.216.065-2.432.1-3.615.1a19.044,19.044,0,0,1-.225-2.464l4.64-.192c.128-.384.256-.8.383-1.184a21.781,21.781,0,0,1-3.039-.223,2.63,2.63,0,0,1-.16-1.057c0-.383.032-.7.032-1.024,1.152,0,2.463,0,3.967-.031.128-.448.288-.864.449-1.312q-3.072-.048-6.143-.192a3.743,3.743,0,0,1-.129-1.184,3.607,3.607,0,0,1,.289-1.119C457.666-871.623,458.848-871.59,460-871.558Zm4.094-10.174c0,.512-.128,1.664-.351,3.455q-.144,1.152-.384,2.3c.448.031.9.064,1.344.064a48.166,48.166,0,0,1,1.727-5.343,6.542,6.542,0,0,1,2.495.831c-.255.768-.8,2.3-1.6,4.639,1.184.064,2.336.16,3.455.224a11.969,11.969,0,0,1-.192,2.176c-4.1,0-8.222-.128-12.38-.448a9.76,9.76,0,0,1,.255-2.3c.832.031,1.631.064,2.463.064a48.808,48.808,0,0,1,.8-5.952A9.585,9.585,0,0,1,464.1-881.732Zm6.784,23.354a3.942,3.942,0,0,1-1.313,1.76,20.022,20.022,0,0,1-4.158-2.591,14.654,14.654,0,0,1,1.119-1.76A19.834,19.834,0,0,1,470.879-858.378Zm3.07-19a23.572,23.572,0,0,1-3.806.959,6.665,6.665,0,0,1-.385-2.3,11.492,11.492,0,0,1,3.648-1.152A5.719,5.719,0,0,1,473.949-877.381Z" fill="#007aa7"/>
      <path id="Path_2023" data-name="Path 2023" d="M492.987-859.657a6.229,6.229,0,0,1-.991,1.792,10.055,10.055,0,0,1-3.84-1.664,12.4,12.4,0,0,1,1.567-3.615,8.274,8.274,0,0,1,3.872,1.5A6.112,6.112,0,0,1,492.987-859.657Zm.9-13.277a43.185,43.185,0,0,1-1.12,7.23,3.708,3.708,0,0,1-.895.128,3.094,3.094,0,0,1-1.568-.32,13.313,13.313,0,0,1-.1-1.727c0-.96.1-2.848.319-5.663.256-3.424.513-5.983.833-7.678a6.134,6.134,0,0,1,2.942.287c.033.769.065,1.344.065,1.664C494.363-878.053,494.2-876.005,493.883-872.934Z" fill="#007aa7"/>
      <path id="Path_2024" data-name="Path 2024" d="M518.007-878.885a71.141,71.141,0,0,1-8.767,2.56c-.224-.768-.415-1.664-.608-2.688,2.913-.832,5.823-1.6,8.766-2.335A16.189,16.189,0,0,1,518.007-878.885ZM534.1-865.48v1.312q-11.612,1.008-23.45,1.344a20.824,20.824,0,0,1-.224-2.528c2.751-.192,5.536-.383,8.287-.544a30.184,30.184,0,0,1,.351-5.118c.384-.033.8-.064,1.248-.129a5.07,5.07,0,0,1,1.184.16c0,1.536-.1,3.2-.224,4.959a7.522,7.522,0,0,0,.832-.032c.256,0,.543-.032.831-.032,0-2.015.032-4.063.16-6.143a9.532,9.532,0,0,1-1.5-.319v.032a3.626,3.626,0,0,1-1.215.128,2.112,2.112,0,0,1-1.249-.288c0-3.679.1-6.527.289-8.51a9.654,9.654,0,0,0,1.279-.1,5.581,5.581,0,0,1,1.216.159v1.057c.639-.033,1.375-.064,2.208-.129a13.087,13.087,0,0,1,1.854.1v2.08c-1.087.128-2.463.224-4.127.256-.032.928-.063,1.823-.095,2.719q1.774.192,3.935.48c0,3.072-.1,5.823-.288,8.318,2.816-.16,5.663-.287,8.542-.415A4.8,4.8,0,0,1,534.1-865.48ZM513.112-874.6c.768-.064,1.663-.1,2.687-.16,0,0,.032.1.064.224v2.144c-.64.064-1.44.1-2.367.1.063.48.1.928.159,1.344.8-.063,1.727-.1,2.752-.159-.1,0-.16.127-.225.319v2.144c-.607.032-1.342.032-2.239.032.064.7.1,1.343.16,1.984a5.737,5.737,0,0,1-1.248.223h-1.247c-.544-3.135-.928-6.334-1.184-9.6.7-.128,1.471-.225,2.368-.352C512.92-875.782,513.015-875.173,513.112-874.6Zm5.343,13.181c-.385.608-.9,1.28-1.472,2.016q-.576.624-1.056,1.248a12.637,12.637,0,0,1-.992,1.151,5.261,5.261,0,0,1-2.08-1.376c1.152-1.7,2.176-3.135,3.105-4.35A18.411,18.411,0,0,1,518.455-861.417Zm13.788,1.792a4.725,4.725,0,0,1-1.983,1.7,26.627,26.627,0,0,1-4.671-3.52,3.37,3.37,0,0,1,1.792-1.663C529.012-861.961,530.643-860.809,532.243-859.625Zm1.792-17.724a62.3,62.3,0,0,1-.737,10.013h-1.247a2.885,2.885,0,0,1-1.183-.127c0-.353,0-.7.032-1.056-.9.128-2.08.224-3.519.287a3.663,3.663,0,0,1-.481-2.111c1.408-.1,2.783-.16,4.064-.224,0-.384.032-.8.064-1.216-1.28-.063-2.592-.191-3.871-.384a8.679,8.679,0,0,1,.224-2.047c1.311.1,2.591.192,3.807.32.032-.448.1-.928.159-1.376q-2.3-.144-4.415-.48a17.246,17.246,0,0,1,.256-1.951C529.108-877.637,531.411-877.509,534.035-877.349Z" fill="#007aa7"/>
      <path id="Path_2025" data-name="Path 2025" d="M547.314-875.686c-.7,1.952-1.5,3.9-2.367,5.855-.449.96-.832,1.824-1.12,2.592-.225.48-.448.927-.672,1.375a6.828,6.828,0,0,1-.992,1.792,6.181,6.181,0,0,1-2.272-1.183c1.664-4.064,3.3-7.839,4.927-11.294A6.085,6.085,0,0,1,547.314-875.686Zm7.71-5.47q3.648.192,6.431.575a26.888,26.888,0,0,1,.448,6.175c0,1.536-.16,2.432-.448,2.655-1.344.48-5.6.7-12.7.7a1.746,1.746,0,0,1-.321-1.184,6.415,6.415,0,0,1,.193-1.375c1.6-.064,5.087-.224,10.462-.448,0-.736-.033-2.048-.065-3.9-3.135-.032-7.773-.256-13.98-.7a8.872,8.872,0,0,1-.065-1.312,11.617,11.617,0,0,1,.129-1.247C548.465-881.22,551.76-881.188,555.024-881.156Zm-5.694,12.989c-.032.959-.032,1.888-.032,2.783,1.759.129,3.487.32,5.15.512a11.4,11.4,0,0,1-.256,2.176,36.752,36.752,0,0,1-4.894-.32c-.033.767-.033,1.5-.033,2.207,1.088.224,2.176.416,3.327.608v1.184a5,5,0,0,1-.16,1.183,27.079,27.079,0,0,1-6.238-.671c0-3.264.1-6.495.352-9.694h1.376C548.433-868.2,548.913-868.167,549.33-868.167Zm14.493,4.447a50.366,50.366,0,0,1-5.152.7v2.111c1.087.065,2.176.192,3.328.32v1.024a8.406,8.406,0,0,1-.064,1.216c-.224.031-.767.031-1.6.031a19.354,19.354,0,0,1-4.383-.351q0-4.032.191-8.735a9.274,9.274,0,0,0,1.185-.063,9.1,9.1,0,0,1,1.311.127v1.952c1.569-.192,3.2-.415,4.927-.64A23,23,0,0,1,563.823-863.72Z" fill="#007aa7"/>
      <path id="Path_2026" data-name="Path 2026" d="M577.709-875.686c-.7,1.952-1.5,3.9-2.369,5.855-.448.96-.832,1.824-1.119,2.592-.224.48-.449.927-.673,1.375a6.763,6.763,0,0,1-.991,1.792,6.168,6.168,0,0,1-2.271-1.183c1.663-4.064,3.295-7.839,4.927-11.294A6.085,6.085,0,0,1,577.709-875.686Zm7.71-5.47q3.645.192,6.43.575a26.884,26.884,0,0,1,.448,6.175c0,1.536-.16,2.432-.448,2.655-1.344.48-5.6.7-12.7.7a1.747,1.747,0,0,1-.319-1.184,6.428,6.428,0,0,1,.191-1.375c1.6-.064,5.088-.224,10.463-.448,0-.736-.032-2.048-.064-3.9-3.136-.032-7.775-.256-13.982-.7a9.014,9.014,0,0,1-.064-1.312,11.357,11.357,0,0,1,.129-1.247C578.86-881.22,582.155-881.188,585.419-881.156Zm-5.7,12.989c-.032.959-.032,1.888-.032,2.783,1.76.129,3.487.32,5.15.512a11.387,11.387,0,0,1-.255,2.176,36.766,36.766,0,0,1-4.895-.32c-.032.767-.032,1.5-.032,2.207,1.087.224,2.175.416,3.327.608v1.184a5.007,5.007,0,0,1-.16,1.183,27.067,27.067,0,0,1-6.238-.671c0-3.264.1-6.495.351-9.694h1.376C578.828-868.2,579.307-868.167,579.724-868.167Zm14.492,4.447a50.269,50.269,0,0,1-5.151.7v2.111c1.088.065,2.177.192,3.327.32v1.024a8.46,8.46,0,0,1-.063,1.216c-.224.031-.768.031-1.6.031a19.354,19.354,0,0,1-4.383-.351q0-4.032.192-8.735a9.251,9.251,0,0,0,1.184-.063,9.1,9.1,0,0,1,1.312.127v1.952c1.567-.192,3.2-.415,4.927-.64A23.043,23.043,0,0,1,594.216-863.72Z" fill="#007aa7"/>
      <path id="Path_2027" data-name="Path 2027" d="M608.9-872.582a38.994,38.994,0,0,1-3.743,1.215,83.56,83.56,0,0,1,1.472,8.671,7.233,7.233,0,0,1-2.432.352c-.64-2.688-1.184-5.439-1.631-8.319a20.975,20.975,0,0,1-2.592.576,5.633,5.633,0,0,1-.384-2.111,25.956,25.956,0,0,1,8.83-2.688A5.3,5.3,0,0,1,608.9-872.582Zm7.038-2.176A44.9,44.9,0,0,1,615.4-881a11.033,11.033,0,0,0,1.345-.1c.511,0,.928.031,1.279.031a60.888,60.888,0,0,1,.512,6.4c2.111.064,4.127.192,6.11.384a25.3,25.3,0,0,1,.448,5.343c0,3.359-.1,5.791-.224,7.294-1.407.512-4.03.736-7.806.736h-.7a4.282,4.282,0,0,1,.832.672,14.725,14.725,0,0,1-2.687,3.456,3.464,3.464,0,0,1-2.016-1.121,17.852,17.852,0,0,1,2.016-3.071,24.135,24.135,0,0,1-3.488-.384q-.336-2.686-.479-6.718a44.409,44.409,0,0,1,.415-5.151h2.368v2.464c1.151.064,2.367.159,3.679.351a5.478,5.478,0,0,1-.415,2.08,24.113,24.113,0,0,1-3.264-.16c0,.576,0,1.119.031,1.631,1.281-.064,2.529-.1,3.712-.128a4.361,4.361,0,0,1,.128.96,4.157,4.157,0,0,1-.128.992,25.373,25.373,0,0,1-3.712.448c0,.384.033.736.033,1.056a20.507,20.507,0,0,0,3.295.224,26.446,26.446,0,0,0,5.63-.384c0-1.024-.063-3.775-.159-8.318-2.624-.128-5.183-.32-7.711-.576a10.776,10.776,0,0,1,.225-2.208C615.078-874.79,615.494-874.758,615.941-874.758Zm7.743,16a10.821,10.821,0,0,1-1.217,2.239,18.9,18.9,0,0,1-3.39-1.727,7.337,7.337,0,0,1,1.248-2.208A20.753,20.753,0,0,1,623.684-858.761Zm.608-20.22a5.287,5.287,0,0,1-.448,2.176,21.312,21.312,0,0,1-4.671-.384,10.774,10.774,0,0,1,.32-2.176A33.6,33.6,0,0,1,624.292-878.981Z" fill="#007aa7"/>
      <path id="Path_2028" data-name="Path 2028" d="M633.539-872.87c-.065-1.152-.128-2.3-.16-3.455.767-.128,1.6-.224,2.495-.321.128,1.28.224,2.56.32,3.84,1.215.064,2.3.159,3.2.288a4.609,4.609,0,0,1,.1,1.119,4.543,4.543,0,0,1-.1,1.185,12.026,12.026,0,0,1-2.975.191c.095,1.408.191,2.751.288,4.1l2.015-.1a4.906,4.906,0,0,1,.128,1.024,5.083,5.083,0,0,1-.128,1.12,11.767,11.767,0,0,1-1.855.416q.094,2.158.192,4.223a7.034,7.034,0,0,1-2.56.352c-.127-1.376-.255-2.783-.32-4.191-.832.128-1.7.223-2.655.287a4.748,4.748,0,0,1-.576-2.495c1.023-.128,2.047-.256,3.039-.384q-.192-2.159-.288-4.319h-.319a10.786,10.786,0,0,1-3.328-.223,3.021,3.021,0,0,1-.16-1.185,3.987,3.987,0,0,1,.224-1.279q1.44-.1,3.264-.192Zm9.181-6.623a53.119,53.119,0,0,1-.351,5.663,4.331,4.331,0,0,1-1.313.128,2.234,2.234,0,0,1-1.375-.32,31.234,31.234,0,0,1,.352-5.535c.384-.032.863-.064,1.376-.128A4.644,4.644,0,0,1,642.72-879.493Zm3.936,12.541c-.032-.7-.032-1.407-.032-2.079a6.886,6.886,0,0,1,1.247-.256,2.974,2.974,0,0,1,1.248.192c.064.736.128,1.472.192,2.175,1.888.064,3.743.1,5.6.161v1.247a5.177,5.177,0,0,1-.224,1.408c-1.76,0-3.487,0-5.182-.032,0,.224.031.448.031.64a38.375,38.375,0,0,1,5.055,1.376,7.144,7.144,0,0,1-.671,2.3,23.706,23.706,0,0,1-4.256-.864c.031,1.376.063,2.752.063,4.159a5.692,5.692,0,0,1-1.31.128h-1.249c-.128-1.535-.224-2.975-.287-4.415-1.92,1.056-3.839,2.016-5.7,2.88A5.711,5.711,0,0,1,640-859.945c2.08-1.28,4.319-2.56,6.751-3.839a1.909,1.909,0,0,1-.033-.416c-1.855-.032-3.711-.1-5.566-.16a4.522,4.522,0,0,1-.225-1.344c.033-.447.065-.864.065-1.311C642.881-867.015,644.768-866.984,646.656-866.952Zm-.192-6.3a13.008,13.008,0,0,1-2.272,3.807,6.286,6.286,0,0,1-2.271-.992,18.809,18.809,0,0,1,2.43-3.775A5.352,5.352,0,0,1,646.464-873.254Zm9.79-5.567a40.231,40.231,0,0,1,.383,5.375,4.387,4.387,0,0,1-.991.064,9.508,9.508,0,0,1-1.248-.064,18.262,18.262,0,0,1-.7-2.911,76.066,76.066,0,0,1-9.662-.608,3.408,3.408,0,0,1-.192-1.248c.032-.384.064-.768.128-1.184Q650.207-879.4,656.254-878.821Zm-4.192,7.038c1.088,0,2.079,0,3.039-.063a10.574,10.574,0,0,1,.225,2.175,28.106,28.106,0,0,1-5.7.512,12.49,12.49,0,0,1-.512-4.383c.864-.064,1.7-.1,2.495-.16A6.9,6.9,0,0,1,652.062-871.783Z" fill="#007aa7"/>
      <path id="Path_2029" data-name="Path 2029" d="M664.382-878.885c0,2.368-.161,4.959-.417,7.807a4.36,4.36,0,0,1-1.311.127,2.236,2.236,0,0,1-1.376-.32,46.8,46.8,0,0,1,.448-7.646c.384-.032.832-.064,1.343-.128A5.9,5.9,0,0,1,664.382-878.885Zm18.2,11.806v1.183a5.263,5.263,0,0,1-.129,1.248c-7.55,0-13.6-.1-18.139-.32a2.585,2.585,0,0,1-.192-1.247,8.491,8.491,0,0,1,.256-1.376C670.461-867.591,676.539-867.4,682.586-867.079Zm-11.487,4.7a33.818,33.818,0,0,1-2.079,6.271,5.083,5.083,0,0,1-2.367-.512,29.836,29.836,0,0,1,2.048-6.494A6.234,6.234,0,0,1,671.1-862.377Zm.992-16.252c-.063-.96-.127-1.919-.127-2.943a9,9,0,0,0,1.5-.128c.578,0,1.025.032,1.41.064v3.071c3.358.128,6.685.32,9.949.576a40.387,40.387,0,0,1,.544,6.3,4.867,4.867,0,0,1-1.056.064,10.916,10.916,0,0,1-1.311-.064,30,30,0,0,1-.865-3.871c-4.8,0-9.63-.224-14.524-.672a3.379,3.379,0,0,1-.192-1.247c.032-.384.063-.768.127-1.184C669.084-878.661,670.589-878.629,672.091-878.629Zm6.975,5.471v2.335c-2.527.193-5.95.256-10.269.256q-.144-1.152-.193-2.4c1.088-.128,2.624-.256,4.543-.352C675.8-873.318,677.787-873.254,679.066-873.158Zm.32,14.173a16.8,16.8,0,0,1,1.984.224c0,.319.031.672.031,1.056v1.151h-1.823c-.576,0-1.376-.032-2.367-.064a26.072,26.072,0,0,1-.832-6.142c.7-.033,1.535-.1,2.431-.161Q679.1-860.905,679.386-858.985Z" fill="#007aa7"/>
      <path id="Path_2030" data-name="Path 2030" d="M713.523-877.861v1.12a8.456,8.456,0,0,1-.128,1.439c-2.367,0-4.734-.032-7.07-.1v2.368c1.823.032,3.168.064,4,.128v2.175c-.352.224-1.663.352-3.967.384,0,.64.031,1.248.031,1.888,1.377,0,2.752-.032,4.16-.064a11.137,11.137,0,0,1,.064,1.119v1.185c-3.711.319-7.422.48-11.166.48a10.377,10.377,0,0,1-.256-2.5c1.408-.063,2.848-.1,4.319-.159-.063-.64-.095-1.312-.095-1.952a39.281,39.281,0,0,1-5.727-.32,3.079,3.079,0,0,1-.192-1.152c.032-.447.063-.832.063-1.151,1.6,0,3.52,0,5.76-.032-.064-.8-.064-1.6-.064-2.431-2.816-.033-5.664-.1-8.479-.193a4.808,4.808,0,0,1-.128-1.375,3.959,3.959,0,0,1,.32-1.28C701.11-878.149,707.285-878.021,713.523-877.861Zm-7.358,13.341c-.127.32-.287.608-.416.9,2.175-.1,4.383-.193,6.623-.256a4.853,4.853,0,0,1,.159,1.184v1.376c-2.719.191-5.439.319-8.126.415q-.191.384-.384.768c-.416.736-.767,1.376-1.023,1.92-.225.352-.416.7-.608,1.055a6.289,6.289,0,0,1-.927,1.312,6.49,6.49,0,0,1-2.336-1.216c.639-1.279,1.279-2.495,1.919-3.71-1.759.063-3.519.127-5.247.159a22.273,22.273,0,0,1-.224-2.623c2.3-.1,4.64-.192,6.974-.288.353-.64.705-1.248,1.088-1.888A6.586,6.586,0,0,1,706.165-864.52Zm-5.215-14.845a5.258,5.258,0,0,1-2.4.768,6.249,6.249,0,0,1-1.311-3.263,14.319,14.319,0,0,1,2.367-.672A6.588,6.588,0,0,1,700.95-879.365Zm10.334-2.207a6,6,0,0,1-1.088,2.751,5.177,5.177,0,0,1-2.367-.736,7.838,7.838,0,0,1,1.023-2.847A21.778,21.778,0,0,1,711.284-881.572Zm1.567,23.483a4.432,4.432,0,0,1-1.5,2.015,15.031,15.031,0,0,1-3.008-2.111,16.51,16.51,0,0,1,1.281-2.016A13.337,13.337,0,0,1,712.851-858.089Z" fill="#007aa7"/>
      <path id="Path_2031" data-name="Path 2031" d="M732.017-875.942a11.271,11.271,0,0,1-.192,2.112,34.857,34.857,0,0,1-4.511-.288c-.576,1.184-1.151,2.367-1.792,3.551-.512,1.088-.991,1.984-1.407,2.72-.192.416-.385.768-.544,1.055-.191.288-.352.544-.544.8a3.771,3.771,0,0,1-2.271-1.7c.416-.767,1.151-2.143,2.239-4.127.48-.9.96-1.791,1.472-2.719-.9-.16-1.792-.352-2.656-.575a9.3,9.3,0,0,1,.256-2.24A56.022,56.022,0,0,1,732.017-875.942Zm-.479,15.261a47.292,47.292,0,0,1-6.367.416q-.576-3.695-.768-7.1c2.239-.127,4.574-.223,6.942-.287C731.473-865.32,731.538-862.984,731.538-860.681Zm-4.064-1.951,1.5-.225-.191-2.559-1.632.192Zm9.022-9.982c-.288,4.159-.736,8.222-1.312,12.221-.9-.064-1.76-.192-2.559-.32.383-4.159.8-8.19,1.311-12.093C734.865-872.742,735.728-872.678,736.5-872.614Zm3.04-3.136c-.065-1.087-.128-2.207-.128-3.295.895-.064,1.823-.128,2.815-.192.064,1.216.1,2.432.127,3.648,1.823.127,3.68.255,5.535.447a35.151,35.151,0,0,1-.287,4.8,4.48,4.48,0,0,1-1.184.129,2.411,2.411,0,0,1-1.248-.257v-2.176c-.928,0-1.824-.064-2.688-.127.032.959.065,1.887.1,2.815a11.97,11.97,0,0,1-2.624.256c-.128-1.088-.192-2.207-.256-3.295-1.279-.128-2.527-.288-3.774-.48a2.836,2.836,0,0,1-.193-1.184,7.57,7.57,0,0,1,.193-1.183Zm5.694,7.871c-.319,1.728-.672,3.359-1.057,4.831,1.121.543,2.209,1.119,3.3,1.728a5.434,5.434,0,0,1-.96,1.855,25.29,25.29,0,0,1-3.007-.992,8.648,8.648,0,0,1-.768,1.952,5.456,5.456,0,0,1-2.3-.672c.128-.8.256-1.6.384-2.432-.864-.384-1.727-.8-2.592-1.279a13.56,13.56,0,0,1,.8-2.08c.768.256,1.5.48,2.24.736.1-.576.192-1.152.32-1.728a25.872,25.872,0,0,1-4.255-1.024,9.341,9.341,0,0,1,.639-2.3A62.251,62.251,0,0,1,745.23-867.879Z" fill="#007aa7"/>
      <path id="Path_2032" data-name="Path 2032" d="M756.205-880.132c0,1.791-.1,3.743-.256,5.886a4.687,4.687,0,0,1-1.376.128,2.531,2.531,0,0,1-1.44-.32,44.651,44.651,0,0,1,.256-5.759c.448-.032.928-.064,1.44-.127A4.893,4.893,0,0,1,756.205-880.132Zm3.9,19.675a13.337,13.337,0,0,1-2.527,3.072,3.458,3.458,0,0,1-2.143-1.184,15.265,15.265,0,0,1,2.3-3.231A4.94,4.94,0,0,1,760.107-860.457Zm5.792-4.735c3.07.032,5.246.1,6.558.16v2.3c-.512.223-2.528.351-6.111.351.192,1.568.416,3.392.609,5.472a1.842,1.842,0,0,1-1.088.319c-1.185,0-2.176-.064-2.944-.128a11.964,11.964,0,0,1-.288-1.855,6.683,6.683,0,0,0,1.376-.128c-.192-1.28-.32-2.5-.449-3.68a47.552,47.552,0,0,1-6.3-.319,3.344,3.344,0,0,1-.191-1.216c.031-.448.063-.864.063-1.216,1.728,0,3.775,0,6.175-.032a7.685,7.685,0,0,1-.1-1.184c.831-.032,1.63-.064,2.43-.128C765.707-866.088,765.8-865.64,765.9-865.192Zm1.663-15.709c.288,0,.608-.031.928-.031a71.034,71.034,0,0,1,7.486.7q.192,1.92.192,3.168a15.76,15.76,0,0,0,.1,2.048,5.745,5.745,0,0,1-1.407.127,4.977,4.977,0,0,1-1.28-.127,10.319,10.319,0,0,0-.384-2.5c-1.6-.256-3.2-.48-4.768-.672-3.583.1-7.166.16-10.685.192a3.222,3.222,0,0,1-.256-1.439c.032-.769.064-1.184.128-1.184,2.145-.065,4.447-.128,6.942-.192a11.006,11.006,0,0,1-.1-1.472q1.487-.192,2.879-.288C767.434-881.924,767.5-881.38,767.562-880.9Zm-2.687,4.607c-.065.385-.16.705-.225,1.024q2.976.1,6.335.288a16.4,16.4,0,0,1-.192,2.432c-2.271,0-4.511-.032-6.718-.161-.16.577-.32,1.153-.448,1.664,1.152.256,2.272.512,3.423.736.192-.64.416-1.312.64-1.951a17.954,17.954,0,0,1,2.752.511c-.225.673-.448,1.312-.641,1.952.513.1.992.192,1.5.256a4.089,4.089,0,0,1-.576,2.24,14.69,14.69,0,0,1-1.727-.192c-.161.511-.32.96-.448,1.344a4.975,4.975,0,0,1-2.495-.769c.064-.319.159-.607.255-.927a42.222,42.222,0,0,1-6.3-1.472c.321-1.28.673-2.464.993-3.551-.832-.032-1.664-.1-2.432-.16v-1.376c.032-.32.064-.672.064-.992,1.024,0,2.079.032,3.231.032.257-.7.513-1.344.768-1.887A8.934,8.934,0,0,1,764.875-876.294Zm10.845,16.509a8.34,8.34,0,0,1-1.215,2.176,13.885,13.885,0,0,1-4.032-2.208c.512-.768.96-1.5,1.376-2.208A33.823,33.823,0,0,1,775.72-859.785Z" fill="#007aa7"/>
      <path id="Path_2033" data-name="Path 2033" d="M796.933-859.657a6.254,6.254,0,0,1-.991,1.792,10.063,10.063,0,0,1-3.84-1.664,12.381,12.381,0,0,1,1.568-3.615,8.282,8.282,0,0,1,3.872,1.5A6.12,6.12,0,0,1,796.933-859.657Zm.9-13.277a43.521,43.521,0,0,1-1.12,7.23,3.715,3.715,0,0,1-.9.128,3.09,3.09,0,0,1-1.567-.32,13.118,13.118,0,0,1-.1-1.727c0-.96.1-2.848.319-5.663.256-3.424.513-5.983.832-7.678a6.141,6.141,0,0,1,2.944.287c.032.769.064,1.344.064,1.664C798.309-878.053,798.149-876.005,797.83-872.934Z" fill="#007aa7"/>
      <path id="Path_2034" data-name="Path 2034" d="M739.414-842.52q-2.2,2.861-5.425,6.892c1.27.2,4.252.439,8.969.708a8.653,8.653,0,0,1-.245,1.809c-4.887-.074-7.966-.2-9.238-.391a7.779,7.779,0,0,1-3.152-.757,36.554,36.554,0,0,1,2.394-3.5c1.222-1.588,2.835-3.616,4.864-6.084A11.966,11.966,0,0,1,739.414-842.52Zm5.815,11.8a13.334,13.334,0,0,1,.245,3.2c0,1.613-.049,2.786-.1,3.519a34.449,34.449,0,0,1-5.768.343,29.994,29.994,0,0,1-5.719-.514,9.551,9.551,0,0,1-.39-3.323c0-.587.024-1.711.048-3.324.245-.049.563-.122.954-.171a3.571,3.571,0,0,1,.977.171c0,.66.049,2.3.171,4.912,2.542.171,5.083.244,7.625.244a8.177,8.177,0,0,0,.171-1.857,8.259,8.259,0,0,0-.122-1.246c-2.835-.2-4.595-.342-5.279-.465a2.771,2.771,0,0,1-.146-1.1c.024-.293.048-.587.048-.9A59.553,59.553,0,0,1,745.229-830.716Zm2.322-4.473a3.775,3.775,0,0,1-1.711,1.027,24.482,24.482,0,0,1-2.3-3.47,6.707,6.707,0,0,1,1.685-.978C746.037-837.534,746.818-836.386,747.551-835.189Z" fill="#007aa7"/>
      <path id="Path_2035" data-name="Path 2035" d="M763.167-840.54q0,1.5-.293,7.038c-.1,2.346-.27,4.668-.513,6.989a10.627,10.627,0,0,1-1.81-.147v-.855a27.99,27.99,0,0,1-5.131.465,7.679,7.679,0,0,1-.171-1.711,44.824,44.824,0,0,1,5.352-.415c.025-1.614.1-3.519.244-5.67a37.555,37.555,0,0,1-6.378-.66c.025-.635.049-1.247.049-1.833,2.1.049,4.252.22,6.451.489.1-1.222.2-2.542.293-3.935A8.13,8.13,0,0,1,763.167-840.54Zm5.792,2.517c-.049.928-.122,1.832-.171,2.688q2.491.147,5.058.513a9.191,9.191,0,0,1-.2,1.711,27.1,27.1,0,0,1-4.985-.415c-.1,1.612-.2,3.225-.294,4.813a10.108,10.108,0,0,0,1.785.563,5.408,5.408,0,0,1,.366-.855,12.775,12.775,0,0,1,1.564.244,8.01,8.01,0,0,1-.464,2.542,7.851,7.851,0,0,1-1.858-.441,14.407,14.407,0,0,1-3.689-.952c.342-4.033.781-7.577,1.294-10.656A14.428,14.428,0,0,0,768.959-838.023Z" fill="#007aa7"/>
      <path id="Path_2036" data-name="Path 2036" d="M785.92-842.471c-.172.293-.343.562-.49.806,1.174.147,2.322.294,3.446.489a10.468,10.468,0,0,1-.171,1.638,19.015,19.015,0,0,1-4.3-.513c-.586.879-1.173,1.686-1.711,2.37a3.955,3.955,0,0,1-1.711-.9c.514-.879,1.516-2.467,3.03-4.765A6.787,6.787,0,0,1,785.92-842.471Zm-2.127,9.727a4.879,4.879,0,0,1-.049-.831c.024-.318.049-.587.074-.783,2.126,0,4.2.025,6.256.025,2.346.074,4.423.2,6.207.342a17.841,17.841,0,0,1,.293,4.13c0,.1-.121.147-.317.147a73.058,73.058,0,0,1-8.334.244,1.081,1.081,0,0,1-.2-.758,6.013,6.013,0,0,1,.122-.855c1.051,0,3.324-.048,6.819-.1,0-.2-.025-.587-.025-1.174-2,0-4.765-.1-8.284-.269-.513,1.369-1.368,3.593-2.541,6.672a5.191,5.191,0,0,1-1.711-.562,41.808,41.808,0,0,1,2.126-6.207C784.061-832.72,783.916-832.744,783.793-832.744Zm11-3.666v1.026c-3.422.195-6.843.342-10.241.44a2.211,2.211,0,0,1-.219-.978v-.879l10.263-.44A2.393,2.393,0,0,1,794.791-836.41Zm-7.674-2.249a3.467,3.467,0,0,1-.441,1.491,6.211,6.211,0,0,1-2.1-.537,5.552,5.552,0,0,1,.44-1.54C785.674-839.074,786.383-838.879,787.117-838.659Zm.268,15.714a3.682,3.682,0,0,1-1.808.342,25.168,25.168,0,0,1-.415-4.936c.659-.1,1.295-.147,1.906-.2C787.263-825.951,787.361-824.362,787.385-822.945Zm5.23-5.816c2.346.171,4.1.318,5.3.464-.025,1.32-.148,3.08-.391,5.328a5.675,5.675,0,0,1-1.735-.44c-.1-1.271-.123-2.444-.123-3.568a11.527,11.527,0,0,1-1.32-.073v1.1c.366.049.734.073,1.1.1a8.453,8.453,0,0,1-.172,1.467c-.342,0-.66-.025-.953-.025-.025.342-.025.709-.025,1.075a3.621,3.621,0,0,1-.879.1,1.523,1.523,0,0,1-.929-.22v-1.026c-.415-.025-.83-.049-1.222-.1-.049.391-.073.806-.1,1.2a3.306,3.306,0,0,1-.879.1,1.521,1.521,0,0,1-.929-.22v-1.271c-.465-.049-.9-.1-1.319-.171a6.2,6.2,0,0,1,.17-1.49c.392.024.807.048,1.2.073a6.115,6.115,0,0,1,.073-.978c-.709-.024-1.393-.073-2.028-.122a11.239,11.239,0,0,1,.244-1.539C789.267-828.957,790.9-828.859,792.615-828.761Zm1.662-13.881c-.1.22-.244.489-.391.831,1.491.2,2.957.415,4.423.709a8.476,8.476,0,0,1-.2,1.637,19.485,19.485,0,0,1-5.059-.685c-.293.612-.635,1.3-1.026,2.078a4.936,4.936,0,0,1-1.784-.587,26.043,26.043,0,0,1,2.126-4.618A4.722,4.722,0,0,1,794.277-842.642Zm-1.735,15.493a8.874,8.874,0,0,1-1.173-.073c0,.342-.025.66-.025,1,.392.048.783.072,1.173.1C792.517-826.513,792.542-826.855,792.542-827.149Zm4.007-11.485a3.4,3.4,0,0,1-.366,1.539,8.642,8.642,0,0,1-2.493-.537,5.62,5.62,0,0,1,.392-1.588A23.666,23.666,0,0,1,796.549-838.634Z" fill="#007aa7"/>
    </g>
    <g id="Group_33" data-name="Group 33" transform="translate(452.475 592.648)">
      <g id="Group_31" data-name="Group 31" transform="translate(0 27.143)">
        <g id="Group_30" data-name="Group 30">
          <path id="Path_612" data-name="Path 612" d="M164.771,279.276c-.028.444-.053.875-.079,1.291q2.74.041,4.657,0,1.174.081,1.173,1.174,0,1.018-1.173,1.134-1.059.041-2.152.04-1.371,0-2.7-.04-.079.98-.156,1.839a1.154,1.154,0,0,1-1.214,1.018,1.057,1.057,0,0,1-1.134-1.252l.118-1.605q-1.839,0-3.677-.078c.053.26.09.522.118.782a2.406,2.406,0,0,0,.038.392q.274,1.253-.82,1.486a1.224,1.224,0,0,1-1.449-.978q-.118-.744-.234-1.722-2.233-.079-4.423-.2a9.373,9.373,0,0,1-.977-.118,1.182,1.182,0,0,1-.861-1.331q.118-1.016,1.368-.939,1.878.118,4.735.2c-.025-.417-.053-.834-.078-1.252a1.057,1.057,0,0,1,1.134-1.252,1.072,1.072,0,0,1,1.173,1.017q.039.823.079,1.566,1.839.039,3.914.079h.194l.118-1.487a1.046,1.046,0,0,1,1.174-1.018A1.058,1.058,0,0,1,164.771,279.276Zm2.582,13.657c-.051.443-.091.835-.116,1.173q1.33.041,2,0c.808.028,1.2.366,1.173,1.018a1.057,1.057,0,0,1-1.055,1.173c-.523.028-1.317.028-2.388,0q-.039.627-.119,1.135a1.118,1.118,0,0,1-1.173.978,1.058,1.058,0,0,1-1.134-1.213l.118-.9q-.978-.038-2.113-.039l.118,3.562q4.265-.039,7.591-.2,1.29-.038,1.331.939a1.1,1.1,0,0,1-1.057,1.213q-3.093.156-7.825.156l.076,2q2.466.079,3.993.04,1.134.077,1.134,1.134,0,.978-1.134,1.1-.625.039-1.292.039-1.33,0-2.622-.039l.079,3.13a1.156,1.156,0,0,1-2.309.118l-.079-3.286q-2.19-.079-4.266-.2c-.208-.026-.4-.051-.587-.078a1.155,1.155,0,0,1-.821-1.291q.118-.978,1.331-.9,1.564.077,4.266.156l-.079-1.918q-6.143-.038-9.391-.313a1.055,1.055,0,0,1-.9-1.1.937.937,0,0,1,.313-.744,1.091,1.091,0,0,1,1.018-.234q4.07.235,8.922.274l-.116-3.639q-1.371,0-2.428-.078c.025.208.053.377.079.508.025.1.053.234.078.391q.274,1.213-.782,1.447a1.191,1.191,0,0,1-1.409-.938c-.1-.443-.209-.94-.313-1.487q-1.878-.079-2.817-.2a1.026,1.026,0,0,1-.939-1.136q0-1.174,1.173-1.057.823.081,2.31.158-.118-.783-.158-1.527a1.022,1.022,0,0,1,1.1-1.212,1.038,1.038,0,0,1,1.136.978q.077,1.018.2,1.878,1.253.039,2.662.079l-.04-1.918a1.019,1.019,0,0,1,1.134-1.173q1.136,0,1.174,1.057l.078,2.112c.914,0,1.734.014,2.465.039l.158-1.409a1.009,1.009,0,0,1,1.134-.978Q167.392,291.719,167.352,292.932Zm-12.716-5.753q2.582.2,7.865.392,3.131.079,5.166.04c.755.051,1.134.429,1.134,1.134,0,.651-.379,1.017-1.134,1.1-.5.026-1.018.039-1.566.039q-5.869.039-11.268-.392a4.775,4.775,0,0,1-.706-.116,1.155,1.155,0,0,1-.821-1.292Q153.423,287.1,154.636,287.179Z" transform="translate(-149.822 -277.274)" fill="#52362b" stroke="#52362b" stroke-miterlimit="10" stroke-width="0.289"/>
          <path id="Path_613" data-name="Path 613" d="M191.195,284.345q0,11.388-.118,14.518,3.6-.04,7.513-.156-.2-3.677-.391-7-.2-1.251,1.018-1.33a1.089,1.089,0,0,1,1.291.978q.43,4.813.431,8.139a1.274,1.274,0,0,1-1.057,1.252q-2.622.235-9.743.274-8.335.039-10.251-.156a1.16,1.16,0,0,1-.979-1.37q.237-3.482.352-8.882a1.057,1.057,0,0,1,1.174-1.214,1,1,0,0,1,1.094,1.057q.118,4.423-.155,8.375,3.444.079,7.4.039.079-2.935.079-14.518a1.174,1.174,0,0,1,2.346,0Z" transform="translate(-142.493 -275.927)" fill="#52362b" stroke="#52362b" stroke-miterlimit="10" stroke-width="0.289"/>
          <path id="Path_614" data-name="Path 614" d="M210.34,286.558c0,.026-.012.156-.039.391a72.7,72.7,0,0,0-.392,8.139q0,1.487.079,4.422.079,2.975.079,4.422c0,.729-.392,1.1-1.174,1.1a1.065,1.065,0,0,1-1.213-1.018q-.156-2.231-.156-8.922a57.8,57.8,0,0,1,.51-8.607,1.052,1.052,0,0,1,1.134-1.019Q210.341,285.461,210.34,286.558Z" transform="translate(-135.281 -275.36)" fill="#52362b" stroke="#52362b" stroke-miterlimit="10" stroke-width="0.289"/>
          <path id="Path_615" data-name="Path 615" d="M230.106,303.932c.053.729-.327,1.1-1.134,1.1a1.074,1.074,0,0,1-1.173-1.1,60.88,60.88,0,0,1-.314-6.1,6.407,6.407,0,0,1-4.422,1.6,6.066,6.066,0,0,1-4.3-1.565,6.6,6.6,0,0,1-2-5.164,6.91,6.91,0,0,1,7.279-7.24q2.778,0,5.282,2.9a1.141,1.141,0,0,1,.274.782,1.122,1.122,0,0,1-.353.821,1.145,1.145,0,0,1-.781.313,1.092,1.092,0,0,1-.861-.352q-1.84-2.152-3.561-2.153a4.787,4.787,0,0,0-3.756,1.527,4.941,4.941,0,0,0-1.213,3.4,4.46,4.46,0,0,0,1.213,3.364,3.845,3.845,0,0,0,2.777,1.1q3.407,0,4.54-4.227a1.057,1.057,0,0,1,1.1-.9,1.035,1.035,0,0,1,1.173,1.213q-.118,2.036-.118,4.187Q229.754,299.666,230.106,303.932Z" transform="translate(-132.953 -275.36)" fill="#52362b" stroke="#52362b" stroke-miterlimit="10" stroke-width="0.289"/>
          <path id="Path_616" data-name="Path 616" d="M237.194,286.558c0,.026-.014.156-.039.391a72.392,72.392,0,0,0-.392,8.139q0,1.487.079,4.422.077,2.975.079,4.422c0,.729-.392,1.1-1.176,1.1a1.066,1.066,0,0,1-1.213-1.018q-.156-2.231-.155-8.922a57.788,57.788,0,0,1,.51-8.607,1.052,1.052,0,0,1,1.134-1.019Q237.195,285.461,237.194,286.558Z" transform="translate(-128.515 -275.36)" fill="#52362b" stroke="#52362b" stroke-miterlimit="10" stroke-width="0.289"/>
          <path id="Path_617" data-name="Path 617" d="M257.711,300.174a1,1,0,0,1-1.174,1.134l-2.113-.078q.156,2.505.158,2.7c0,.729-.393,1.1-1.176,1.1a1.078,1.078,0,0,1-1.212-1.057q-.079-.744-.116-2.778-8.962-.393-8.962-3.365a5.757,5.757,0,0,1,1.409-2.739,45.741,45.741,0,0,0,2.426-3.912,24.8,24.8,0,0,0,2.269-4.853,1.062,1.062,0,0,1,1.058-.861q1.211,0,1.212,1.1,0,1.253-2.073,5.008-1.643,2.9-3.052,4.93a7.945,7.945,0,0,0-.94,1.331q0,.862,6.614,1.018v-1.37q0-6.143.234-8.805.077-1.016,1.213-1.017c.808,0,1.2.352,1.174,1.057q-.276,6.027-.274,8.765v1.409l2.152.079A1.076,1.076,0,0,1,257.711,300.174Z" transform="translate(-126.313 -275.36)" fill="#52362b" stroke="#52362b" stroke-miterlimit="10" stroke-width="0.289"/>
          <path id="Path_618" data-name="Path 618" d="M262.623,283.906l8.178.156-.352-3.365q-.039-1.095,1.136-1.174,1.132,0,1.173,1.057l.352,3.444v.078l8.178.2a1.021,1.021,0,0,1,1.134,1.174,1.1,1.1,0,0,1-1.134,1.134l-18.665-.391q-1.136-.116-1.173-1.134A1.037,1.037,0,0,1,262.623,283.906Zm18.665,24.377a29.441,29.441,0,0,1-7.747-4.343q-.7-.509-1.252-.939-2.7,3.365-4.893,3.912a1.956,1.956,0,0,1-.389.039,1.2,1.2,0,0,1-1.293-1.017,1.056,1.056,0,0,1,.94-1.213q1.839-.391,3.874-3.17a35.348,35.348,0,0,1-3.835-3.874,1.3,1.3,0,0,1-.273-.821,1.037,1.037,0,0,1,1.173-1.173,1.2,1.2,0,0,1,.861.391,2.764,2.764,0,0,0,.391.392,25.487,25.487,0,0,0,3.014,3.051,21.18,21.18,0,0,0,2.386-5.048,1.2,1.2,0,0,1,1.252-.9q1.292.116,1.1,1.368a21.868,21.868,0,0,1-2.9,6.145,9.1,9.1,0,0,0,1.1.86,30.51,30.51,0,0,0,7.161,4.225.993.993,0,0,1,.861,1.292,1.092,1.092,0,0,1-.745.821A1.94,1.94,0,0,1,281.288,308.284Z" transform="translate(-121.692 -276.857)" fill="#52362b" stroke="#52362b" stroke-miterlimit="10" stroke-width="0.289"/>
          <path id="Path_619" data-name="Path 619" d="M295.293,280.106a19.961,19.961,0,0,1,2.389,1.368q1.174.706,2.034,1.331a1.128,1.128,0,0,1,.47.783,1.094,1.094,0,0,1-1.214,1.213,1.191,1.191,0,0,1-.742-.274q-2.113-1.292-4.03-2.465a14.254,14.254,0,0,1-1.213,1.566,11.678,11.678,0,0,1-3.914,2.738,1.957,1.957,0,0,1-.625.118,1.1,1.1,0,0,1-1.253-.861,1.129,1.129,0,0,1,.744-1.368,8.3,8.3,0,0,0,3.286-2.231,10.417,10.417,0,0,0,2.113-3.365,1.158,1.158,0,0,1,1.134-.821q1.174.116,1.134,1.173a1.511,1.511,0,0,1-.076.471Zm-4.851,12.6a1,1,0,0,1,.979-1.252,1.033,1.033,0,0,1,1.252.744,2.35,2.35,0,0,1,.116.391q2.308.04,4.541.118-.041-.823-.079-1.565-2.858-.038-5.714-.313a1.014,1.014,0,0,1-.9-1.017c-.028-.731.352-1.1,1.134-1.1q.665,0,6.182.274c.913.026,1.41.431,1.486,1.213q.2,3.131.158,6.887a1.424,1.424,0,0,1-1.1,1.447,51.644,51.644,0,0,1-5.6.235c-.13,0-.209-.013-.234-.04q-.7,4.032-2.544,5.831a1.647,1.647,0,0,1-.429.313,1.306,1.306,0,0,1-.823.2q-1.174-.077-1.136-1.173a1.225,1.225,0,0,1,.353-.782q2.543-2.817,2.622-7.865c0-.339-.013-.717-.04-1.135a4.884,4.884,0,0,0-.155-.9C290.493,293.032,290.468,292.862,290.441,292.705Zm6.81-7.434q1.33.04,1.29,1.1-.038.978-1.447,1.1h-.587a9.756,9.756,0,0,1-4.069-.587,1.169,1.169,0,0,1-.391-.821.9.9,0,0,1,1.094-1.017,8.819,8.819,0,0,1,1.176.078A15.53,15.53,0,0,0,297.251,285.271Zm.116,9.665q-2.15.039-4.343-.118v.392c-.025.522-.066,1.03-.118,1.526h.118q2.584,0,4.382-.118Q297.406,295.8,297.367,294.936Zm4.538,9.586a25.089,25.089,0,0,1,.314,4.5,1.4,1.4,0,0,1-1.527,1.331,27.91,27.91,0,0,1-5.439-.157q-1.136-.235-1.134-1.683-.118-2.779-.118-4.187,0-1.174,1.018-1.252a.944.944,0,0,1,.9.352,1.22,1.22,0,0,1,.352-.079h3.444Q301.594,303.427,301.906,304.523Zm-5.594.978c0,.7.011,1.514.039,2.426,0,.234.079.366.234.392a17.148,17.148,0,0,0,3.131.039.286.286,0,0,0,.313-.274q0-.978-.118-2.309c-.026-.13-.131-.208-.313-.235Q298.539,305.5,296.312,305.5Zm14.046-8.022a1.194,1.194,0,0,1-1.37-.939,48.386,48.386,0,0,1-.625-5.674,1.1,1.1,0,0,1,2.19-.234q.237,3.131.51,4.969c.025.1.053.248.078.431Q311.415,297.245,310.358,297.479Zm4.461,2.075c.183,0,.275-.118.275-.352q0-1.057-.588-9.391-.156-1.292.979-1.408c.755-.054,1.186.248,1.292.9q.507,7.67.586,9.665.235,1.76-.586,2.309a2.439,2.439,0,0,1-1.723.352q-1.253-.156-1.331-1.134a.831.831,0,0,1,.51-.9A.889.889,0,0,1,314.819,299.553Z" transform="translate(-115.211 -277.282)" fill="#52362b" stroke="#52362b" stroke-miterlimit="10" stroke-width="0.289"/>
          <path id="Path_620" data-name="Path 620" d="M319.8,285.779q0,13.383-.471,16.591a1.086,1.086,0,0,1-1.252,1.018,1.07,1.07,0,0,1-1.055-1.253q.47-3.131.47-16.356a1,1,0,0,1,1.134-1.134A1.021,1.021,0,0,1,319.8,285.779Zm17.8,21.483q-3.677.077-8.138-.119a45.883,45.883,0,0,1-8.219-.547,1.139,1.139,0,0,1-.859-1.37.973.973,0,0,1,1.017-.86,3.84,3.84,0,0,1,.548.039q2.034.2,7.786.469,4.853.158,7.865.118,1.211,0,1.213,1.1A1.1,1.1,0,0,1,337.607,307.262Zm4.814-3.052q-.041-.939-.352-9.627-.353-9.157-.431-9.9.038-1.878-2.152-1.878-4.462-.2-17.57-.431-1.253-.039-1.291-1.1-.039-1.253,1.486-1.1,13.657.235,17.492.43,4.227.081,4.383,3.68.077.821.431,10.564.351,9.471.352,10.135,0,1.878-2.231,1.76-1.566-.039-1.683-1.134a.97.97,0,0,1,1.057-1.136C342.249,304.508,342.421,304.418,342.421,304.209Zm-16.748-2.036a1.009,1.009,0,0,1-.275-1.994,10.569,10.569,0,0,0,2.466-1.644,15.592,15.592,0,0,0,1.292-1.213q-.746-.077-1.252-.156-1.136-.235-1.135-1.643-.117-1.566-.116-2.349,0-1.174,1.017-1.252a1.108,1.108,0,0,1,.939.273q2.229,0,3.444.04,1.878.039,2.151,1.1a8.229,8.229,0,0,1,.353,2.7,1.364,1.364,0,0,1-1.487,1.291c-.471.026-.9.039-1.292.039a2.18,2.18,0,0,1-.352.7,14.443,14.443,0,0,1-2.113,2.152q0,1.174-.039,2c.469-.1.821-.2,1.057-.274a2.41,2.41,0,0,1,.468-.039q.667.079.706.86a.921.921,0,0,1-.47.782,2.87,2.87,0,0,1-.783.353,5.459,5.459,0,0,1-2.153.313q-1.174-.118-.821-1.605c0-.26.014-.587.039-.978a7.482,7.482,0,0,1-.821.391A2.388,2.388,0,0,1,325.673,302.173Zm.391-14.164q1.292.116,3.561.2l-.038-1.018q-1.41,0-2.7-.078a1.1,1.1,0,0,1-1.058-1.134q0-1.213,1.176-1.174l2.386.078v-.2a1.019,1.019,0,0,1,1.173-1.017,1.056,1.056,0,0,1,1.134,1.252l2.505.039a1.043,1.043,0,0,1,1.136,1.174,1.128,1.128,0,0,1-1.252,1.134q-1.1,0-2.231-.04c.025.392.053.744.079,1.057q2.071.081,3.4.04c.755.051,1.134.429,1.134,1.134,0,.652-.379,1.018-1.134,1.1-.366.026-.745.039-1.136.039q-4.225,0-8.139-.313c-.183-.025-.352-.051-.508-.078a1.154,1.154,0,0,1-.823-1.292Q324.851,287.932,326.063,288.01Zm2.9,6.221c.025.26.039.508.039.744,0,.208.079.327.234.352a14.514,14.514,0,0,0,2.9.039c.158,0,.248-.091.275-.273a1.942,1.942,0,0,0-.118-.587.3.3,0,0,0-.274-.235Q330.992,294.232,328.959,294.231Zm7.082,5.556a2.7,2.7,0,0,1-.548.782q-.469.43-.821.744a5.364,5.364,0,0,0,1.1.547c.729.209,1,.64.821,1.292a1.166,1.166,0,0,1-1.331.783,4.6,4.6,0,0,0-.508-.118,8.045,8.045,0,0,1-3.365-2.152,1.348,1.348,0,0,1-.547-.9.98.98,0,0,1,.977-1.134,1.3,1.3,0,0,1,.9.313l1.565-1.292a1.253,1.253,0,0,1,1.331-.155A.984.984,0,0,1,336.042,299.787Z" transform="translate(-107.688 -276.694)" fill="#52362b" stroke="#52362b" stroke-miterlimit="10" stroke-width="0.289"/>
          <path id="Path_621" data-name="Path 621" d="M346.667,305.648q1.057-5.869,1.057-23.477c-.5-.025-.925-.065-1.291-.118q-1.255-.117-1.292-1.174.039-1.251,1.331-1.134a198.131,198.131,0,0,0,19.957.431,1.058,1.058,0,0,1,1.252,1.136,1.1,1.1,0,0,1-1.136,1.134q-7.161.235-12.6.039-2.31-.077-3.914-.157,0,15.848-.9,22.695,4.265.274,18.117.274a.986.986,0,0,1,1.134,1.1q0,1.174-1.252,1.174-15.5,0-19.252-.392A1.284,1.284,0,0,1,346.667,305.648Zm15.456-7.865a25.8,25.8,0,0,1-.039,3.17q-.039.939-1.331,1.173a25.59,25.59,0,0,1-2.62.04,20.794,20.794,0,0,1-2.583-.2,1.121,1.121,0,0,1-1.018-1.291v-4.617c0-.651.352-1,1.057-1.055a1.049,1.049,0,0,1,.978.508q1.722,0,3.444.118Q362.2,295.827,362.123,297.783Zm2.192-11.034a21.676,21.676,0,0,1,.234,3.835,1.656,1.656,0,0,1-1.565,1.76,37.68,37.68,0,0,1-5.752.039,1.031,1.031,0,0,1-.94-1.134q-.156-2.9-.273-4.7-.079-1.33,1.1-1.447a1.084,1.084,0,0,1,.86.313.431.431,0,0,1,.2-.039q2.231-.038,3.835-.039Q364.12,285.34,364.315,286.749Zm-7.592,10.995q0,.939-.039,1.917a.289.289,0,0,0,.235.353q1.292.077,2.66.078a.343.343,0,0,0,.235-.391c.025-.418.038-.913.038-1.487.025-.235-.078-.352-.313-.352Q358.21,297.783,356.723,297.744Zm1.683-10.135q.039,1.213.118,2.27-.079.235.2.47a30.646,30.646,0,0,0,3.444-.039.439.439,0,0,0,.234-.469,16.472,16.472,0,0,0-.116-2c-.027-.183-.158-.274-.393-.274Q360.167,287.533,358.406,287.609Zm13.578,10.409a31.273,31.273,0,0,1-.039,3.482q-.039.939-1.33,1.174a22.312,22.312,0,0,1-2.428.039,18.649,18.649,0,0,1-2.425-.2,1.1,1.1,0,0,1-1.017-1.252v-4.774q0-.978,1.055-1.057a1.2,1.2,0,0,1,.861.352,2.057,2.057,0,0,1,.391-.039q1.41,0,2.817.118Q372.064,296.061,371.984,298.018Zm-5.048-.04q0,1.057-.038,2.231a.287.287,0,0,0,.234.352c.729.053,1.5.079,2.307.079a.343.343,0,0,0,.235-.392c.026-.494.04-1.1.04-1.8.025-.235-.079-.352-.314-.352Q368.265,298.018,366.936,297.978Z" transform="translate(-100.603 -276.803)" fill="#52362b" stroke="#52362b" stroke-miterlimit="10" stroke-width="0.289"/>
          <path id="Path_622" data-name="Path 622" d="M389.93,288.042a1.871,1.871,0,0,1,1.8,1.879q.156,3.482.158,7.825a1.389,1.389,0,0,1-1.527,1.566q-2.5.037-4.5,0,.077,2.347.158,4.147a18.956,18.956,0,0,0,3.834,2.465c.182.079.391.156.626.235a.8.8,0,0,0,.7-.079,1.255,1.255,0,0,1,.782-.156,1.1,1.1,0,0,1,.978,1.253q-.156,1.174-1.877,1.252a8.294,8.294,0,0,1-4.189-1.683,6.016,6.016,0,0,1-.783-.51q.041,1.566.04,2.7.039,2.426-2.465,2.269-1.369-.077-1.447-1.291a.915.915,0,0,1,.742-.978,3.143,3.143,0,0,1,.823.039c.157-.053.222-.222.2-.508,0-.835-.015-1.7-.04-2.583q-.823.665-1.762,1.33a6.354,6.354,0,0,1-3.443,1.526q-1.487,0-1.6-1.134a1.058,1.058,0,0,1,1.134-1.212,5.37,5.37,0,0,0,.548-.04,7.125,7.125,0,0,0,2.543-1.447,20.316,20.316,0,0,0,2.465-2.075q-.041-1.72-.118-3.521a53.091,53.091,0,0,1-6.221-.431q-1.448-.237-1.174-1.918a60.98,60.98,0,0,0,.586-9.156,1.023,1.023,0,0,1,1.1-1.057.93.93,0,0,1,1.017.665q2.271.116,4.07.2-.116-2.7-.274-4.851-2.74-.156-5.321-.431a3.308,3.308,0,0,1-.744-.156,1.154,1.154,0,0,1-.821-1.291q.117-1.016,1.331-.939,1.955.235,5.4.431c-.028-.6-.065-1.135-.118-1.605a1.074,1.074,0,0,1,.7-1.331q1.174-.233,1.449.744.077,1.136.155,2.309c.262.026.483.039.666.039q3.288.079,5.439.04,1.136.079,1.135,1.134,0,1.018-1.135,1.136-.783.039-1.643.039-2.193.04-4.266-.039.118,2.308.273,4.892Q388.875,287.926,389.93,288.042Zm-6.339,9.078q-.077-1.448-.116-2.817l-4.538-.2q-.081,1.369-.235,2.739Q380.695,297.043,383.591,297.121Zm-4.461-7.473q0,1.1-.039,2.269l4.227.2q-.039-1.213-.116-2.27Q380.89,289.726,379.13,289.647Zm6.3.313q.039,1.136.118,2.23l3.836.156c0-.783-.028-1.5-.079-2.152Q387.153,290.039,385.43,289.96Zm3.991,4.616-3.795-.155q.116,1.448.156,2.738,1.76.041,3.677,0Q389.46,295.79,389.421,294.577Z" transform="translate(-92.847 -277.393)" fill="#52362b" stroke="#52362b" stroke-miterlimit="10" stroke-width="0.289"/>
          <path id="Path_623" data-name="Path 623" d="M408.029,290.94q0,3.014-4.11,6.378-4.618,3.837-4.616,4.892,0,.509,2.386.508a15.136,15.136,0,0,0,4.54-.626,1.509,1.509,0,0,1,.352-.038,1,1,0,0,1,1.134,1.134,1.065,1.065,0,0,1-.744,1.1,16.111,16.111,0,0,1-5.282.744,7.339,7.339,0,0,1-3.052-.587,2.348,2.348,0,0,1-1.683-2.231q0-1.446,2.073-3.6.667-.665,3.405-3.012,3.286-2.856,3.286-4.657a2.9,2.9,0,0,0-1.017-2.27,3.857,3.857,0,0,0-2.583-.9,6.6,6.6,0,0,0-4.031,1.8,1.218,1.218,0,0,1-.9.312.893.893,0,0,1-.7-.391,1.15,1.15,0,0,1-.313-.783,1.236,1.236,0,0,1,.392-.9,8.133,8.133,0,0,1,5.556-2.349,6.078,6.078,0,0,1,4.03,1.41A5.048,5.048,0,0,1,408.029,290.94Z" transform="translate(-87.744 -275.36)" fill="#52362b" stroke="#52362b" stroke-miterlimit="10" stroke-width="0.289"/>
          <path id="Path_624" data-name="Path 624" d="M427.008,300.645a1.055,1.055,0,0,1-.2.625,8.466,8.466,0,0,1-2.739,2.5,9.246,9.246,0,0,1-4.735,1.253,8.776,8.776,0,0,1-6.965-3.013,9.511,9.511,0,0,1-2.348-6.457,10.314,10.314,0,0,1,2.622-7.121,8.324,8.324,0,0,1,6.573-2.975,9.4,9.4,0,0,1,7.121,3.131,1.012,1.012,0,0,1,.314.744,1.055,1.055,0,0,1-1.173,1.213,1.155,1.155,0,0,1-.863-.431,7.224,7.224,0,0,0-5.4-2.426,6.3,6.3,0,0,0-4.851,2.349,7.975,7.975,0,0,0-2.075,5.516,7.22,7.22,0,0,0,1.8,4.892,6.672,6.672,0,0,0,5.243,2.309,6.194,6.194,0,0,0,5.479-2.7,1.088,1.088,0,0,1,.979-.586,1.131,1.131,0,0,1,.821.352A1.079,1.079,0,0,1,427.008,300.645Z" transform="translate(-84.253 -275.36)" fill="#52362b" stroke="#52362b" stroke-miterlimit="10" stroke-width="0.289"/>
          <path id="Path_625" data-name="Path 625" d="M434.408,279.469a1.112,1.112,0,0,1,1.1-.431,1.527,1.527,0,0,1,.586.158,1.359,1.359,0,0,1,.273,1.525,33.521,33.521,0,0,1-3.559,4.306,22.28,22.28,0,0,1-3.875,3.559.973.973,0,0,1-.469.2,1.148,1.148,0,0,1-1.29-.821,1.062,1.062,0,0,1,.469-1.213,19.276,19.276,0,0,0,3.482-3.208A50.775,50.775,0,0,0,434.408,279.469Zm-2.5,12.4q1.722.118,5.2.431a1.6,1.6,0,0,1,1.447,1.84q.118,3.131.118,5.908.077,1.643-1.055,1.957a6.494,6.494,0,0,1-1.724.234,16.178,16.178,0,0,1-2.542.04q.038,1.6,0,3.208c0,.209.09.313.273.313a2.237,2.237,0,0,0,.744-.039,13.87,13.87,0,0,0,1.566-.274c-.079-.157-.158-.3-.235-.431a.971.971,0,0,1-.158-.274,1.041,1.041,0,0,1,.431-1.173,1.647,1.647,0,0,1,1.214.079c.051.051.129.13.234.234q.9,1.253,2.191,3.13a1.056,1.056,0,0,1,.2.274.917.917,0,0,1-.118,1.252,1.058,1.058,0,0,1-1.017.235,1.311,1.311,0,0,1-.627-.431,10.454,10.454,0,0,1-.938-1.174,15.022,15.022,0,0,1-3.483.7,4.823,4.823,0,0,1-1.055.039q-1.41,0-1.489-1.136-.156-8.528-.352-10.525,0-1.174,1.058-1.252a1.029,1.029,0,0,1,1.213.9,4.04,4.04,0,0,1,.039.548l3.286.039c-.028-.573-.039-1.161-.039-1.76q0-.353-.548-.392-.392-.039-4.069-.313a1.068,1.068,0,0,1-.979-1.136A1.006,1.006,0,0,1,431.9,291.873Zm1.76-4.695,2.426.469a.956.956,0,0,1,1.055,1.057,1.058,1.058,0,0,1-1.173,1.057,6.686,6.686,0,0,1-2.426-.47,1.02,1.02,0,0,1-.939-1.057Q432.608,287.14,433.665,287.178Zm2.662,11.5-3.131-.039c.026.547.051,1.082.079,1.6q1.564,0,2.583-.078a.53.53,0,0,0,.469-.392Zm-.745-15.378a1.124,1.124,0,0,1,.9-1.526,1.251,1.251,0,0,1,1.213.587,9.366,9.366,0,0,0,3.288,2.739,2.788,2.788,0,0,1,.312.118q.823.43.666,1.134a1.125,1.125,0,0,1-1.252.979,5.9,5.9,0,0,1-2.738-1.487,8.658,8.658,0,0,1-2.231-2.231Zm18.353-3.091q-.118,1.527-.234,2.622a42.646,42.646,0,0,1,4.773.821,1.662,1.662,0,0,1,.9,2.034,7.633,7.633,0,0,1-1.018,3.17,1.281,1.281,0,0,1-1.644.392.974.974,0,0,1-.391-1.331c.1-.209.248-.508.431-.9a3.7,3.7,0,0,0,.353-1.173.405.405,0,0,0-.235-.47,77.9,77.9,0,0,0-9.351-1.018,6.879,6.879,0,0,1-.118.744q-.822,3.6-2.544,4.069-1.527.158-1.565-1.018a.986.986,0,0,1,.547-.9Q445.4,286,445.4,282.17A1.066,1.066,0,0,1,446.539,281a1.083,1.083,0,0,1,1.173,1.174v.118q2.036.156,3.64.312l.274-2.62a1.045,1.045,0,0,1,1.174-1.018A1.057,1.057,0,0,1,453.934,280.213Zm-3.951,18.7q0,1.564-.04,2.856,3.951.235,5.126.431a1.243,1.243,0,0,1,1.057,1.173q.2,1.645.234,3.914a1.3,1.3,0,0,1-1.134,1.252c-.157.026-.391.051-.7.078q-2.545.156-5.087.079a1.121,1.121,0,0,1-1.134.587,1.073,1.073,0,0,1-1.058-1.252q.469-3.014.469-15.574a1,1,0,0,1,1.134-1.136c.652,0,1.019.235,1.1.7q1.018.079,4.069.352a1.3,1.3,0,0,1,1.447,1.173,28.965,28.965,0,0,1,.158,3.8,1.38,1.38,0,0,1-1.1,1.37A41.314,41.314,0,0,1,449.983,298.918Zm-.118,4.969q-.039,1.683-.118,2.817,2.113.039,4.343,0c-.027-.808-.066-1.644-.118-2.5Q452.213,304.044,449.865,303.887Zm.156-9.743V297q2.032,0,3.443-.079a19.986,19.986,0,0,0-.156-2.465Q451.663,294.379,450.022,294.144Z" transform="translate(-79.941 -276.998)" fill="#52362b" stroke="#52362b" stroke-miterlimit="10" stroke-width="0.289"/>
        </g>
      </g>
      <g id="Group_32" data-name="Group 32" transform="translate(0.275)">
        <path id="Path_626" data-name="Path 626" d="M162.332,261.392q0,3.125-4.259,6.613-4.787,3.974-4.788,5.071,0,.526,2.475.527a15.685,15.685,0,0,0,4.7-.65,1.541,1.541,0,0,1,.366-.04,1.04,1.04,0,0,1,1.177,1.176,1.106,1.106,0,0,1-.771,1.137,16.7,16.7,0,0,1-5.476.77,7.591,7.591,0,0,1-3.164-.608,2.432,2.432,0,0,1-1.745-2.311q0-1.5,2.151-3.732.689-.689,3.528-3.124,3.409-2.962,3.408-4.828a3.01,3.01,0,0,0-1.054-2.352,3.985,3.985,0,0,0-2.677-.933,6.841,6.841,0,0,0-4.179,1.865,1.257,1.257,0,0,1-.933.326.928.928,0,0,1-.73-.406,1.192,1.192,0,0,1-.324-.811,1.279,1.279,0,0,1,.406-.934,8.429,8.429,0,0,1,5.76-2.434,6.291,6.291,0,0,1,4.177,1.461A5.232,5.232,0,0,1,162.332,261.392Z" transform="translate(-150.041 -255.713)" fill="#52362b"/>
        <path id="Path_627" data-name="Path 627" d="M181.323,266.22a10.8,10.8,0,0,1-2.231,7.017,7.026,7.026,0,0,1-11.2-.04,10.969,10.969,0,0,1-1.784-6.613,15.221,15.221,0,0,1,.608-4.055,10.769,10.769,0,0,1,1.42-3.327,1.131,1.131,0,0,1,.973-.527q1.178,0,1.177,1.094a1.5,1.5,0,0,1-.2.811,10.155,10.155,0,0,0-1.054,2.637,12.511,12.511,0,0,0-.528,3.367,8.628,8.628,0,0,0,1.3,5.071,4.4,4.4,0,0,0,3.895,1.988,4.519,4.519,0,0,0,3.609-2.07,8.668,8.668,0,0,0,1.583-5.354,11.116,11.116,0,0,0-1.5-6.247,3.564,3.564,0,0,0-3.042-1.865,3.975,3.975,0,0,0-2.515.73,1.078,1.078,0,0,1-.73.244,1,1,0,0,1-1.136-1.136,1.153,1.153,0,0,1,.446-.934,5.8,5.8,0,0,1,3.935-1.3,5.885,5.885,0,0,1,5.03,2.6Q181.321,261.068,181.323,266.22Z" transform="translate(-145.992 -255.713)" fill="#52362b"/>
        <path id="Path_628" data-name="Path 628" d="M196.8,261.392q0,3.125-4.259,6.613-4.787,3.974-4.788,5.071,0,.526,2.475.527a15.685,15.685,0,0,0,4.7-.65,1.54,1.54,0,0,1,.366-.04,1.04,1.04,0,0,1,1.177,1.176,1.106,1.106,0,0,1-.771,1.137,16.7,16.7,0,0,1-5.476.77,7.591,7.591,0,0,1-3.164-.608,2.431,2.431,0,0,1-1.744-2.311q0-1.5,2.15-3.732.689-.689,3.528-3.124,3.409-2.962,3.408-4.828a3.01,3.01,0,0,0-1.054-2.352,3.985,3.985,0,0,0-2.677-.933,6.841,6.841,0,0,0-4.179,1.865,1.257,1.257,0,0,1-.933.326.928.928,0,0,1-.73-.406,1.192,1.192,0,0,1-.324-.811,1.284,1.284,0,0,1,.406-.934,8.429,8.429,0,0,1,5.76-2.434,6.3,6.3,0,0,1,4.178,1.461A5.235,5.235,0,0,1,196.8,261.392Z" transform="translate(-141.354 -255.713)" fill="#52362b"/>
        <path id="Path_629" data-name="Path 629" d="M215.8,266.22a10.8,10.8,0,0,1-2.231,7.017,7.025,7.025,0,0,1-11.2-.04,10.961,10.961,0,0,1-1.785-6.613,15.219,15.219,0,0,1,.609-4.055,10.8,10.8,0,0,1,1.42-3.327,1.132,1.132,0,0,1,.974-.527q1.176,0,1.176,1.094a1.5,1.5,0,0,1-.2.811,10.2,10.2,0,0,0-1.054,2.637,12.506,12.506,0,0,0-.527,3.367,8.629,8.629,0,0,0,1.3,5.071,4.4,4.4,0,0,0,3.895,1.988,4.519,4.519,0,0,0,3.609-2.07,8.668,8.668,0,0,0,1.583-5.354,11.116,11.116,0,0,0-1.5-6.247,3.564,3.564,0,0,0-3.042-1.865,3.968,3.968,0,0,0-2.514.73,1.084,1.084,0,0,1-.731.244,1,1,0,0,1-1.136-1.136,1.152,1.152,0,0,1,.446-.934,5.8,5.8,0,0,1,3.935-1.3,5.886,5.886,0,0,1,5.031,2.6Q215.8,261.068,215.8,266.22Z" transform="translate(-137.305 -255.713)" fill="#52362b"/>
        <path id="Path_630" data-name="Path 630" d="M222.006,270.669a1.985,1.985,0,0,1-.609,1.46,1.859,1.859,0,0,1-1.418.608,1.942,1.942,0,0,1-1.42-.608,1.99,1.99,0,0,1-.608-1.46,2.08,2.08,0,0,1,2.028-2.028,1.859,1.859,0,0,1,1.418.608A1.941,1.941,0,0,1,222.006,270.669Z" transform="translate(-132.928 -252.455)" fill="#52362b"/>
        <path id="Path_631" data-name="Path 631" d="M234.252,256.85c0,.026-.014.161-.04.406a75.242,75.242,0,0,0-.406,8.437q0,1.542.08,4.584.083,3.082.081,4.584,0,1.136-1.217,1.135a1.1,1.1,0,0,1-1.257-1.054q-.163-2.312-.163-9.248a60.1,60.1,0,0,1,.528-8.924,1.09,1.09,0,0,1,1.176-1.055Q234.252,255.713,234.252,256.85Z" transform="translate(-129.557 -255.713)" fill="#52362b"/>
        <path id="Path_632" data-name="Path 632" d="M257.133,261.392q0,3.125-4.259,6.613-4.787,3.974-4.786,5.071,0,.526,2.475.527a15.691,15.691,0,0,0,4.7-.65,1.541,1.541,0,0,1,.366-.04,1.039,1.039,0,0,1,1.176,1.176,1.106,1.106,0,0,1-.771,1.137,16.693,16.693,0,0,1-5.475.77,7.6,7.6,0,0,1-3.165-.608,2.431,2.431,0,0,1-1.744-2.311q0-1.5,2.15-3.732.689-.689,3.529-3.124,3.407-2.962,3.408-4.828a3.007,3.007,0,0,0-1.055-2.352,3.985,3.985,0,0,0-2.677-.933,6.839,6.839,0,0,0-4.178,1.865,1.258,1.258,0,0,1-.934.326.93.93,0,0,1-.73-.406,1.192,1.192,0,0,1-.324-.811,1.284,1.284,0,0,1,.406-.934,8.432,8.432,0,0,1,5.76-2.434,6.3,6.3,0,0,1,4.178,1.461A5.231,5.231,0,0,1,257.133,261.392Z" transform="translate(-126.152 -255.713)" fill="#52362b"/>
        <path id="Path_633" data-name="Path 633" d="M265.1,270.669a1.988,1.988,0,0,1-.607,1.46,1.863,1.863,0,0,1-1.42.608,1.944,1.944,0,0,1-1.42-.608,1.99,1.99,0,0,1-.608-1.46,2.08,2.08,0,0,1,2.028-2.028,1.863,1.863,0,0,1,1.42.608A1.944,1.944,0,0,1,265.1,270.669Z" transform="translate(-122.07 -252.455)" fill="#52362b"/>
        <path id="Path_634" data-name="Path 634" d="M282.842,270.113a5.6,5.6,0,0,1-1.744,4.3A6.681,6.681,0,0,1,276.433,276a7.249,7.249,0,0,1-4.5-1.623,1.223,1.223,0,0,1-.487-.973q0-1.258,1.176-1.258a4.019,4.019,0,0,1,1.5.73,4.262,4.262,0,0,0,2.312.69q3.934,0,3.935-3.448,0-2.6-4.868-3.611a1.093,1.093,0,0,1-.974-1.176,1.113,1.113,0,0,1,1.136-1.217q4.139-.4,4.138-3.488a2.148,2.148,0,0,0-1.014-1.785,3.677,3.677,0,0,0-2.353-.77,6.869,6.869,0,0,0-3.691,1.623,1.32,1.32,0,0,1-.811.243,1.143,1.143,0,0,1-.771-.324,1.128,1.128,0,0,1-.366-.811,1.2,1.2,0,0,1,.528-1.055,8.974,8.974,0,0,1,5.111-2.028,6.444,6.444,0,0,1,3.691,1.1,4.284,4.284,0,0,1,2.07,3.814,5.23,5.23,0,0,1-2.678,4.826Q282.841,267.234,282.842,270.113Z" transform="translate(-119.613 -255.713)" fill="#52362b"/>
        <path id="Path_635" data-name="Path 635" d="M301.979,266.22a10.8,10.8,0,0,1-2.231,7.017,7.025,7.025,0,0,1-11.2-.04,10.96,10.96,0,0,1-1.785-6.613,15.219,15.219,0,0,1,.608-4.055,10.8,10.8,0,0,1,1.42-3.327,1.131,1.131,0,0,1,.973-.527q1.177,0,1.177,1.094a1.5,1.5,0,0,1-.2.811,10.2,10.2,0,0,0-1.054,2.637,12.511,12.511,0,0,0-.528,3.367,8.628,8.628,0,0,0,1.3,5.071,4.4,4.4,0,0,0,3.895,1.988,4.519,4.519,0,0,0,3.609-2.07,8.668,8.668,0,0,0,1.582-5.354,11.116,11.116,0,0,0-1.5-6.247A3.564,3.564,0,0,0,295,258.107a3.975,3.975,0,0,0-2.515.73,1.078,1.078,0,0,1-.73.244,1,1,0,0,1-1.136-1.136,1.153,1.153,0,0,1,.446-.934,5.8,5.8,0,0,1,3.935-1.3,5.885,5.885,0,0,1,5.03,2.6Q301.977,261.068,301.979,266.22Z" transform="translate(-115.588 -255.713)" fill="#52362b"/>
        <path id="Path_636" data-name="Path 636" d="M327.91,262.747a1.7,1.7,0,0,1-.685,1.28q-1.326,1.234-1.691,1.507a3.78,3.78,0,0,1-2.056.64,6.427,6.427,0,0,1-3.747-1.554,6.181,6.181,0,0,0-2.514-1.371,2.744,2.744,0,0,0-1.644,1.005q-1.1,1.1-1.645,1.1a1.172,1.172,0,0,1-1.326-1.326q0-.686,1.509-1.964a4.96,4.96,0,0,1,3.106-1.464,6.3,6.3,0,0,1,3.7,1.6,5.666,5.666,0,0,0,2.6,1.371q.64,0,1.554-1.1.96-1,1.509-1.005A1.152,1.152,0,0,1,327.91,262.747Z" transform="translate(-109.077 -254.482)" fill="#52362b"/>
        <path id="Path_637" data-name="Path 637" d="M352,261.392q0,3.125-4.259,6.613-4.787,3.974-4.786,5.071,0,.526,2.474.527a15.7,15.7,0,0,0,4.706-.65,1.529,1.529,0,0,1,.364-.04,1.04,1.04,0,0,1,1.177,1.176,1.106,1.106,0,0,1-.771,1.137,16.7,16.7,0,0,1-5.476.77,7.592,7.592,0,0,1-3.164-.608,2.431,2.431,0,0,1-1.744-2.311q0-1.5,2.15-3.732.689-.689,3.529-3.124,3.407-2.962,3.408-4.828a3.011,3.011,0,0,0-1.055-2.352,3.985,3.985,0,0,0-2.677-.933,6.842,6.842,0,0,0-4.179,1.865,1.257,1.257,0,0,1-.933.326.928.928,0,0,1-.73-.406,1.192,1.192,0,0,1-.324-.811,1.284,1.284,0,0,1,.406-.934,8.429,8.429,0,0,1,5.76-2.434,6.3,6.3,0,0,1,4.178,1.461A5.231,5.231,0,0,1,352,261.392Z" transform="translate(-102.246 -255.713)" fill="#52362b"/>
        <path id="Path_638" data-name="Path 638" d="M370.995,266.22a10.8,10.8,0,0,1-2.231,7.017,7.025,7.025,0,0,1-11.2-.04,10.96,10.96,0,0,1-1.785-6.613,15.22,15.22,0,0,1,.608-4.055,10.8,10.8,0,0,1,1.42-3.327,1.132,1.132,0,0,1,.974-.527q1.176,0,1.176,1.094a1.5,1.5,0,0,1-.2.811,10.2,10.2,0,0,0-1.054,2.637,12.507,12.507,0,0,0-.527,3.367,8.619,8.619,0,0,0,1.3,5.071,4.4,4.4,0,0,0,3.894,1.988,4.519,4.519,0,0,0,3.609-2.07,8.668,8.668,0,0,0,1.583-5.354,11.117,11.117,0,0,0-1.5-6.247,3.565,3.565,0,0,0-3.042-1.865,3.969,3.969,0,0,0-2.514.73,1.083,1.083,0,0,1-.731.244,1,1,0,0,1-1.136-1.136,1.156,1.156,0,0,1,.446-.934,5.8,5.8,0,0,1,3.935-1.3,5.885,5.885,0,0,1,5.03,2.6Q371,261.068,370.995,266.22Z" transform="translate(-98.196 -255.713)" fill="#52362b"/>
        <path id="Path_639" data-name="Path 639" d="M386.477,261.392q0,3.125-4.259,6.613-4.787,3.974-4.786,5.071,0,.526,2.474.527a15.7,15.7,0,0,0,4.706-.65,1.53,1.53,0,0,1,.364-.04,1.039,1.039,0,0,1,1.177,1.176,1.106,1.106,0,0,1-.771,1.137,16.7,16.7,0,0,1-5.476.77,7.592,7.592,0,0,1-3.164-.608A2.431,2.431,0,0,1,375,273.076q0-1.5,2.15-3.732.689-.689,3.529-3.124,3.407-2.962,3.408-4.828a3.011,3.011,0,0,0-1.055-2.352,3.985,3.985,0,0,0-2.677-.933,6.841,6.841,0,0,0-4.179,1.865,1.257,1.257,0,0,1-.933.326.93.93,0,0,1-.73-.406,1.192,1.192,0,0,1-.324-.811,1.284,1.284,0,0,1,.406-.934,8.432,8.432,0,0,1,5.76-2.434,6.3,6.3,0,0,1,4.178,1.461A5.231,5.231,0,0,1,386.477,261.392Z" transform="translate(-93.559 -255.713)" fill="#52362b"/>
        <path id="Path_640" data-name="Path 640" d="M398.069,256.85c0,.026-.014.161-.04.406a75.242,75.242,0,0,0-.406,8.437q0,1.542.081,4.584.081,3.082.081,4.584,0,1.136-1.217,1.135a1.105,1.105,0,0,1-1.258-1.054q-.162-2.312-.162-9.248a60.127,60.127,0,0,1,.527-8.924,1.09,1.09,0,0,1,1.176-1.055Q398.069,255.713,398.069,256.85Z" transform="translate(-88.277 -255.713)" fill="#52362b"/>
        <path id="Path_641" data-name="Path 641" d="M411.678,270.669a1.985,1.985,0,0,1-.608,1.46,1.859,1.859,0,0,1-1.419.608,1.944,1.944,0,0,1-1.42-.608,1.99,1.99,0,0,1-.608-1.46,2.08,2.08,0,0,1,2.028-2.028,1.859,1.859,0,0,1,1.419.608A1.941,1.941,0,0,1,411.678,270.669Z" transform="translate(-85.133 -252.455)" fill="#52362b"/>
        <path id="Path_642" data-name="Path 642" d="M431.274,270.965a1.037,1.037,0,0,1-1.217,1.177l-2.191-.081q.161,2.6.163,2.8,0,1.136-1.217,1.135a1.119,1.119,0,0,1-1.258-1.1q-.081-.77-.122-2.88-9.288-.406-9.288-3.488a5.955,5.955,0,0,1,1.46-2.84,47.65,47.65,0,0,0,2.515-4.056,25.837,25.837,0,0,0,2.352-5.03,1.1,1.1,0,0,1,1.1-.893q1.256,0,1.257,1.137,0,1.3-2.15,5.192-1.7,3-3.164,5.111a8.177,8.177,0,0,0-.974,1.38q0,.892,6.856,1.054v-1.42q0-6.368.243-9.127.081-1.054,1.258-1.054,1.256,0,1.217,1.1-.285,6.246-.284,9.086v1.46l2.231.081A1.117,1.117,0,0,1,431.274,270.965Z" transform="translate(-82.986 -255.713)" fill="#52362b"/>
        <path id="Path_643" data-name="Path 643" d="M437.533,270.669a1.985,1.985,0,0,1-.609,1.46,1.859,1.859,0,0,1-1.418.608,1.942,1.942,0,0,1-1.42-.608,1.99,1.99,0,0,1-.608-1.46,2.08,2.08,0,0,1,2.028-2.028,1.859,1.859,0,0,1,1.418.608A1.941,1.941,0,0,1,437.533,270.669Z" transform="translate(-78.618 -252.455)" fill="#52362b"/>
        <path id="Path_644" data-name="Path 644" d="M455.326,257.66a1.112,1.112,0,0,1-1.258,1.258q-2.759,0-8.193-.284v2.84a22.813,22.813,0,0,1-.163,2.555,8.062,8.062,0,0,1,2.718-.527,6.229,6.229,0,0,1,4.544,1.7,5.761,5.761,0,0,1,1.744,4.3,6.132,6.132,0,0,1-2.15,4.99,6.865,6.865,0,0,1-4.5,1.5,9.232,9.232,0,0,1-3.609-.811,1.124,1.124,0,0,1-.811-1.1q0-1.215,1.054-1.217a2.245,2.245,0,0,1,.487.081,9.146,9.146,0,0,0,2.88.608,4.341,4.341,0,0,0,3-1.014,3.805,3.805,0,0,0,1.217-3.042,3.513,3.513,0,0,0-1.014-2.515,3.676,3.676,0,0,0-2.84-1.054,7.089,7.089,0,0,0-3.084.811,1.568,1.568,0,0,1-.649.2,1.273,1.273,0,0,1-1.46-1.42c0,.055.054-.541.161-1.784q.162-1.906.163-3.489a14.059,14.059,0,0,0-.2-2.311,9.729,9.729,0,0,0-.163-1.055,1.059,1.059,0,0,1,1.217-1.177,1.082,1.082,0,0,1,.933.447q5.679.284,8.721.284A1.094,1.094,0,0,1,455.326,257.66Z" transform="translate(-76.169 -255.713)" fill="#52362b"/>
      </g>
    </g>
  </g>
</svg>
