<svg id="Group_924" data-name="Group 924" xmlns="http://www.w3.org/2000/svg" width="252.441" height="77.09" viewBox="0 0 252.441 77.09">
  <g id="Group_922" data-name="Group 922" transform="translate(0 0)">
    <g id="Group_920" data-name="Group 920">
      <path id="Path_5527" data-name="Path 5527" d="M120.686,234.422c0,4.028.124,7.315.243,9.9H112.6l-.43-4.366h-.193A11.059,11.059,0,0,1,102.306,245c-6.3,0-10.845-3.9-10.845-13.429V213.431h9.574v16.615c0,4.488,1.445,7.2,4.876,7.2a5.073,5.073,0,0,0,4.794-3.353,4.912,4.912,0,0,0,.4-2.092V213.431h9.582Z" transform="translate(-91.461 -199.479)" fill="#f38200"/>
      <path id="Path_5528" data-name="Path 5528" d="M208.183,179.686v35.608c0,3.475.118,7.143.251,9.235h-8.542l-.38-4.493h-.188a10.8,10.8,0,0,1-9.635,5.184c-7.351,0-13.229-6.247-13.229-15.858-.061-10.426,6.426-16.474,13.854-16.474,3.841,0,6.741,1.395,8.113,3.48h.139V179.686Zm-9.617,27.03a7.617,7.617,0,0,0-.139-1.751,5.732,5.732,0,0,0-5.618-4.684c-4.381,0-6.6,3.9-6.6,8.766,0,5.246,2.581,8.526,6.562,8.526a5.7,5.7,0,0,0,5.628-4.62,12.956,12.956,0,0,0,.17-2.2Z" transform="translate(-141.316 -179.686)" fill="#f38200"/>
      <path id="Path_5529" data-name="Path 5529" d="M271.43,222.3c0-3.851-.125-7.054-.246-9.844h8.333l.437,4.291h.2a11.094,11.094,0,0,1,9.52-4.99c6.3,0,11.05,4.261,11.05,13.313v18.261h-9.6V226.218c0-3.973-1.409-6.695-4.846-6.695a5.34,5.34,0,0,0-4.958,3.6,8.209,8.209,0,0,0-.27,2.407v17.8H271.43Z" transform="translate(-196.876 -198.494)" fill="#f38200"/>
    </g>
    <g id="Group_921" data-name="Group 921" transform="translate(109.63 0.359)">
      <path id="Path_5530" data-name="Path 5530" d="M409.891,217.154H376.58a1.672,1.672,0,0,1-1.672-1.672V197.757a1.672,1.672,0,0,1,1.672-1.672h33.311a1.672,1.672,0,0,1,0,3.344h-31.64v14.382h31.64a1.672,1.672,0,0,1,0,3.343Z" transform="translate(-367.344 -189.664)"/>
      <path id="Path_5531" data-name="Path 5531" d="M407.86,215.06H376.58a1.672,1.672,0,1,1,0-3.344h31.28a1.672,1.672,0,0,1,0,3.344Z" transform="translate(-367.344 -198.832)"/>
      <path id="Path_5532" data-name="Path 5532" d="M407.86,228.463H376.58a1.672,1.672,0,1,1,0-3.344h31.28a1.672,1.672,0,0,1,0,3.344Z" transform="translate(-367.344 -206.694)"/>
      <path id="Path_5533" data-name="Path 5533" d="M414.41,217.154a1.672,1.672,0,0,1-1.672-1.672V197.757a1.672,1.672,0,1,1,3.343,0v17.725A1.671,1.671,0,0,1,414.41,217.154Z" transform="translate(-389.533 -189.664)"/>
      <path id="Path_5534" data-name="Path 5534" d="M412.987,191.831a1.67,1.67,0,0,1-1.489-.911l-2.739-5.356a1.672,1.672,0,1,1,2.977-1.522l2.739,5.356a1.672,1.672,0,0,1-1.487,2.433Z" transform="translate(-387.091 -182.066)"/>
      <path id="Path_5535" data-name="Path 5535" d="M408.024,269.277H376.58a1.672,1.672,0,0,1-1.672-1.672V256.7a1.672,1.672,0,0,1,1.672-1.672h31.444A1.672,1.672,0,0,1,409.7,256.7v10.9A1.672,1.672,0,0,1,408.024,269.277Zm-29.772-3.344h28.1v-7.557h-28.1Z" transform="translate(-367.344 -224.24)"/>
      <path id="Path_5536" data-name="Path 5536" d="M518.517,190.938h-41.43a1.672,1.672,0,0,1,0-3.344h41.43a1.672,1.672,0,0,1,0,3.344Z" transform="translate(-426.296 -184.684)"/>
      <path id="Path_5537" data-name="Path 5537" d="M519.688,213.593H486.63a1.672,1.672,0,0,1-1.672-1.672v-7.011a1.672,1.672,0,0,1,1.672-1.672h33.058a1.672,1.672,0,0,1,1.672,1.672v7.011A1.672,1.672,0,0,1,519.688,213.593ZM488.3,210.25h29.715v-3.667H488.3Z" transform="translate(-431.893 -193.86)"/>
      <path id="Path_5538" data-name="Path 5538" d="M513.877,203.313a1.672,1.672,0,0,1-1.672-1.672V189.266a1.672,1.672,0,1,1,3.343,0v12.375A1.672,1.672,0,0,1,513.877,203.313Z" transform="translate(-447.875 -184.684)"/>
      <path id="Path_5539" data-name="Path 5539" d="M539.331,203.869a1.672,1.672,0,0,1-1.672-1.672V189.266a1.672,1.672,0,1,1,3.343,0V202.2A1.672,1.672,0,0,1,539.331,203.869Z" transform="translate(-462.804 -184.684)"/>
      <path id="Path_5540" data-name="Path 5540" d="M519.688,239.624H486.63a1.672,1.672,0,0,1,0-3.344h33.058a1.672,1.672,0,0,1,0,3.344Z" transform="translate(-431.893 -213.24)"/>
      <path id="Path_5541" data-name="Path 5541" d="M518.517,253.908h-41.43a1.672,1.672,0,0,1,0-3.344h41.43a1.672,1.672,0,0,1,0,3.344Z" transform="translate(-426.296 -221.618)"/>
      <path id="Path_5542" data-name="Path 5542" d="M526.6,267.391a1.671,1.671,0,0,1-1.672-1.672V252.236a1.672,1.672,0,1,1,3.343,0V265.72A1.671,1.671,0,0,1,526.6,267.391Z" transform="translate(-455.336 -221.618)"/>
      <path id="Path_5543" data-name="Path 5543" d="M597.918,201.251a1.672,1.672,0,0,1-1.024-2.993c1.6-1.24,5.841-9.042,8.344-14.187a1.672,1.672,0,0,1,3.007,1.462c-.745,1.533-3.646,7.407-6.275,11.527l5.76-1.157a1.672,1.672,0,0,1,.658,3.278l-10.14,2.036A1.659,1.659,0,0,1,597.918,201.251Z" transform="translate(-497.169 -182.066)"/>
      <path id="Path_5544" data-name="Path 5544" d="M597.918,222.862a1.672,1.672,0,0,1-.994-3.016c2.538-1.879,9.555-12.879,13.651-19.815a1.672,1.672,0,1,1,2.879,1.7c-.825,1.4-6.625,11.153-11.047,16.946,2.88-.543,6.326-1.237,8.108-1.756a1.672,1.672,0,1,1,.935,3.21c-3.566,1.04-12.855,2.638-13.249,2.705A1.654,1.654,0,0,1,597.918,222.862Z" transform="translate(-497.169 -191.497)"/>
      <path id="Path_5545" data-name="Path 5545" d="M627.878,241.72a1.672,1.672,0,0,1-1.641-1.362,33.442,33.442,0,0,0-2.746-6.538,1.672,1.672,0,0,1,2.95-1.573c.265.5,2.6,4.92,3.081,7.492a1.672,1.672,0,0,1-1.333,1.952A1.7,1.7,0,0,1,627.878,241.72Z" transform="translate(-513.033 -210.355)"/>
      <path id="Path_5546" data-name="Path 5546" d="M600.508,271.59a1.672,1.672,0,0,1-1.53-2.343c.973-2.221,1.7-7.982,1.9-10.015a1.672,1.672,0,1,1,3.328.324c-.078.8-.8,7.925-2.164,11.034A1.672,1.672,0,0,1,600.508,271.59Z" transform="translate(-498.688 -225.817)"/>
      <path id="Path_5547" data-name="Path 5547" d="M618.131,270.494a1.673,1.673,0,0,1-1.658-1.477l-1.109-9.428a1.672,1.672,0,0,1,3.32-.391l1.109,9.429a1.673,1.673,0,0,1-1.663,1.867Z" transform="translate(-508.374 -225.816)"/>
      <path id="Path_5548" data-name="Path 5548" d="M629.766,268.437a1.673,1.673,0,0,1-1.633-1.322l-1.583-7.4a1.672,1.672,0,1,1,3.27-.7l1.583,7.4a1.673,1.673,0,0,1-1.636,2.022Z" transform="translate(-514.921 -225.801)"/>
      <path id="Path_5549" data-name="Path 5549" d="M643.389,231.638a1.671,1.671,0,0,1-1.672-1.672V191.28a1.671,1.671,0,0,1,1.672-1.672h21.59a1.671,1.671,0,0,1,1.671,1.672v37.337a1.675,1.675,0,0,1-.236.857c-.6,1-2.439,2.09-7.836,1.611a1.672,1.672,0,0,1,.3-3.33,13.692,13.692,0,0,0,4.433-.122v-34.68H645.06v37.015A1.672,1.672,0,0,1,643.389,231.638Zm20.412-4.187Z" transform="translate(-523.839 -185.865)"/>
      <path id="Path_5550" data-name="Path 5550" d="M661.72,210.126a1.673,1.673,0,0,1-1.636-1.334l-1.566-7.572a1.672,1.672,0,1,1,3.275-.677l1.566,7.572a1.674,1.674,0,0,1-1.639,2.011Z" transform="translate(-533.672 -191.497)"/>
      <path id="Path_5551" data-name="Path 5551" d="M673.049,210.126a1.673,1.673,0,0,1-1.576-2.231l2.686-7.572a1.672,1.672,0,1,1,3.151,1.118l-2.686,7.572A1.671,1.671,0,0,1,673.049,210.126Z" transform="translate(-541.236 -191.497)"/>
      <path id="Path_5552" data-name="Path 5552" d="M665.686,220.869h-12.3a1.672,1.672,0,0,1,0-3.344h12.3a1.672,1.672,0,0,1,0,3.344Z" transform="translate(-529.702 -202.24)"/>
      <path id="Path_5553" data-name="Path 5553" d="M670.216,234.183a1.673,1.673,0,0,1-1.579-1.121l-2-5.721a1.672,1.672,0,1,1,3.157-1.1l2,5.721a1.673,1.673,0,0,1-1.578,2.223Z" transform="translate(-538.402 -206.693)"/>
      <path id="Path_5554" data-name="Path 5554" d="M666.65,242.3H655.03a1.672,1.672,0,1,1,0-3.343h11.62a1.672,1.672,0,1,1,0,3.343Z" transform="translate(-530.667 -214.81)"/>
      <path id="Path_5555" data-name="Path 5555" d="M669.874,253.014H664.38A5.692,5.692,0,0,1,660,251.4a4.416,4.416,0,0,1-1.148-3.061v-7.714a1.672,1.672,0,1,1,3.343,0v7.748a.553.553,0,0,1,0,.107,1.051,1.051,0,0,0,.282.671,2.755,2.755,0,0,0,1.9.516h5.494a1.672,1.672,0,0,1,0,3.344Z" transform="translate(-533.891 -214.81)"/>
      <path id="Path_5556" data-name="Path 5556" d="M486.63,273.818a1.672,1.672,0,0,1-1.092-2.938l7.575-6.529a1.672,1.672,0,0,1,2.183,2.532l-7.575,6.529A1.667,1.667,0,0,1,486.63,273.818Z" transform="translate(-431.893 -229.467)"/>
      <path id="Path_5557" data-name="Path 5557" d="M557.243,274.5a1.666,1.666,0,0,1-1.117-.428L548.1,266.86a1.672,1.672,0,0,1,2.235-2.487l8.029,7.216a1.672,1.672,0,0,1-1.118,2.915Z" transform="translate(-468.602 -229.467)"/>
      <path id="Path_5558" data-name="Path 5558" d="M358.284,198.944a1.672,1.672,0,0,1-1.352-2.653l10.9-15.045a1.672,1.672,0,0,1,2.707,1.962l-10.9,15.045A1.67,1.67,0,0,1,358.284,198.944Z" transform="translate(-356.614 -180.555)"/>
    </g>
  </g>
  <g id="Group_923" data-name="Group 923" transform="translate(1.512 56.634)">
    <path id="Path_5559" data-name="Path 5559" d="M97.055,325.121l2.855-.894V327.6h3.252v2.159H99.91v6.926c0,1.688.521,2.508,1.738,2.508a4.2,4.2,0,0,0,1.266-.174l.1,2.209a6.34,6.34,0,0,1-2.234.323,3.55,3.55,0,0,1-2.706-1.043c-.7-.745-1.018-1.887-1.018-3.674v-7.076H95.119V327.6h1.936Z" transform="translate(-95.119 -321.099)" fill="#1a1311"/>
    <path id="Path_5560" data-name="Path 5560" d="M121.7,322.535a1.676,1.676,0,1,1,1.688-1.663A1.618,1.618,0,0,1,121.7,322.535Zm1.44,15.789h-2.88v-13.7h2.88Z" transform="translate(-109.733 -318.141)" fill="#1a1311"/>
    <path id="Path_5561" data-name="Path 5561" d="M144.5,345.227a8.857,8.857,0,0,1-3.525.7c-3.948,0-6.529-2.706-6.529-6.976,0-4.146,2.681-7.274,7.076-7.274a7.343,7.343,0,0,1,3.053.621L144,334.5a5.35,5.35,0,0,0-2.458-.547c-2.681,0-4.171,2.184-4.171,4.866,0,3,1.763,4.791,4.146,4.791a6.25,6.25,0,0,0,2.582-.546Z" transform="translate(-118.185 -325.466)" fill="#1a1311"/>
    <path id="Path_5562" data-name="Path 5562" d="M176.4,337.232h-3.475L169,330.951l-1.117,1.366v4.916H165v-19.91h2.88V329.71h.05c.323-.521.7-1.117,1.043-1.589l3.4-4.568h3.4l-4.816,5.635Z" transform="translate(-136.109 -317.049)" fill="#1a1311"/>
    <path id="Path_5563" data-name="Path 5563" d="M205.271,345.1a10.692,10.692,0,0,1-4.344.819c-4.121,0-6.5-2.755-6.5-6.926,0-4.071,2.284-7.324,6.157-7.324,3.848,0,5.387,3.2,5.387,6.579a8.619,8.619,0,0,1-.074,1.216H197.2c.074,3.079,1.986,4.245,4.146,4.245a8.533,8.533,0,0,0,3.451-.645Zm-2.035-7.7c.025-1.639-.646-3.674-2.855-3.674-2.11,0-3,2.085-3.153,3.674Z" transform="translate(-153.364 -325.466)" fill="#1a1311"/>
    <path id="Path_5564" data-name="Path 5564" d="M227.7,325.121l2.855-.894V327.6h3.252v2.159h-3.252v6.926c0,1.688.521,2.508,1.738,2.508a4.2,4.2,0,0,0,1.266-.174l.1,2.209a6.34,6.34,0,0,1-2.234.323,3.55,3.55,0,0,1-2.706-1.043c-.7-.745-1.018-1.887-1.018-3.674v-7.076h-1.936V327.6H227.7Z" transform="translate(-171.747 -321.099)" fill="#1a1311"/>
    <path id="Path_5565" data-name="Path 5565" d="M256.754,334.552a5,5,0,0,0-2.607-.77c-1.291,0-1.986.745-1.986,1.664,0,.943.621,1.415,2.284,2.135,2.259.918,3.451,2.16,3.451,4.145,0,2.632-2.011,4.2-5.114,4.2a7.567,7.567,0,0,1-3.724-.919l.645-2.135a6.653,6.653,0,0,0,3.128.919c1.539,0,2.284-.745,2.284-1.788s-.571-1.614-2.21-2.309c-2.433-.968-3.5-2.334-3.5-3.922,0-2.284,1.862-4.1,4.742-4.1a6.8,6.8,0,0,1,3.252.795Z" transform="translate(-185.411 -325.466)" fill="#1a1311"/>
    <path id="Path_5566" data-name="Path 5566" d="M276.255,358.576a1.876,1.876,0,0,1,1.862-1.986,1.978,1.978,0,1,1-1.862,1.986Z" transform="translate(-201.363 -340.081)" fill="#1a1311"/>
    <path id="Path_5567" data-name="Path 5567" d="M302.977,342.114c0,1.54.074,2.831.124,3.923h-2.532l-.149-1.986h-.075a4.763,4.763,0,0,1-4.121,2.259c-2.358,0-4.419-1.464-4.419-5.834v-8.143h2.88V340c0,2.358.67,3.922,2.557,3.922a2.929,2.929,0,0,0,2.855-3.1v-8.465h2.88Z" transform="translate(-210.484 -325.853)" fill="#1a1311"/>
    <path id="Path_5568" data-name="Path 5568" d="M337.991,333.583c0,1.241.05,2.706.1,3.65h-2.532l-.149-2.135h-.074a4.555,4.555,0,0,1-4.146,2.408c-3.1,0-5.462-2.755-5.462-6.976,0-4.642,2.656-7.274,5.71-7.274a4.014,4.014,0,0,1,3.624,1.837h.05v-7.77h2.88Zm-2.88-4.493c0-2.234-1.415-3.55-3.029-3.55-2.21,0-3.426,2.184-3.426,4.89,0,2.682,1.192,4.742,3.376,4.742a3.264,3.264,0,0,0,3.078-3.55Z" transform="translate(-230.38 -317.049)" fill="#1a1311"/>
    <path id="Path_5569" data-name="Path 5569" d="M375.427,345.649h-2.88V337.63c0-1.937-.645-3.575-2.606-3.575a3.081,3.081,0,0,0-2.929,3.351v8.242h-2.88v-9.831c0-1.514-.05-2.681-.1-3.848h2.507l.149,2.035h.074a4.69,4.69,0,0,1,4.146-2.334c2.135,0,4.518,1.39,4.518,5.611Z" transform="translate(-252.848 -325.466)" fill="#1a1311"/>
    <path id="Path_5570" data-name="Path 5570" d="M398.65,323.166c0-1.49,0-3.7,1.539-5.238a4.755,4.755,0,0,1,3.326-1.266,5.6,5.6,0,0,1,2.085.373l-.3,2.209a3.658,3.658,0,0,0-1.465-.273c-1.788,0-2.334,1.614-2.334,3.451v.745h3v2.16H401.53v11.519h-2.88V325.325h-1.837v-2.16Z" transform="translate(-272.075 -316.661)" fill="#1a1311"/>
    <path id="Path_5571" data-name="Path 5571" d="M431.339,342.114c0,1.54.074,2.831.124,3.923h-2.532l-.149-1.986h-.075a4.763,4.763,0,0,1-4.121,2.259c-2.358,0-4.419-1.464-4.419-5.834v-8.143h2.88V340c0,2.358.67,3.922,2.557,3.922a2.929,2.929,0,0,0,2.855-3.1v-8.465h2.879Z" transform="translate(-285.774 -325.853)" fill="#1a1311"/>
    <path id="Path_5572" data-name="Path 5572" d="M467.286,345.649h-2.88V337.63c0-1.937-.645-3.575-2.606-3.575a3.081,3.081,0,0,0-2.929,3.351v8.242h-2.88v-9.831c0-1.514-.05-2.681-.1-3.848H458.4l.149,2.035h.074a4.69,4.69,0,0,1,4.146-2.334c2.135,0,4.518,1.39,4.518,5.611Z" transform="translate(-306.727 -325.466)" fill="#1a1311"/>
    <path id="Path_5573" data-name="Path 5573" d="M495.095,337.232h-2.88v-19.91h2.88Z" transform="translate(-328.032 -317.049)" fill="#1a1311"/>
    <path id="Path_5574" data-name="Path 5574" d="M509.187,322.535a1.676,1.676,0,1,1,1.688-1.663A1.618,1.618,0,0,1,509.187,322.535Zm1.44,15.789h-2.88v-13.7h2.88Z" transform="translate(-337.011 -318.141)" fill="#1a1311"/>
    <path id="Path_5575" data-name="Path 5575" d="M522.269,323.166c0-1.49,0-3.7,1.539-5.238a4.756,4.756,0,0,1,3.327-1.266,5.6,5.6,0,0,1,2.085.373l-.3,2.209a3.657,3.657,0,0,0-1.465-.273c-1.787,0-2.334,1.614-2.334,3.451v.745h3v2.16h-2.979v11.519h-2.88V325.325h-1.837v-2.16Z" transform="translate(-344.583 -316.661)" fill="#1a1311"/>
    <path id="Path_5576" data-name="Path 5576" d="M552.714,345.1a10.69,10.69,0,0,1-4.344.819c-4.121,0-6.5-2.755-6.5-6.926,0-4.071,2.284-7.324,6.157-7.324,3.848,0,5.388,3.2,5.388,6.579a8.565,8.565,0,0,1-.075,1.216h-8.688c.074,3.079,1.986,4.245,4.146,4.245a8.533,8.533,0,0,0,3.451-.645Zm-2.035-7.7c.025-1.639-.645-3.674-2.855-3.674-2.11,0-3,2.085-3.153,3.674Z" transform="translate(-357.154 -325.466)" fill="#1a1311"/>
    <path id="Path_5577" data-name="Path 5577" d="M575.548,358.576a1.876,1.876,0,0,1,1.862-1.986,1.978,1.978,0,1,1-1.862,1.986Z" transform="translate(-376.91 -340.081)" fill="#1a1311"/>
    <path id="Path_5578" data-name="Path 5578" d="M599.23,345.227a8.857,8.857,0,0,1-3.525.7c-3.947,0-6.529-2.706-6.529-6.976,0-4.146,2.681-7.274,7.075-7.274a7.345,7.345,0,0,1,3.054.621l-.571,2.21a5.348,5.348,0,0,0-2.458-.547c-2.681,0-4.171,2.184-4.171,4.866,0,3,1.762,4.791,4.145,4.791a6.249,6.249,0,0,0,2.582-.546Z" transform="translate(-384.904 -325.466)" fill="#1a1311"/>
    <path id="Path_5579" data-name="Path 5579" d="M630.3,338.7c0,5.114-3.327,7.224-6.4,7.224-3.55,0-6.256-2.607-6.256-7.026,0-4.617,2.83-7.224,6.454-7.224C627.838,331.672,630.3,334.5,630.3,338.7Zm-6.306-4.866c-2.458,0-3.4,2.632-3.4,4.99,0,2.681,1.266,4.94,3.376,4.94,2.086,0,3.376-2.259,3.376-4.99C627.341,336.513,626.4,333.832,623.99,333.832Z" transform="translate(-401.596 -325.466)" fill="#1a1311"/>
    <path id="Path_5580" data-name="Path 5580" d="M673.786,345.649h-2.83v-7.82c0-2.284-.745-3.8-2.483-3.8a2.906,2.906,0,0,0-2.656,3.178v8.441h-2.83v-8.242c0-1.911-.72-3.376-2.383-3.376a3.028,3.028,0,0,0-2.756,3.327v8.292h-2.83v-9.831c0-1.539-.05-2.681-.1-3.848H657.4l.149,2.011h.075a4.463,4.463,0,0,1,4-2.309,3.716,3.716,0,0,1,3.624,2.507h.05a4.721,4.721,0,0,1,4.221-2.507c2.035,0,4.27,1.39,4.27,5.71Z" transform="translate(-423.465 -325.466)" fill="#1a1311"/>
  </g>
</svg>
