<?xml version="1.0" encoding="utf-8"?>
<!-- Generator: Adobe Illustrator 25.0.0, SVG Export Plug-In . SVG Version: 6.00 Build 0)  -->
<svg version="1.1" id="图层_1" xmlns="http://www.w3.org/2000/svg" xmlns:xlink="http://www.w3.org/1999/xlink" x="0px" y="0px"
	 viewBox="0 0 2171.8 648.3" style="enable-background:new 0 0 2171.8 648.3;" xml:space="preserve">
<style type="text/css">
	.st0{fill:#FFFFFF;}
	.st1{fill:#FF5722;}
</style>
<rect y="0" class="st0" width="2171.8" height="648.3"/>
<g>
	<path class="st1" d="M768.2,468.5h-81.7V179.7c0-36.6-29.7-66.3-66.3-66.3v421.2h66h0.2h147.8l0,0
		C834.3,498.1,804.7,468.5,768.2,468.5z"/>
	<path class="st1" d="M1354.3,113.7c-0.5,0-1,0-1.5,0c-73.9,0.5-138.7,39.1-175.9,97c-37.4-58.4-102.9-97.1-177.3-97
		c-0.5,0-1,0-1.5,0c-116.2,0.8-209.8,95.7-209,211.9c0.8,115.7,94.8,209,210.4,209c0.5,0,1,0,1.5,0c73.9-0.5,138.7-39.1,175.9-97
		c37.4,58.4,102.9,97,177.3,97c0.5,0,1,0,1.5,0c116.2-0.8,209.8-95.7,209-211.9C1563.9,207,1469.9,113.7,1354.3,113.7z
		 M1000.7,468.3h-1c-38.3,0-74.3-14.9-101.5-41.8c-27.2-27-42.3-63-42.6-101.3c-0.3-38.5,14.5-74.8,41.5-102.2
		c27-27.4,63.1-42.6,101.6-42.9h1h0l0,0c38.3,0,74.3,14.9,101.5,41.8c27.2,27,42.3,63,42.6,101.3
		C1144.4,402.6,1080.1,467.7,1000.7,468.3z M1211.4,343.2c-0.8-5.9-1.2-12-1.2-18.1c-0.3-38.5,14.5-74.8,41.5-102.2
		c27-27.4,63.1-42.6,101.6-42.9h1h0l0,0c38.3,0,74.3,14.9,101.5,41.8c27.2,27,42.3,63,42.6,101.3c0.5,79.5-63.7,144.6-143.1,145.1
		h-1c-38.3,0-74.3-14.9-101.5-41.8C1229.9,403.7,1215.5,374.7,1211.4,343.2"/>
	<path class="st1" d="M286.1,113.5v421.2c36.6,0,66.3-29.7,66.3-66.3V179.7C352.4,143.1,322.7,113.5,286.1,113.5z"/>
	<path class="st1" d="M1591.9,113.5v421.2c36.6,0,66.3-29.7,66.3-66.3V179.7C1658.2,143.1,1628.5,113.5,1591.9,113.5z"/>
	<path class="st1" d="M1878.7,440.7L1762,324l116.7-116.7c25.9-25.9,25.9-67.8,0-93.7L1668.3,324l210.4,210.4
		C1904.6,508.6,1904.6,466.6,1878.7,440.7z"/>
	<path class="st1" d="M456.2,324l116.7-116.7c25.9-25.9,25.9-67.8,0-93.7L362.5,324l210.4,210.4c25.9-25.9,25.9-67.8,0-93.7
		L456.2,324z"/>
</g>
</svg>
