<svg xmlns="http://www.w3.org/2000/svg" width="234.368" height="71.14" viewBox="0 0 234.368 71.14">
  <g id="Group_891" data-name="Group 891" transform="translate(0)">
    <g id="Group_889" data-name="Group 889" transform="translate(1.766 49.778)">
      <path id="Path_5359" data-name="Path 5359" d="M271.72,237.387H294.4v1.343H282.855v7.314l1.493-.208v1.318l-1.493.233v2.244h-1.8V247.6q-3.884.393-9.027.671l-.231-1.436,2.392-.092V238.73H271.72Zm3.266-8.193h16.253v6.666H274.986Zm.874,11.272h5.2V238.73h-5.2Zm0,2.985h5.2v-1.735h-5.2Zm0,3.217q2.908-.185,5.2-.416v-1.574h-5.2Zm.9-14.743h12.7v-1.48h-12.7Zm12.7,2.731v-1.55h-12.7v1.55Zm-5.271,6.99v-1.365h8.768v1.3a10.6,10.6,0,0,1-2.6,4.606,20.322,20.322,0,0,0,4.063,2.037l-.951,1.389a21,21,0,0,1-4.295-2.362,16.653,16.653,0,0,1-4.295,2.362l-.951-1.3a16.962,16.962,0,0,0,3.986-2.13,10.2,10.2,0,0,1-2.907-4.537Zm7.1,0h-4.68a8.216,8.216,0,0,0,2.443,3.54A9.8,9.8,0,0,0,291.29,241.646Z" transform="translate(-271.72 -228.292)" fill="#f77e0b"/>
      <path id="Path_5360" data-name="Path 5360" d="M291.419,234.734h10a34.222,34.222,0,0,0,.335-4.19v-1.875h1.9v1.505a32.341,32.341,0,0,1-.335,4.56H314v1.619H303.866a21.293,21.293,0,0,0,10.62,12.082l-1.157,1.342a22.473,22.473,0,0,1-10.648-12.126,18.755,18.755,0,0,1-10.62,12.288L290.9,248.55a16.968,16.968,0,0,0,10.21-12.2h-9.695Z" transform="translate(-261.322 -228.576)" fill="#f77e0b"/>
      <path id="Path_5361" data-name="Path 5361" d="M317.723,230.577v16.965H315.95v-1.412h-3.369V248.1h-1.8V230.577Zm-5.143,13.978h3.369V232.15h-3.369Zm9.129-11.224a20.5,20.5,0,0,1-2.443,3.032l-1.209-1.274a18.909,18.909,0,0,0,4.167-6.48l1.722.347a27.8,27.8,0,0,1-1.286,2.754h9.9v1.621Zm-1.207,3.494h9.924v1.482q-3.571,3.076-5.348,4.953a21.976,21.976,0,0,0-2.341,2.685,2.649,2.649,0,0,0-.615,1.3c0,.524.418.788,1.258.788h5.658a2.132,2.132,0,0,0,1.594-.578q.516-.6.746-3.82l1.722.555q-.308,3.8-1.26,4.583a4.554,4.554,0,0,1-2.8.786h-6.094q-2.829,0-2.828-2.012a2.784,2.784,0,0,1,.694-1.644,23.3,23.3,0,0,1,2.7-3.24q1.929-2.084,4.345-4.259H320.5Z" transform="translate(-250.548 -228.609)" fill="#f77e0b"/>
      <path id="Path_5362" data-name="Path 5362" d="M337.092,230.33V246.9h-1.7v-1.2h-3.214v1.69h-1.749V230.33Zm-4.911,13.84h3.214V231.857h-3.214Zm7.355-15.021h11.211v7.406h-7.638q-.409.763-.9,1.505h9.978a91.545,91.545,0,0,1-.413,9.234,2.593,2.593,0,0,1-1.13,1.806,8.03,8.03,0,0,1-3.524.486H346.3l-.463-1.388c.788.031,1.369.046,1.749.046a3.24,3.24,0,0,0,2.031-.439,2.8,2.8,0,0,0,.566-1.505q.076-1.11.231-6.828H341a15.907,15.907,0,0,1-2.958,2.222l-.9-1.318a10.568,10.568,0,0,0,4.345-3.82h-1.954Zm-.1,12.2h1.7V245.7h6.557v1.388h-8.254Zm1.775-9.095h7.867v-1.783h-7.867Zm7.867,2.962v-1.736h-7.867v1.736Zm-6.247,9.65-.927-1.041a7.063,7.063,0,0,0,3.187-3.75l1.468.21a7.732,7.732,0,0,1-.618,1.388,19.2,19.2,0,0,1,3.343,1.991l-.85,1.2a18.947,18.947,0,0,0-3.214-2.1A8.793,8.793,0,0,1,342.828,244.864Z" transform="translate(-239.897 -228.316)" fill="#f77e0b"/>
      <path id="Path_5363" data-name="Path 5363" d="M352.781,231.46h-3.241v-1.55H357.9v1.55h-3.241v5.207h2.7v1.505h-2.7v5.254q1.362-.463,3.343-1.227v1.69a69.1,69.1,0,0,1-8.151,2.731l-.54-1.688q2.133-.534,3.473-.927v-5.832H349.9v-1.505h2.882Zm8.845,6.227h-3.369v-1.644h13.758v1.644h-3.678v8.84q0,.995.9,1h.72a.85.85,0,0,0,.694-.278q.412-.37.515-3.334l1.724.534q-.287,3.377-.773,4a2.284,2.284,0,0,1-1.775.6h-1.7a2.067,2.067,0,0,1-1.621-.6,2.177,2.177,0,0,1-.564-1.551v-9.211H363.4v1.619q-.127,6.8-6.686,9.975l-1.388-1.087q6.2-2.778,6.3-8.888Zm-2.469-8.147h12.035v1.6H359.157Z" transform="translate(-229.665 -228.104)" fill="#f77e0b"/>
      <path id="Path_5364" data-name="Path 5364" d="M377.184,231.053h1.955a13.426,13.426,0,0,0,.85-2.384l1.723.208a11.827,11.827,0,0,1-.874,2.176h3.138v8.956h-2.5v2.037h10.184V243.6h-8.281q2.88,2.87,8.975,4.535l-.848,1.621q-6.865-2.359-9.747-6.156h-.282v6.248h-1.852V243.6h-.282q-2.47,3.518-9.516,6.111l-1.055-1.551q6.583-2.015,8.976-4.56h-8.333v-1.551h10.21v-2.037h-2.444Zm-1.672,4.745a37.965,37.965,0,0,1,1.6,5.115l-1.338.3-.461-1.713q-2.419.532-5.247,1.018l-.333-1.064a19.033,19.033,0,0,0,3.394-4.466q-1.878.391-3.471.671l-.284-1.2q.849-.37,3.086-5.392l1.493.486a34.1,34.1,0,0,1-2.444,4.514q1.311-.278,2.392-.555.18-.37,1.055-2.407l1.414.37a25.1,25.1,0,0,1-4.295,7.406q1.9-.37,2.856-.578-.234-.717-.748-2.106Zm3.4-.95h3.369v-2.453h-3.369Zm3.369,3.82v-2.477h-3.369v2.477Zm7.766-3.033a40.771,40.771,0,0,1,1.542,5.14l-1.337.3-.386-1.574q-1.9.486-4.885,1.066l-.335-1.066a18.2,18.2,0,0,0,3.189-4.419q-1.7.37-2.984.6l-.282-1.2q.719-.393,2.495-5.369l1.491.487a38.169,38.169,0,0,1-2.032,4.512l2.057-.486q.669-1.527,1.03-2.5l1.44.393a32.228,32.228,0,0,1-2.006,4.421Zm-3.008,3.241,2.493-.509q-.206-.74-.668-2.13A21.513,21.513,0,0,1,387.034,238.876Z" transform="translate(-219.114 -228.576)" fill="#f77e0b"/>
      <path id="Path_5365" data-name="Path 5365" d="M389.531,229.33h20.779v1.619h-9.567V239.7h10.543v1.6H400.743v8.193h-1.9v-8.193H388.5v-1.6H398.84v-8.749h-9.309Zm3.138,3.1a52.145,52.145,0,0,1,2.776,5.3l-1.722.763a39.636,39.636,0,0,0-2.777-5.3Zm16.278.6a28.625,28.625,0,0,1-3.061,5.369l-1.645-.763a30.981,30.981,0,0,0,3.008-5.323Z" transform="translate(-208.421 -228.218)" fill="#f77e0b"/>
      <path id="Path_5366" data-name="Path 5366" d="M408.153,236.308q3.4-1.041,8.409-7.684l1.9.578a37.149,37.149,0,0,1-6.968,7.036q6.916-.254,14.042-.856-1.571-1.992-3.008-3.5l1.672-.717a60.051,60.051,0,0,1,6.171,7.684l-1.8.788q-.488-.742-1.9-2.756-7.894.65-18.154.995Zm19.363,3.957v9.653H425.64V248.76H412.216v1.158H410.34v-9.653Zm-15.3,6.9H425.64v-5.3H412.216Z" transform="translate(-197.77 -228.601)" fill="#f77e0b"/>
    </g>
    <g id="Group_890" data-name="Group 890" transform="translate(0 0)">
      <path id="Path_5367" data-name="Path 5367" d="M270.575,217.876v-.119c0-11.781,9.483-21.43,22.452-21.43,6.484,0,10.768,1.42,14.621,4.025a4.521,4.521,0,0,1,1.958,3.67,4.574,4.574,0,0,1-4.649,4.5,4.682,4.682,0,0,1-2.876-.947,15.337,15.337,0,0,0-9.36-2.842c-6.851,0-12.3,5.861-12.3,12.905v.119c0,7.577,5.385,13.143,12.97,13.143a15.407,15.407,0,0,0,8.871-2.486v-5.921H295.9a3.985,3.985,0,0,1-4.1-3.906,4.035,4.035,0,0,1,4.1-3.968h10.766a4.6,4.6,0,0,1,4.711,4.558v10.065a6.118,6.118,0,0,1-3.3,5.8,29.185,29.185,0,0,1-14.988,4.145C279.752,239.189,270.575,230.131,270.575,217.876Z" transform="translate(-270.575 -196.328)" fill="#f77e0b"/>
      <path id="Path_5368" data-name="Path 5368" d="M299.7,217.876v-.119c0-11.781,9.6-21.43,22.819-21.43s22.7,9.531,22.7,21.311v.119c0,11.781-9.6,21.431-22.817,21.431S299.7,229.657,299.7,217.876Zm35.665,0v-.119a12.786,12.786,0,0,0-12.968-13.024,12.588,12.588,0,0,0-12.848,12.905v.119a12.788,12.788,0,0,0,12.97,13.024A12.586,12.586,0,0,0,335.361,217.876Z" transform="translate(-254.791 -196.328)" fill="#f77e0b"/>
      <path id="Path_5369" data-name="Path 5369" d="M332.664,201.193a4.6,4.6,0,0,1,4.709-4.558h1.041A4.869,4.869,0,0,1,342.7,199l11.379,17.938,11.44-18a4.644,4.644,0,0,1,4.222-2.308h1.039a4.6,4.6,0,0,1,4.711,4.558v32.915a4.682,4.682,0,0,1-9.36,0v-20.66l-8.259,12.313a4.474,4.474,0,0,1-7.83,0L341.9,213.625v20.6a4.526,4.526,0,0,1-4.649,4.441,4.472,4.472,0,0,1-4.588-4.441Z" transform="translate(-236.921 -196.162)" fill="#f77e0b"/>
      <path id="Path_5370" data-name="Path 5370" d="M363.761,232.6l14.927-32.618a5.825,5.825,0,0,1,5.507-3.611h.551a5.741,5.741,0,0,1,5.445,3.611L405.117,232.6a4.344,4.344,0,0,1,.49,1.835,4.393,4.393,0,0,1-4.466,4.382,4.788,4.788,0,0,1-4.527-3.138l-2.876-6.512H374.9l-3,6.808a4.629,4.629,0,0,1-4.344,2.842,4.265,4.265,0,0,1-4.344-4.264A4.731,4.731,0,0,1,363.761,232.6Zm26.49-11.483-5.935-13.676-5.934,13.676Z" transform="translate(-220.364 -196.307)" fill="#f77e0b"/>
      <path id="Path_5371" data-name="Path 5371" d="M393.114,235.334a4.5,4.5,0,0,1-1.775-3.493,4.515,4.515,0,0,1,7.28-3.434,9.218,9.218,0,0,0,5.69,2.072c3.67,0,5.874-2.072,5.874-6.868v-22.5a4.713,4.713,0,0,1,9.42,0v22.911c0,4.913-1.468,8.583-4.037,11.07-2.631,2.546-6.484,3.847-11.133,3.847A18.524,18.524,0,0,1,393.114,235.334Z" transform="translate(-205.118 -196.203)" fill="#f77e0b"/>
      <path id="Path_5372" data-name="Path 5372" d="M414.191,201.116a4.713,4.713,0,0,1,9.42,0V234.15a4.713,4.713,0,0,1-9.42,0Z" transform="translate(-192.731 -196.203)" fill="#f77e0b"/>
    </g>
  </g>
</svg>
