<svg xmlns="http://www.w3.org/2000/svg" width="585.35" height="164.787" viewBox="0 0 585.35 164.787">
  <g id="Group_942" data-name="Group 942" transform="translate(-679.947 -1683.781)">
    <g id="Group_342" data-name="Group 342" transform="translate(203 -24)">
      <g id="Group_335" data-name="Group 335" transform="translate(-523.26 2286.503)">
        <path id="Path_2519" data-name="Path 2519" d="M1010.082-559.3c-.886,2.547-1.845,5.094-2.879,7.6-.591,1.255-1.033,2.4-1.4,3.359-.294.627-.553,1.218-.848,1.809a8.885,8.885,0,0,1-1.219,2.325,6.871,6.871,0,0,1-2.473-1.292q3.1-7.973,6.164-14.727A6.493,6.493,0,0,1,1010.082-559.3Zm7.9-5.426c3.543.148,6.644.333,9.338.591a33.894,33.894,0,0,1,.518,7.456c0,.628-.149,1-.444,1.071-1.808.516-7.493.738-17.09.738a2.012,2.012,0,0,1-.332-1.292,5.456,5.456,0,0,1,.185-1.513c2.215-.075,6.976-.222,14.358-.48,0-.591-.074-1.661-.147-3.212q-5.758,0-17.053-.664a9.149,9.149,0,0,1-.074-1.4q.055-.774.11-1.328C1010.967-564.764,1014.511-564.728,1017.981-564.728Zm-5.2,25.506a25.307,25.307,0,0,0,3.211-.221,3.459,3.459,0,0,1,.222,1.254v1.477a33.35,33.35,0,0,1-6.128.517,57.728,57.728,0,0,1-.923-6.164,21.108,21.108,0,0,1,2.953-.517Q1012.445-540.993,1012.777-539.222Zm.959-12.66c.037-.739.074-1.366.147-1.957a12.3,12.3,0,0,0,1.514-.11,6.4,6.4,0,0,1,1.44.184c0,.664-.038,1.292-.038,1.956,1.182.037,2.437.074,3.692.111.037-.591.11-1.181.184-1.772a13.923,13.923,0,0,0,1.7-.074,9.549,9.549,0,0,1,1.328.222c0,.59-.036,1.181-.036,1.772l2.435.11a23.561,23.561,0,0,1-.184,2.7c-.849,0-1.661,0-2.4-.037-.073.738-.11,1.476-.147,2.141,1.329,0,2.731.037,4.134.037a5.554,5.554,0,0,1,.148,1.255,12.193,12.193,0,0,1-.074,1.476c-5.832-.111-11.775-.184-17.865-.184a14.991,14.991,0,0,1-.185-2.658c1.329,0,2.658.037,4.061.037,0-.886,0-1.7.037-2.473-.849-.037-1.661-.074-2.474-.148v-1.513a10.382,10.382,0,0,0,.074-1.07Zm2.879,5.2c1.182,0,2.362.037,3.544.037a21.2,21.2,0,0,1,.11-2.178c-1.18-.037-2.362-.074-3.543-.147C1016.689-548.192,1016.652-547.416,1016.615-546.678Zm11,4.466a28.868,28.868,0,0,1-1.735,2.584c.96.517,1.919,1.07,2.879,1.587a8.641,8.641,0,0,1-1.476,2.252,57.939,57.939,0,0,1-9.486-4.577,28.738,28.738,0,0,1,1.439-2.584c1.255.591,2.547,1.218,3.8,1.845a32.817,32.817,0,0,1,2.177-2.473A8.343,8.343,0,0,1,1027.615-542.212Z" fill="#007aa7"/>
        <path id="Path_2520" data-name="Path 2520" d="M1043.193-560.926c0,2.658-.037,4.8-.037,6.349,1.993.148,4.023.3,6.017.369v-.406c.037-2.916.147-5.979.3-9.228q.609-.111,1.44-.221a4.846,4.846,0,0,1,1.513.221c.184,3.285.295,6.275.295,9.006v.812q2.769.166,5.537.222c0,.96-.074,1.846-.148,2.732-2.14,0-3.949,0-5.426-.038-.074,3.618-.184,6.866-.332,9.782,2.215.111,4.429.185,6.644.258,0,.96-.073,1.846-.148,2.732-5.425,0-8.9-.037-10.446-.185a53.269,53.269,0,0,1-9.633-.849v-2.547c.036-1.882.184-3.764.406-5.647,1,0,1.993.074,2.953.148,0,2.362-.037,4.207-.075,5.573,2.474.148,4.947.3,7.42.369-.148-3.1-.258-6.348-.258-9.744a2.437,2.437,0,0,1-.554-.037,44.535,44.535,0,0,1-8.748-.849v-3.506a45.911,45.911,0,0,1,.443-5.463C1041.31-561.073,1042.233-561,1043.193-560.926Zm19.268,7.05a5,5,0,0,1-2.732.517,35.855,35.855,0,0,1-.7-7.53c.96-.147,1.919-.221,2.879-.3A71.817,71.817,0,0,1,1062.461-553.876Zm.885,12.366a5.174,5.174,0,0,1-2.731.516,19.835,19.835,0,0,1-.775-5.795c1-.148,1.957-.221,2.879-.295A42.573,42.573,0,0,1,1063.346-541.51Z" fill="#007aa7"/>
        <path id="Path_2521" data-name="Path 2521" d="M1083.132-558.711c.221,2.141.332,3.839.332,5.02a46.109,46.109,0,0,1-.627,9.227,9.853,9.853,0,0,1-3.914.517,32.5,32.5,0,0,1-6.311-.517,71.71,71.71,0,0,1-.442-8.71q.054-3.378.22-5.98c.554-.148,1.034-.222,1.441-.295a8.139,8.139,0,0,1,1.291.147c.111,2.1.221,4.024.3,5.8,1.07.11,2.1.221,3.137.369a15.306,15.306,0,0,1-.258,2.436,23.142,23.142,0,0,1-2.769-.148c0,1.292.037,2.473.037,3.58a22.857,22.857,0,0,0,3.358.148c.739,0,1.182-.074,1.367-.3.074-.96.147-3.839.147-8.637-1.329-.3-2.694-.591-4.023-.887a10.481,10.481,0,0,1-.074-1.365c.037-.369.111-.812.221-1.366C1078.85-559.412,1081.065-559.08,1083.132-558.711Zm7.086,16.868a7.432,7.432,0,0,1-1.033,2.584,7.487,7.487,0,0,1-4.466-1.735,19.671,19.671,0,0,1,.849-2.731A13.09,13.09,0,0,1,1090.218-541.843Zm1.994-13.694c-.148-1.181-.221-2.362-.3-3.543a41.7,41.7,0,0,1-6.571-.259,3.734,3.734,0,0,1-.221-1.4,6.21,6.21,0,0,1,.258-1.551c1.994-.036,4.134-.073,6.386-.147-.074-.96-.111-1.956-.111-2.916a10.277,10.277,0,0,0,1.735-.148c.664,0,1.218.037,1.661.074.074,1,.148,1.993.221,2.953a59.8,59.8,0,0,1,6.719.406,5.959,5.959,0,0,1,.11,1.329,5.418,5.418,0,0,1-.11,1.4c-.444.185-2.621.259-6.571.259.037,1.255.074,2.473.074,3.691,1.551.074,3.175.184,4.872.295a21.991,21.991,0,0,1-.221,3.027c-4.355,0-8.711-.185-13.03-.591v-1.7a6.877,6.877,0,0,0,.111-1.254C1088.779-555.61,1090.44-555.574,1092.212-555.537Zm1.624,6.533h1.4c-.037-.627-.074-1.254-.111-1.845.849-.111,1.7-.185,2.584-.259.074.739.184,1.44.295,2.1,2.1.038,3.691.074,4.761.148v2.584a17.213,17.213,0,0,1-4.392.406,76.386,76.386,0,0,1,.628,8.009,8.274,8.274,0,0,1-2.806.444,15.7,15.7,0,0,1-1.993-.148,8,8,0,0,1-.332-1.956,8.32,8.32,0,0,1,1.956-.369c-.148-1.994-.258-3.95-.369-5.943h-1.7a63.16,63.16,0,0,1-8.379-.369,3.662,3.662,0,0,1-.221-1.366c.037-.517.074-.96.074-1.366C1087.524-548.93,1090.4-548.93,1093.836-549Z" fill="#007aa7"/>
        <path id="Path_2522" data-name="Path 2522" d="M1109.82-557.456c.148,3.1.259,5.979.259,8.563a40.619,40.619,0,0,1-.332,5.537,5.61,5.61,0,0,1-1.366.111,4.584,4.584,0,0,1-1.255-.111,29.938,29.938,0,0,1-.407-5.316c.038-2.768.149-5.684.3-8.784.407-.074.849-.111,1.366-.185A5.885,5.885,0,0,1,1109.82-557.456Zm10.631-6.312q-.111,6.977-.776,12.956a4.214,4.214,0,0,1-2.657.775,25.1,25.1,0,0,1-4.429-.295,2.583,2.583,0,0,1-.37-1.034v-1.255q2.216-.221,4.43-.664c.037-.591.073-1.218.148-1.883a25.265,25.265,0,0,1-5.426-.885c.037-.887.073-1.735.073-2.584a50.44,50.44,0,0,1,5.611.553c.074-1,.185-2.067.258-3.174-1-.147-3.691-.443-8.083-.849a6.619,6.619,0,0,1-.148-1.587,10.716,10.716,0,0,1,.221-1.292A51.038,51.038,0,0,1,1120.451-563.768Zm5.942,16.056a4.726,4.726,0,0,1,.554,2.474c0,3.986-.11,6.9-.258,8.711a11.9,11.9,0,0,1-4.8.664,38.462,38.462,0,0,1-7.271-.554c-.259-2.067-.444-4.688-.554-7.825a14.177,14.177,0,0,1,.48-3.064h2.731v3.285c1.107.074,2.289.222,3.507.407a6.523,6.523,0,0,1-.48,2.436q-1.772,0-2.99-.111c0,.812,0,1.55.037,2.215a27.576,27.576,0,0,0,4.061.258,6.245,6.245,0,0,0,2.251-.258c0-.7-.073-2.7-.222-5.943a35.88,35.88,0,0,1-4.5-.7,12.482,12.482,0,0,1,.259-2.584A49.839,49.839,0,0,1,1126.393-547.712Zm-.258-12.143c0,.959.037,1.882.037,2.768,1.329.074,2.731.185,4.208.369a6.41,6.41,0,0,1-.517,2.547,25.4,25.4,0,0,1-3.654-.185v2.732h5.278a7.338,7.338,0,0,1,.147,1.181,9.376,9.376,0,0,1-.073,1.144c-.7.369-2.4.554-5.056.554a10.02,10.02,0,0,1-3.175-.332c-.332-.776-.517-2.658-.517-5.648.074-1.624.185-3.359.369-5.13.48-.074.96-.148,1.4-.222A6.486,6.486,0,0,1,1126.135-559.855Zm9.523-2.4c.369,7.309.591,13.879.591,19.674a26.417,26.417,0,0,1-4.061.369,9.182,9.182,0,0,1-.258-2.325l1.218-.332a122.327,122.327,0,0,0-.886-14.654,33.278,33.278,0,0,1-6.053-.554,5.558,5.558,0,0,1-.148-1.439,10.457,10.457,0,0,1,.148-1.292A86.942,86.942,0,0,1,1135.658-562.255Z" fill="#007aa7"/>
      </g>
      <path id="Path_2523" data-name="Path 2523" d="M1715.629,206.891l138.839,23.742" transform="translate(-1240.672 1953.281) rotate(-13)" fill="none" stroke="#007aa7" stroke-width="3"/>
    </g>
    <path id="Path_2537" data-name="Path 2537" d="M700.242,1738.025l-36.286,37.3,415.136-18.133,18.036-36.159Z" transform="translate(168.169 -37.253)" fill="#ffd62e"/>
    <path id="Path_2576" data-name="Path 2576" d="M700.242,1738.025l-36.286,37.3,415.136-18.133,18.036-36.159Z" transform="translate(168.169 57.747)" fill="#ffd62e"/>
    <g id="Group_338" data-name="Group 338" transform="translate(713.832 1420.621)">
      <g id="Group_337" data-name="Group 337">
        <path id="Path_2538" data-name="Path 2538" d="M158.287,360.854c-.028.449-.053.885-.08,1.306q2.771.041,4.71,0c.792.053,1.186.449,1.186,1.187,0,.686-.394,1.069-1.186,1.147-.714.028-1.439.04-2.176.04q-1.386,0-2.731-.04-.081.992-.159,1.861a1.166,1.166,0,0,1-1.227,1.028,1.069,1.069,0,0,1-1.148-1.266l.119-1.623q-1.858,0-3.718-.078c.052.263.091.528.118.791a2.413,2.413,0,0,0,.039.4q.277,1.268-.83,1.5a1.238,1.238,0,0,1-1.465-.989q-.118-.752-.237-1.741-2.258-.08-4.473-.2a9.355,9.355,0,0,1-.988-.118,1.2,1.2,0,0,1-.871-1.346q.12-1.029,1.385-.95,1.9.12,4.788.2c-.026-.422-.053-.844-.078-1.267a1.069,1.069,0,0,1,1.147-1.266,1.085,1.085,0,0,1,1.187,1.029q.037.831.079,1.583,1.859.041,3.958.08h.2l.119-1.5a1.058,1.058,0,0,1,1.188-1.029A1.07,1.07,0,0,1,158.287,360.854Zm2.611,13.811c-.052.449-.093.845-.118,1.187q1.344.041,2.018,0,1.226.041,1.187,1.029a1.071,1.071,0,0,1-1.068,1.187q-.794.041-2.413,0-.042.633-.121,1.147a1.13,1.13,0,0,1-1.186.99,1.071,1.071,0,0,1-1.148-1.227l.119-.91c-.659-.025-1.373-.04-2.137-.04l.118,3.6q4.315-.039,7.678-.2,1.305-.037,1.346.95a1.116,1.116,0,0,1-1.07,1.228q-3.126.157-7.913.157l.078,2.019q2.494.08,4.037.04,1.148.078,1.148,1.147,0,.989-1.148,1.108-.633.041-1.307.04-1.344,0-2.65-.04l.079,3.166a1.169,1.169,0,0,1-2.335.118l-.08-3.323q-2.214-.079-4.313-.2-.316-.039-.594-.078a1.168,1.168,0,0,1-.83-1.306c.08-.66.527-.963,1.346-.91q1.581.078,4.313.158l-.08-1.94q-6.213-.037-9.5-.316a1.068,1.068,0,0,1-.91-1.108.947.947,0,0,1,.317-.752,1.1,1.1,0,0,1,1.029-.237q4.116.237,9.023.277l-.118-3.681q-1.386,0-2.454-.078c.025.211.052.382.079.514.026.1.053.237.078.4q.278,1.225-.791,1.463a1.2,1.2,0,0,1-1.424-.949c-.1-.448-.212-.95-.317-1.5q-1.9-.079-2.849-.2a1.037,1.037,0,0,1-.949-1.147q0-1.188,1.186-1.069c.555.054,1.332.106,2.336.159-.08-.528-.132-1.043-.159-1.544a1.033,1.033,0,0,1,1.108-1.226,1.049,1.049,0,0,1,1.147.988q.079,1.031.2,1.9,1.266.041,2.691.079l-.04-1.939a1.031,1.031,0,0,1,1.147-1.187q1.149,0,1.188,1.069l.078,2.136q1.386,0,2.493.04l.16-1.425a1.021,1.021,0,0,1,1.147-.989Q160.938,373.438,160.9,374.665Zm-12.86-5.817q2.61.2,7.954.4,3.165.08,5.223.039,1.147.08,1.148,1.148,0,.988-1.148,1.107c-.5.028-1.028.04-1.583.04q-5.936.041-11.4-.395a5.1,5.1,0,0,1-.714-.119,1.168,1.168,0,0,1-.83-1.306C146.772,369.1,147.219,368.8,148.038,368.848Z" stroke="#573710" stroke-miterlimit="10" stroke-width="0.366"/>
        <path id="Path_2539" data-name="Path 2539" d="M192.422,367.344q0,11.516-.119,14.682,3.641-.041,7.6-.159-.2-3.72-.4-7.084-.2-1.266,1.029-1.345a1.1,1.1,0,0,1,1.3.989q.435,4.867.436,8.232a1.289,1.289,0,0,1-1.068,1.266q-2.652.237-9.854.277-8.429.039-10.368-.159a1.172,1.172,0,0,1-.99-1.384q.24-3.522.356-8.983a1.068,1.068,0,0,1,1.188-1.227,1.007,1.007,0,0,1,1.107,1.068q.12,4.473-.157,8.469,3.483.08,7.479.04.08-2.969.08-14.682a1.187,1.187,0,0,1,2.373,0Z" stroke="#573710" stroke-miterlimit="10" stroke-width="0.366"/>
        <path id="Path_2540" data-name="Path 2540" d="M219.077,370.154c0,.026-.013.158-.039.4a73.369,73.369,0,0,0-.4,8.232q0,1.5.079,4.471.08,3.009.08,4.472,0,1.107-1.188,1.108a1.078,1.078,0,0,1-1.227-1.029q-.157-2.256-.158-9.022a58.52,58.52,0,0,1,.515-8.706,1.064,1.064,0,0,1,1.148-1.03C218.682,369.045,219.077,369.416,219.077,370.154Z" stroke="#573710" stroke-miterlimit="10" stroke-width="0.366"/>
        <path id="Path_2541" data-name="Path 2541" d="M241.421,387.724q.078,1.107-1.148,1.108a1.086,1.086,0,0,1-1.186-1.108,61.751,61.751,0,0,1-.317-6.174,6.481,6.481,0,0,1-4.473,1.623,6.131,6.131,0,0,1-4.352-1.583,6.67,6.67,0,0,1-2.019-5.224,6.986,6.986,0,0,1,7.361-7.321q2.81,0,5.342,2.929a1.158,1.158,0,0,1,.278.792,1.132,1.132,0,0,1-.357.83,1.157,1.157,0,0,1-.79.317,1.1,1.1,0,0,1-.871-.356q-1.862-2.177-3.6-2.177a4.843,4.843,0,0,0-3.8,1.544,5,5,0,0,0-1.227,3.442,4.516,4.516,0,0,0,1.227,3.4,3.887,3.887,0,0,0,2.808,1.108q3.445,0,4.592-4.274a1.068,1.068,0,0,1,1.108-.911,1.048,1.048,0,0,1,1.187,1.228q-.12,2.058-.119,4.233Q241.065,383.411,241.421,387.724Z" stroke="#573710" stroke-miterlimit="10" stroke-width="0.366"/>
        <path id="Path_2542" data-name="Path 2542" d="M253.078,370.154c0,.026-.013.158-.039.4a73.365,73.365,0,0,0-.4,8.232q0,1.5.079,4.471.079,3.009.08,4.472,0,1.107-1.188,1.108a1.078,1.078,0,0,1-1.227-1.029q-.157-2.256-.158-9.022a58.518,58.518,0,0,1,.515-8.706,1.064,1.064,0,0,1,1.148-1.03C252.683,369.045,253.078,369.416,253.078,370.154Z" stroke="#573710" stroke-miterlimit="10" stroke-width="0.366"/>
        <path id="Path_2543" data-name="Path 2543" d="M276.054,383.925a1.012,1.012,0,0,1-1.188,1.147l-2.137-.079q.158,2.533.159,2.731,0,1.107-1.188,1.108a1.089,1.089,0,0,1-1.225-1.068q-.082-.752-.119-2.811-9.063-.395-9.063-3.4a5.822,5.822,0,0,1,1.424-2.769,45.736,45.736,0,0,0,2.454-3.958,25.119,25.119,0,0,0,2.3-4.907,1.074,1.074,0,0,1,1.07-.871c.817,0,1.225.371,1.225,1.109q0,1.268-2.1,5.065-1.662,2.928-3.086,4.986a8.027,8.027,0,0,0-.951,1.345q0,.872,6.688,1.03v-1.386q0-6.211.238-8.9.078-1.027,1.227-1.029,1.225,0,1.188,1.069-.28,6.095-.278,8.864v1.425l2.176.079A1.089,1.089,0,0,1,276.054,383.925Z" stroke="#573710" stroke-miterlimit="10" stroke-width="0.366"/>
        <path id="Path_2544" data-name="Path 2544" d="M285.7,365.959l8.271.158-.356-3.4q-.04-1.107,1.147-1.187,1.148,0,1.187,1.068l.356,3.482v.08l8.271.2a1.031,1.031,0,0,1,1.147,1.187,1.114,1.114,0,0,1-1.147,1.147l-18.876-.395q-1.149-.119-1.187-1.148A1.049,1.049,0,0,1,285.7,365.959Zm18.876,24.654a29.79,29.79,0,0,1-7.836-4.393q-.711-.514-1.266-.95-2.73,3.405-4.947,3.957a2.036,2.036,0,0,1-.395.04,1.212,1.212,0,0,1-1.307-1.029,1.067,1.067,0,0,1,.951-1.226q1.859-.4,3.917-3.206a35.693,35.693,0,0,1-3.878-3.918,1.309,1.309,0,0,1-.276-.83,1.048,1.048,0,0,1,1.186-1.187,1.213,1.213,0,0,1,.871.395,2.79,2.79,0,0,0,.395.4,25.622,25.622,0,0,0,3.048,3.086,21.438,21.438,0,0,0,2.413-5.1,1.218,1.218,0,0,1,1.266-.91q1.307.119,1.109,1.385a22.1,22.1,0,0,1-2.929,6.213A9.058,9.058,0,0,0,298,384.2a30.9,30.9,0,0,0,7.243,4.273,1,1,0,0,1,.871,1.306,1.106,1.106,0,0,1-.753.832A2.005,2.005,0,0,1,304.571,390.613Z" stroke="#573710" stroke-miterlimit="10" stroke-width="0.366"/>
        <path id="Path_2545" data-name="Path 2545" d="M325.289,361.685a20.273,20.273,0,0,1,2.415,1.385c.792.475,1.476.924,2.058,1.346a1.13,1.13,0,0,1,.474.791,1.105,1.105,0,0,1-1.227,1.226,1.2,1.2,0,0,1-.751-.276l-4.076-2.493a14.2,14.2,0,0,1-1.227,1.583A11.792,11.792,0,0,1,319,368.016a1.956,1.956,0,0,1-.633.119,1.112,1.112,0,0,1-1.267-.87,1.143,1.143,0,0,1,.752-1.385,8.37,8.37,0,0,0,3.324-2.256,10.54,10.54,0,0,0,2.137-3.4,1.173,1.173,0,0,1,1.147-.831q1.188.118,1.148,1.187a1.487,1.487,0,0,1-.078.475Zm-4.907,12.742a1.008,1.008,0,0,1,.99-1.266,1.045,1.045,0,0,1,1.266.752,2.291,2.291,0,0,1,.119.4q2.334.039,4.591.118-.04-.831-.079-1.583-2.891-.037-5.778-.316a1.027,1.027,0,0,1-.91-1.029c-.028-.739.356-1.108,1.147-1.108q.674,0,6.252.277,1.386.039,1.5,1.227.2,3.165.159,6.964a1.441,1.441,0,0,1-1.108,1.465,52.338,52.338,0,0,1-5.66.237c-.132,0-.211-.013-.237-.04q-.711,4.077-2.573,5.9a1.69,1.69,0,0,1-.434.317,1.325,1.325,0,0,1-.832.2q-1.187-.078-1.147-1.187a1.238,1.238,0,0,1,.356-.792Q320.58,382.1,320.66,377c0-.342-.013-.725-.04-1.147a4.944,4.944,0,0,0-.158-.91C320.435,374.758,320.409,374.586,320.382,374.427Zm6.887-7.518q1.344.039,1.3,1.107c-.026.661-.514,1.029-1.465,1.109h-.593a9.891,9.891,0,0,1-4.115-.594,1.179,1.179,0,0,1-.395-.831.906.906,0,0,1,1.107-1.028,9.126,9.126,0,0,1,1.188.078A15.644,15.644,0,0,0,327.269,366.909Zm.118,9.774q-2.176.04-4.393-.118v.395c-.025.528-.066,1.043-.119,1.544h.119q2.613,0,4.432-.119Q327.426,377.554,327.387,376.683Zm4.59,9.695a25.457,25.457,0,0,1,.317,4.551,1.414,1.414,0,0,1-1.544,1.346,28.149,28.149,0,0,1-5.5-.159q-1.149-.237-1.147-1.7-.12-2.808-.119-4.233,0-1.188,1.029-1.267a.956.956,0,0,1,.91.356,1.266,1.266,0,0,1,.356-.079h3.483Q331.661,385.27,331.977,386.378Zm-5.658.99q0,1.068.039,2.453c0,.237.08.37.238.4a17.289,17.289,0,0,0,3.166.04.289.289,0,0,0,.317-.277q0-.992-.119-2.335c-.027-.132-.134-.211-.317-.238Q328.573,387.368,326.319,387.368Zm14.2-8.113a1.206,1.206,0,0,1-1.384-.95,48.88,48.88,0,0,1-.633-5.738,1.115,1.115,0,0,1,2.216-.237q.238,3.167.515,5.026c.025.105.052.251.078.435Q341.594,379.019,340.524,379.255Zm4.512,2.1q.277,0,.278-.356,0-1.07-.6-9.5-.157-1.307.99-1.424,1.146-.08,1.307.91.513,7.755.593,9.774.237,1.781-.593,2.335a2.467,2.467,0,0,1-1.743.356q-1.266-.158-1.345-1.147a.837.837,0,0,1,.515-.91A.9.9,0,0,1,345.036,381.353Z" stroke="#573710" stroke-miterlimit="10" stroke-width="0.366"/>
        <path id="Path_2546" data-name="Path 2546" d="M357.685,368.016q0,13.535-.476,16.78a1.1,1.1,0,0,1-1.266,1.029,1.083,1.083,0,0,1-1.068-1.267q.475-3.165.475-16.542a1.014,1.014,0,0,1,1.147-1.147A1.033,1.033,0,0,1,357.685,368.016Zm18.005,21.726q-3.72.08-8.231-.119a46.549,46.549,0,0,1-8.311-.553,1.154,1.154,0,0,1-.87-1.386.986.986,0,0,1,1.029-.87,3.958,3.958,0,0,1,.554.039q2.057.2,7.875.475,4.906.159,7.954.119,1.225,0,1.227,1.108A1.114,1.114,0,0,1,375.69,389.742Zm4.868-3.087q-.042-.949-.356-9.734-.357-9.261-.436-10.012.039-1.9-2.176-1.9-4.514-.2-17.769-.435-1.266-.039-1.305-1.108-.042-1.266,1.5-1.108,13.811.238,17.689.435,4.275.08,4.433,3.72.078.831.435,10.685.355,9.576.356,10.249,0,1.9-2.256,1.78-1.584-.039-1.7-1.147a.979.979,0,0,1,1.067-1.148C380.385,386.959,380.558,386.867,380.558,386.655ZM363.621,384.6a1.021,1.021,0,0,1-.278-2.018,10.694,10.694,0,0,0,2.493-1.663,15.917,15.917,0,0,0,1.307-1.226c-.5-.053-.924-.105-1.267-.159q-1.149-.237-1.147-1.661-.12-1.584-.119-2.375,0-1.188,1.029-1.266a1.121,1.121,0,0,1,.949.276q2.256,0,3.483.04,1.9.041,2.177,1.108a8.36,8.36,0,0,1,.355,2.731,1.379,1.379,0,0,1-1.5,1.306c-.476.026-.91.039-1.307.039a2.207,2.207,0,0,1-.356.713,14.514,14.514,0,0,1-2.137,2.176q0,1.187-.039,2.018.713-.157,1.068-.277a2.487,2.487,0,0,1,.475-.04q.674.081.713.871a.93.93,0,0,1-.474.791,2.889,2.889,0,0,1-.792.357,5.5,5.5,0,0,1-2.178.316q-1.186-.119-.83-1.622c0-.263.013-.594.039-.99a7.513,7.513,0,0,1-.831.4A2.422,2.422,0,0,1,363.621,384.6Zm.394-14.326q1.308.119,3.6.2l-.039-1.029q-1.426,0-2.73-.079a1.114,1.114,0,0,1-1.07-1.147q0-1.227,1.188-1.188l2.414.079v-.2a1.03,1.03,0,0,1,1.186-1.029,1.068,1.068,0,0,1,1.148,1.266l2.534.04a1.054,1.054,0,0,1,1.147,1.187,1.141,1.141,0,0,1-1.266,1.148q-1.108,0-2.256-.04c.025.4.053.752.08,1.068q2.094.081,3.442.04,1.146.08,1.147,1.148,0,.988-1.147,1.107c-.369.027-.753.04-1.147.04q-4.275,0-8.233-.317c-.184-.025-.355-.052-.513-.079a1.166,1.166,0,0,1-.832-1.3C362.749,370.523,363.2,370.22,364.015,370.272Zm2.929,6.293c.026.263.039.514.039.751,0,.211.08.331.238.356a14.746,14.746,0,0,0,2.928.04c.16,0,.251-.092.278-.277a1.975,1.975,0,0,0-.118-.593.3.3,0,0,0-.278-.238Q369,376.565,366.944,376.565Zm7.163,5.619a2.752,2.752,0,0,1-.554.791q-.476.435-.831.752a5.418,5.418,0,0,0,1.109.554q1.105.316.83,1.306a1.178,1.178,0,0,1-1.346.791,4.807,4.807,0,0,0-.513-.119,8.132,8.132,0,0,1-3.4-2.176,1.366,1.366,0,0,1-.554-.91.992.992,0,0,1,.988-1.147,1.311,1.311,0,0,1,.91.316l1.584-1.306a1.265,1.265,0,0,1,1.345-.158A1,1,0,0,1,374.107,382.184Z" stroke="#573710" stroke-miterlimit="10" stroke-width="0.366"/>
        <path id="Path_2547" data-name="Path 2547" d="M392.018,388q1.068-5.937,1.068-23.744c-.5-.025-.935-.065-1.3-.118-.846-.079-1.28-.475-1.307-1.188q.041-1.266,1.346-1.147a200.565,200.565,0,0,0,20.183.435,1.07,1.07,0,0,1,1.266,1.148,1.116,1.116,0,0,1-1.148,1.147q-7.242.238-12.742.04-2.336-.078-3.957-.158,0,16.026-.91,22.952,4.311.277,18.321.277,1.147,0,1.148,1.108,0,1.187-1.266,1.187-15.672,0-19.469-.4A1.3,1.3,0,0,1,392.018,388Zm15.631-7.954a26.23,26.23,0,0,1-.039,3.205q-.04.951-1.346,1.187a26.183,26.183,0,0,1-2.651.04,21.008,21.008,0,0,1-2.612-.2,1.133,1.133,0,0,1-1.028-1.306V378.3q0-.987,1.067-1.068a1.066,1.066,0,0,1,.99.515c1.161,0,2.32.039,3.483.119Q407.727,378.069,407.649,380.047Zm2.217-11.159a22.043,22.043,0,0,1,.237,3.878,1.674,1.674,0,0,1-1.583,1.78,38.255,38.255,0,0,1-5.817.04,1.043,1.043,0,0,1-.951-1.148q-.158-2.928-.276-4.749-.08-1.344,1.108-1.464a1.1,1.1,0,0,1,.87.317.441.441,0,0,1,.2-.04q2.254-.038,3.878-.039Q409.667,367.463,409.866,368.888Zm-7.678,11.119q0,.95-.039,1.939a.292.292,0,0,0,.237.357q1.307.078,2.692.078a.347.347,0,0,0,.237-.4c.025-.422.039-.923.039-1.5.025-.238-.08-.356-.317-.356Q403.692,380.046,402.188,380.007Zm1.7-10.249q.042,1.227.119,2.3c-.052.158.014.317.2.475a30.939,30.939,0,0,0,3.483-.04.445.445,0,0,0,.238-.474,16.521,16.521,0,0,0-.119-2.019c-.027-.184-.159-.277-.4-.277Q405.669,369.68,403.889,369.758Zm13.732,10.526a31.791,31.791,0,0,1-.039,3.522q-.041.949-1.345,1.187a22.455,22.455,0,0,1-2.455.04,19.012,19.012,0,0,1-2.452-.2,1.113,1.113,0,0,1-1.029-1.266v-4.828q0-.988,1.068-1.069a1.218,1.218,0,0,1,.871.356,2.105,2.105,0,0,1,.4-.039q1.426,0,2.849.119Q417.7,378.306,417.621,380.284Zm-5.105-.04q0,1.07-.039,2.256a.291.291,0,0,0,.238.356c.737.053,1.517.08,2.334.08a.346.346,0,0,0,.237-.4c.027-.5.041-1.109.041-1.82.025-.238-.08-.356-.317-.356Q413.86,380.285,412.516,380.244Z" stroke="#573710" stroke-miterlimit="10" stroke-width="0.366"/>
        <path id="Path_2548" data-name="Path 2548" d="M443.614,369.6a1.893,1.893,0,0,1,1.821,1.9q.158,3.523.159,7.915A1.4,1.4,0,0,1,444.05,381q-2.532.039-4.551,0,.08,2.374.159,4.194a19.171,19.171,0,0,0,3.878,2.493c.183.08.395.158.632.238a.811.811,0,0,0,.714-.08,1.275,1.275,0,0,1,.791-.158,1.109,1.109,0,0,1,.989,1.267q-.157,1.187-1.9,1.266a8.377,8.377,0,0,1-4.235-1.7,5.938,5.938,0,0,1-.792-.514q.041,1.582.041,2.73.037,2.454-2.493,2.3-1.386-.078-1.465-1.306a.926.926,0,0,1,.751-.989,3.22,3.22,0,0,1,.832.04q.237-.08.2-.514c0-.845-.016-1.715-.041-2.612q-.831.672-1.781,1.345a6.428,6.428,0,0,1-3.482,1.543q-1.5,0-1.622-1.147a1.072,1.072,0,0,1,1.148-1.227,5.5,5.5,0,0,0,.554-.039,7.191,7.191,0,0,0,2.571-1.465,20.52,20.52,0,0,0,2.493-2.1q-.041-1.74-.118-3.561a53.589,53.589,0,0,1-6.292-.436q-1.464-.237-1.188-1.939a61.623,61.623,0,0,0,.593-9.26,1.034,1.034,0,0,1,1.109-1.068.943.943,0,0,1,1.029.672q2.295.119,4.115.2-.117-2.73-.276-4.907-2.772-.157-5.382-.435a3.437,3.437,0,0,1-.752-.158,1.167,1.167,0,0,1-.831-1.306q.117-1.029,1.346-.95,1.979.238,5.461.436c-.027-.607-.066-1.149-.119-1.623a1.086,1.086,0,0,1,.712-1.346q1.188-.237,1.465.753.078,1.148.157,2.334a6.731,6.731,0,0,0,.673.039q3.325.081,5.5.04,1.149.081,1.149,1.148,0,1.029-1.149,1.148-.791.039-1.661.039-2.217.041-4.313-.039.118,2.336.276,4.946Q442.547,369.482,443.614,369.6Zm-6.41,9.182q-.078-1.466-.119-2.849l-4.589-.2c-.055.924-.132,1.847-.238,2.771Q434.274,378.7,437.2,378.781Zm-4.512-7.559q0,1.109-.039,2.3l4.275.2q-.041-1.227-.119-2.3Q434.474,371.3,432.692,371.222Zm6.371.316q.042,1.15.119,2.256l3.88.159q0-1.188-.08-2.177Q440.806,371.618,439.063,371.538Zm4.038,4.67-3.839-.158q.119,1.464.159,2.77,1.779.04,3.719,0Q443.14,377.436,443.1,376.208Z" stroke="#573710" stroke-miterlimit="10" stroke-width="0.366"/>
        <path id="Path_2549" data-name="Path 2549" d="M467.078,374.586q0,3.047-4.156,6.45-4.67,3.879-4.669,4.946,0,.515,2.413.515a15.336,15.336,0,0,0,4.592-.633,1.487,1.487,0,0,1,.356-.039,1.014,1.014,0,0,1,1.147,1.147,1.077,1.077,0,0,1-.752,1.108,16.278,16.278,0,0,1-5.343.752,7.4,7.4,0,0,1-3.086-.594,2.372,2.372,0,0,1-1.7-2.256q0-1.463,2.1-3.64.674-.674,3.444-3.047,3.322-2.888,3.324-4.709a2.937,2.937,0,0,0-1.029-2.3,3.893,3.893,0,0,0-2.612-.91,6.673,6.673,0,0,0-4.076,1.821,1.233,1.233,0,0,1-.91.316.9.9,0,0,1-.712-.4,1.156,1.156,0,0,1-.317-.791,1.252,1.252,0,0,1,.4-.91,8.224,8.224,0,0,1,5.619-2.375,6.148,6.148,0,0,1,4.076,1.425A5.109,5.109,0,0,1,467.078,374.586Z" stroke="#573710" stroke-miterlimit="10" stroke-width="0.366"/>
        <path id="Path_2550" data-name="Path 2550" d="M489.8,384.4a1.075,1.075,0,0,1-.2.633,8.567,8.567,0,0,1-2.771,2.532,9.356,9.356,0,0,1-4.789,1.267A8.874,8.874,0,0,1,475,385.785a9.62,9.62,0,0,1-2.375-6.53,10.432,10.432,0,0,1,2.652-7.2,8.418,8.418,0,0,1,6.648-3.008,9.507,9.507,0,0,1,7.2,3.166,1.026,1.026,0,0,1,.317.752,1.066,1.066,0,0,1-1.186,1.227,1.163,1.163,0,0,1-.871-.436,7.31,7.31,0,0,0-5.461-2.453,6.37,6.37,0,0,0-4.907,2.375,8.066,8.066,0,0,0-2.1,5.579,7.308,7.308,0,0,0,1.82,4.947,6.746,6.746,0,0,0,5.3,2.334,6.264,6.264,0,0,0,5.541-2.73,1.1,1.1,0,0,1,.99-.593,1.136,1.136,0,0,1,.83.356A1.088,1.088,0,0,1,489.8,384.4Z" stroke="#573710" stroke-miterlimit="10" stroke-width="0.366"/>
        <path id="Path_2551" data-name="Path 2551" d="M501.649,361.329a1.121,1.121,0,0,1,1.108-.435,1.547,1.547,0,0,1,.594.158,1.379,1.379,0,0,1,.276,1.543,33.988,33.988,0,0,1-3.6,4.354,22.542,22.542,0,0,1-3.919,3.6,1.008,1.008,0,0,1-.474.2,1.163,1.163,0,0,1-1.3-.831,1.076,1.076,0,0,1,.474-1.227,19.494,19.494,0,0,0,3.522-3.245A51.483,51.483,0,0,0,501.649,361.329Zm-2.532,12.544q1.742.12,5.262.436a1.614,1.614,0,0,1,1.465,1.86q.119,3.166.118,5.975.08,1.662-1.067,1.979a6.569,6.569,0,0,1-1.743.237,16.194,16.194,0,0,1-2.571.04q.039,1.621,0,3.245,0,.316.276.316a2.261,2.261,0,0,0,.753-.039,14.114,14.114,0,0,0,1.583-.277c-.08-.159-.159-.3-.237-.436a.99.99,0,0,1-.16-.277,1.053,1.053,0,0,1,.436-1.187,1.665,1.665,0,0,1,1.227.08c.053.052.13.132.237.237q.91,1.266,2.215,3.165a1.069,1.069,0,0,1,.2.277.928.928,0,0,1-.119,1.267,1.07,1.07,0,0,1-1.029.237,1.315,1.315,0,0,1-.634-.435,10.544,10.544,0,0,1-.949-1.187,15.2,15.2,0,0,1-3.522.712,4.771,4.771,0,0,1-1.067.04q-1.427,0-1.505-1.148-.159-8.626-.356-10.645,0-1.187,1.069-1.266a1.04,1.04,0,0,1,1.227.91,3.979,3.979,0,0,1,.039.554l3.324.039q-.041-.869-.039-1.78c0-.237-.185-.37-.554-.4q-.4-.039-4.116-.317a1.078,1.078,0,0,1-.989-1.147A1.017,1.017,0,0,1,499.117,373.873Zm1.779-4.748,2.455.474a.967.967,0,0,1,1.067,1.069,1.07,1.07,0,0,1-1.186,1.069,6.745,6.745,0,0,1-2.454-.476,1.029,1.029,0,0,1-.949-1.067Q499.829,369.085,500.9,369.125Zm2.692,11.634-3.166-.039c.027.554.052,1.1.079,1.622q1.582,0,2.612-.079a.534.534,0,0,0,.475-.4Zm-.753-15.552a1.136,1.136,0,0,1,.91-1.543,1.265,1.265,0,0,1,1.228.593,9.446,9.446,0,0,0,3.325,2.77,3.157,3.157,0,0,1,.315.119q.831.437.673,1.148a1.136,1.136,0,0,1-1.266.989,5.964,5.964,0,0,1-2.77-1.5,8.755,8.755,0,0,1-2.255-2.256Zm18.561-3.126q-.12,1.543-.237,2.652a43.064,43.064,0,0,1,4.827.83,1.681,1.681,0,0,1,.91,2.058,7.737,7.737,0,0,1-1.029,3.206,1.3,1.3,0,0,1-1.663.395.983.983,0,0,1-.394-1.345q.157-.317.435-.911a3.747,3.747,0,0,0,.356-1.187.41.41,0,0,0-.237-.474,78.639,78.639,0,0,0-9.458-1.029,6.7,6.7,0,0,1-.118.751q-.833,3.642-2.573,4.116-1.544.159-1.583-1.029a1,1,0,0,1,.554-.91q1.581-1.266,1.583-5.144a1.078,1.078,0,0,1,1.147-1.188,1.1,1.1,0,0,1,1.187,1.188v.118q2.059.159,3.681.316l.276-2.65a1.058,1.058,0,0,1,1.189-1.029A1.069,1.069,0,0,1,521.4,362.081ZM517.4,381q0,1.582-.04,2.889,4,.236,5.184.434a1.259,1.259,0,0,1,1.068,1.188q.2,1.662.238,3.957a1.316,1.316,0,0,1-1.148,1.266q-.237.041-.712.079-2.573.158-5.144.08a1.135,1.135,0,0,1-1.147.593,1.085,1.085,0,0,1-1.07-1.266q.476-3.048.475-15.75a1.014,1.014,0,0,1,1.147-1.147c.66,0,1.031.237,1.109.712q1.029.079,4.115.356a1.317,1.317,0,0,1,1.464,1.187,29.318,29.318,0,0,1,.16,3.839,1.4,1.4,0,0,1-1.109,1.384A41.428,41.428,0,0,1,517.4,381Zm-.118,5.025q-.04,1.7-.119,2.849,2.136.039,4.392,0-.041-1.226-.119-2.532Q519.656,386.182,517.281,386.022Zm.157-9.853v2.889q2.058,0,3.483-.08a20.216,20.216,0,0,0-.159-2.493Q519.1,376.406,517.438,376.169Z" stroke="#573710" stroke-miterlimit="10" stroke-width="0.366"/>
      </g>
    </g>
    <g id="Group_339" data-name="Group 339" transform="translate(713.832 1364.621)">
      <path id="Path_2552" data-name="Path 2552" d="M155.876,337.123q0,3.159-4.308,6.686-4.84,4.021-4.84,5.128,0,.534,2.5.533a15.874,15.874,0,0,0,4.759-.656,1.539,1.539,0,0,1,.369-.04,1.051,1.051,0,0,1,1.19,1.189,1.118,1.118,0,0,1-.78,1.149,16.889,16.889,0,0,1-5.538.779,7.678,7.678,0,0,1-3.2-.615,2.46,2.46,0,0,1-1.765-2.339q0-1.517,2.175-3.774.7-.7,3.568-3.159,3.447-2.994,3.447-4.881a3.044,3.044,0,0,0-1.067-2.38,4.031,4.031,0,0,0-2.707-.943,6.913,6.913,0,0,0-4.226,1.887,1.276,1.276,0,0,1-.944.328.938.938,0,0,1-.738-.41,1.2,1.2,0,0,1-.328-.821,1.294,1.294,0,0,1,.41-.943,8.528,8.528,0,0,1,5.826-2.462,6.372,6.372,0,0,1,4.225,1.477A5.293,5.293,0,0,1,155.876,337.123Z"/>
      <path id="Path_2553" data-name="Path 2553" d="M179.177,342a10.923,10.923,0,0,1-2.256,7.1,7.1,7.1,0,0,1-11.323-.041,11.084,11.084,0,0,1-1.8-6.686,15.4,15.4,0,0,1,.615-4.1,10.891,10.891,0,0,1,1.436-3.365,1.145,1.145,0,0,1,.984-.533q1.189,0,1.19,1.108a1.518,1.518,0,0,1-.205.82,10.273,10.273,0,0,0-1.067,2.667,12.669,12.669,0,0,0-.533,3.4,8.716,8.716,0,0,0,1.313,5.127,4.45,4.45,0,0,0,3.938,2.011,4.574,4.574,0,0,0,3.651-2.093,8.772,8.772,0,0,0,1.6-5.415,11.235,11.235,0,0,0-1.518-6.317,3.6,3.6,0,0,0-3.076-1.887,4.021,4.021,0,0,0-2.544.738,1.1,1.1,0,0,1-.738.246,1.015,1.015,0,0,1-1.149-1.148,1.165,1.165,0,0,1,.451-.944,5.868,5.868,0,0,1,3.98-1.313,5.95,5.95,0,0,1,5.086,2.626Q179.177,336.795,179.177,342Z"/>
      <path id="Path_2554" data-name="Path 2554" d="M199.524,337.123q0,3.159-4.307,6.686-4.84,4.021-4.841,5.128,0,.534,2.5.533a15.867,15.867,0,0,0,4.758-.656,1.542,1.542,0,0,1,.37-.04,1.051,1.051,0,0,1,1.189,1.189,1.117,1.117,0,0,1-.779,1.149,16.89,16.89,0,0,1-5.538.779,7.679,7.679,0,0,1-3.2-.615,2.459,2.459,0,0,1-1.764-2.339q0-1.517,2.174-3.774.7-.7,3.569-3.159,3.445-2.994,3.446-4.881a3.047,3.047,0,0,0-1.066-2.38,4.036,4.036,0,0,0-2.708-.943,6.911,6.911,0,0,0-4.225,1.887,1.28,1.28,0,0,1-.944.328.94.94,0,0,1-.739-.41,1.2,1.2,0,0,1-.327-.821,1.294,1.294,0,0,1,.41-.943,8.525,8.525,0,0,1,5.825-2.462,6.37,6.37,0,0,1,4.225,1.477A5.293,5.293,0,0,1,199.524,337.123Z"/>
      <path id="Path_2555" data-name="Path 2555" d="M222.826,342a10.928,10.928,0,0,1-2.256,7.1,7.1,7.1,0,0,1-11.323-.041,11.077,11.077,0,0,1-1.8-6.686,15.364,15.364,0,0,1,.616-4.1,10.917,10.917,0,0,1,1.435-3.365,1.147,1.147,0,0,1,.985-.533q1.189,0,1.189,1.108a1.518,1.518,0,0,1-.205.82,10.276,10.276,0,0,0-1.066,2.667,12.633,12.633,0,0,0-.534,3.4,8.723,8.723,0,0,0,1.313,5.127,4.451,4.451,0,0,0,3.938,2.011,4.572,4.572,0,0,0,3.651-2.093,8.772,8.772,0,0,0,1.6-5.415,11.244,11.244,0,0,0-1.517-6.317,3.6,3.6,0,0,0-3.077-1.887,4.016,4.016,0,0,0-2.543.738,1.1,1.1,0,0,1-.739.246,1.015,1.015,0,0,1-1.149-1.148,1.163,1.163,0,0,1,.452-.944,5.866,5.866,0,0,1,3.979-1.313,5.952,5.952,0,0,1,5.087,2.626Q222.825,336.795,222.826,342Z"/>
      <path id="Path_2556" data-name="Path 2556" d="M233.533,349.8a2.015,2.015,0,0,1-.615,1.477,1.884,1.884,0,0,1-1.436.615,1.968,1.968,0,0,1-1.436-.615,2.015,2.015,0,0,1-.615-1.477,2.1,2.1,0,0,1,2.051-2.051,1.884,1.884,0,0,1,1.436.615A1.97,1.97,0,0,1,233.533,349.8Z"/>
      <path id="Path_2557" data-name="Path 2557" d="M249.327,332.528c0,.027-.014.164-.041.41a75.989,75.989,0,0,0-.41,8.533q0,1.56.081,4.636.082,3.117.083,4.636,0,1.147-1.231,1.148a1.116,1.116,0,0,1-1.271-1.067q-.165-2.337-.165-9.353a60.754,60.754,0,0,1,.534-9.025,1.1,1.1,0,0,1,1.189-1.067Q249.328,331.379,249.327,332.528Z"/>
      <path id="Path_2558" data-name="Path 2558" d="M275.91,337.123q0,3.159-4.307,6.686-4.842,4.021-4.841,5.128,0,.534,2.5.533a15.87,15.87,0,0,0,4.759-.656,1.539,1.539,0,0,1,.369-.04,1.051,1.051,0,0,1,1.19,1.189,1.117,1.117,0,0,1-.78,1.149,16.881,16.881,0,0,1-5.538.779,7.678,7.678,0,0,1-3.2-.615,2.46,2.46,0,0,1-1.765-2.339q0-1.517,2.175-3.774.7-.7,3.569-3.159,3.445-2.994,3.446-4.881a3.044,3.044,0,0,0-1.067-2.38,4.031,4.031,0,0,0-2.707-.943,6.915,6.915,0,0,0-4.226,1.887,1.276,1.276,0,0,1-.944.328.939.939,0,0,1-.738-.41,1.2,1.2,0,0,1-.328-.821,1.3,1.3,0,0,1,.41-.943,8.528,8.528,0,0,1,5.826-2.462,6.372,6.372,0,0,1,4.225,1.477A5.293,5.293,0,0,1,275.91,337.123Z"/>
      <path id="Path_2559" data-name="Path 2559" d="M288.093,349.8a2.011,2.011,0,0,1-.615,1.477,1.882,1.882,0,0,1-1.435.615,1.967,1.967,0,0,1-1.436-.615,2.016,2.016,0,0,1-.616-1.477,2.1,2.1,0,0,1,2.052-2.051,1.882,1.882,0,0,1,1.435.615A1.966,1.966,0,0,1,288.093,349.8Z"/>
      <path id="Path_2560" data-name="Path 2560" d="M308.523,345.942a5.66,5.66,0,0,1-1.763,4.349,6.753,6.753,0,0,1-4.718,1.6,7.337,7.337,0,0,1-4.554-1.641,1.241,1.241,0,0,1-.492-.984q0-1.272,1.19-1.272a4.055,4.055,0,0,1,1.517.738,4.324,4.324,0,0,0,2.339.7q3.98,0,3.979-3.488,0-2.625-4.922-3.651a1.106,1.106,0,0,1-.985-1.189,1.127,1.127,0,0,1,1.149-1.231q4.184-.41,4.184-3.528a2.172,2.172,0,0,0-1.026-1.8,3.716,3.716,0,0,0-2.379-.779,6.952,6.952,0,0,0-3.733,1.641,1.33,1.33,0,0,1-.821.246,1.155,1.155,0,0,1-.779-.329,1.134,1.134,0,0,1-.369-.82,1.216,1.216,0,0,1,.533-1.066,9.075,9.075,0,0,1,5.169-2.052,6.52,6.52,0,0,1,3.733,1.108,4.332,4.332,0,0,1,2.092,3.856,5.292,5.292,0,0,1-2.707,4.882Q308.523,343.031,308.523,345.942Z"/>
      <path id="Path_2561" data-name="Path 2561" d="M331.947,342a10.923,10.923,0,0,1-2.256,7.1,7.1,7.1,0,0,1-11.322-.041,11.077,11.077,0,0,1-1.8-6.686,15.4,15.4,0,0,1,.615-4.1,10.891,10.891,0,0,1,1.436-3.365,1.145,1.145,0,0,1,.984-.533q1.189,0,1.19,1.108a1.518,1.518,0,0,1-.2.82,10.239,10.239,0,0,0-1.066,2.667,12.633,12.633,0,0,0-.534,3.4A8.723,8.723,0,0,0,320.3,347.5a4.45,4.45,0,0,0,3.938,2.011,4.574,4.574,0,0,0,3.651-2.093,8.772,8.772,0,0,0,1.6-5.415,11.235,11.235,0,0,0-1.518-6.317,3.6,3.6,0,0,0-3.076-1.887,4.021,4.021,0,0,0-2.544.738,1.1,1.1,0,0,1-.738.246,1.015,1.015,0,0,1-1.149-1.148,1.165,1.165,0,0,1,.451-.944,5.869,5.869,0,0,1,3.98-1.313,5.949,5.949,0,0,1,5.086,2.626Q331.947,336.795,331.947,342Z"/>
      <path id="Path_2562" data-name="Path 2562" d="M364.757,339.738a1.715,1.715,0,0,1-.694,1.294q-1.339,1.248-1.709,1.525a3.825,3.825,0,0,1-2.08.647,6.506,6.506,0,0,1-3.79-1.571,6.241,6.241,0,0,0-2.541-1.387,2.779,2.779,0,0,0-1.664,1.017q-1.108,1.11-1.663,1.109a1.184,1.184,0,0,1-1.341-1.34q0-.693,1.525-1.987a5.02,5.02,0,0,1,3.143-1.479,6.366,6.366,0,0,1,3.743,1.618,5.727,5.727,0,0,0,2.634,1.386q.646,0,1.571-1.109.971-1.017,1.525-1.017A1.165,1.165,0,0,1,364.757,339.738Z"/>
      <path id="Path_2563" data-name="Path 2563" d="M396.031,337.123q0,3.159-4.307,6.686-4.84,4.021-4.841,5.128,0,.534,2.5.533a15.879,15.879,0,0,0,4.759-.656,1.528,1.528,0,0,1,.369-.04,1.051,1.051,0,0,1,1.19,1.189,1.118,1.118,0,0,1-.78,1.149,16.89,16.89,0,0,1-5.538.779,7.683,7.683,0,0,1-3.2-.615,2.461,2.461,0,0,1-1.764-2.339q0-1.517,2.174-3.774.7-.7,3.569-3.159,3.447-2.994,3.447-4.881a3.044,3.044,0,0,0-1.067-2.38,4.034,4.034,0,0,0-2.708-.943,6.911,6.911,0,0,0-4.225,1.887,1.276,1.276,0,0,1-.944.328.936.936,0,0,1-.738-.41,1.2,1.2,0,0,1-.328-.821,1.294,1.294,0,0,1,.41-.943,8.525,8.525,0,0,1,5.825-2.462,6.37,6.37,0,0,1,4.225,1.477A5.293,5.293,0,0,1,396.031,337.123Z"/>
      <path id="Path_2564" data-name="Path 2564" d="M419.333,342a10.923,10.923,0,0,1-2.256,7.1,7.1,7.1,0,0,1-11.323-.041,11.084,11.084,0,0,1-1.8-6.686,15.36,15.36,0,0,1,.615-4.1A10.917,10.917,0,0,1,406,334.907a1.147,1.147,0,0,1,.985-.533q1.19,0,1.19,1.108a1.519,1.519,0,0,1-.206.82,10.275,10.275,0,0,0-1.066,2.667,12.628,12.628,0,0,0-.533,3.4,8.723,8.723,0,0,0,1.312,5.127,4.452,4.452,0,0,0,3.938,2.011,4.575,4.575,0,0,0,3.652-2.093,8.778,8.778,0,0,0,1.6-5.415,11.244,11.244,0,0,0-1.517-6.317,3.6,3.6,0,0,0-3.077-1.887,4.016,4.016,0,0,0-2.543.738,1.1,1.1,0,0,1-.739.246,1.015,1.015,0,0,1-1.149-1.148,1.163,1.163,0,0,1,.452-.944,5.866,5.866,0,0,1,3.979-1.313,5.952,5.952,0,0,1,5.087,2.626Q419.333,336.795,419.333,342Z"/>
      <path id="Path_2565" data-name="Path 2565" d="M439.68,337.123q0,3.159-4.307,6.686-4.842,4.021-4.841,5.128,0,.534,2.5.533a15.869,15.869,0,0,0,4.759-.656,1.539,1.539,0,0,1,.369-.04,1.051,1.051,0,0,1,1.19,1.189,1.117,1.117,0,0,1-.78,1.149,16.881,16.881,0,0,1-5.538.779,7.678,7.678,0,0,1-3.2-.615,2.46,2.46,0,0,1-1.765-2.339q0-1.517,2.175-3.774.7-.7,3.569-3.159,3.445-2.994,3.446-4.881a3.044,3.044,0,0,0-1.067-2.38,4.031,4.031,0,0,0-2.707-.943,6.915,6.915,0,0,0-4.226,1.887,1.276,1.276,0,0,1-.943.328.94.94,0,0,1-.739-.41,1.2,1.2,0,0,1-.328-.821,1.3,1.3,0,0,1,.41-.943,8.529,8.529,0,0,1,5.826-2.462,6.37,6.37,0,0,1,4.225,1.477A5.293,5.293,0,0,1,439.68,337.123Z"/>
      <path id="Path_2566" data-name="Path 2566" d="M456.746,332.528c0,.027-.014.164-.041.41a75.993,75.993,0,0,0-.41,8.533q0,1.56.082,4.636.081,3.117.082,4.636,0,1.147-1.231,1.148a1.116,1.116,0,0,1-1.271-1.067q-.165-2.337-.165-9.353a60.756,60.756,0,0,1,.534-9.025,1.1,1.1,0,0,1,1.189-1.067Q456.746,331.379,456.746,332.528Z"/>
      <path id="Path_2567" data-name="Path 2567" d="M473.689,349.8a2.012,2.012,0,0,1-.616,1.477,1.882,1.882,0,0,1-1.435.615,1.967,1.967,0,0,1-1.436-.615,2.015,2.015,0,0,1-.615-1.477,2.1,2.1,0,0,1,2.051-2.051,1.882,1.882,0,0,1,1.435.615A1.967,1.967,0,0,1,473.689,349.8Z"/>
      <path id="Path_2568" data-name="Path 2568" d="M495.677,346.8a1.049,1.049,0,0,1-1.231,1.19l-2.215-.083q.164,2.628.164,2.832,0,1.147-1.231,1.148a1.13,1.13,0,0,1-1.271-1.108q-.082-.778-.123-2.912-9.395-.411-9.395-3.528a6.044,6.044,0,0,1,1.477-2.872,47.986,47.986,0,0,0,2.544-4.1,26.126,26.126,0,0,0,2.379-5.087,1.112,1.112,0,0,1,1.107-.9q1.272,0,1.273,1.149,0,1.314-2.175,5.251-1.722,3.036-3.2,5.169a8.3,8.3,0,0,0-.984,1.395q0,.9,6.932,1.066v-1.436q0-6.439.247-9.23.081-1.065,1.272-1.066,1.27,0,1.23,1.107-.286,6.318-.287,9.189v1.477l2.256.082A1.129,1.129,0,0,1,495.677,346.8Z"/>
      <path id="Path_2569" data-name="Path 2569" d="M506.425,349.8a2.015,2.015,0,0,1-.615,1.477,1.884,1.884,0,0,1-1.436.615,1.968,1.968,0,0,1-1.436-.615,2.015,2.015,0,0,1-.615-1.477,2.1,2.1,0,0,1,2.051-2.051,1.884,1.884,0,0,1,1.436.615A1.97,1.97,0,0,1,506.425,349.8Z"/>
      <path id="Path_2570" data-name="Path 2570" d="M526.9,333.348a1.124,1.124,0,0,1-1.272,1.272q-2.79,0-8.287-.287V337.2a23.054,23.054,0,0,1-.164,2.584,8.143,8.143,0,0,1,2.749-.533,6.293,6.293,0,0,1,4.594,1.723,5.822,5.822,0,0,1,1.765,4.348,6.2,6.2,0,0,1-2.175,5.046,6.937,6.937,0,0,1-4.553,1.518,9.336,9.336,0,0,1-3.651-.821,1.136,1.136,0,0,1-.821-1.107q0-1.23,1.067-1.231a2.292,2.292,0,0,1,.492.082,9.263,9.263,0,0,0,2.913.616,4.387,4.387,0,0,0,3.035-1.026,3.848,3.848,0,0,0,1.231-3.077,3.543,3.543,0,0,0-1.026-2.543,3.714,3.714,0,0,0-2.871-1.067,7.179,7.179,0,0,0-3.118.82,1.575,1.575,0,0,1-.656.206,1.287,1.287,0,0,1-1.477-1.436q0,.082.164-1.8.163-1.928.164-3.528a14.322,14.322,0,0,0-.205-2.338,10.031,10.031,0,0,0-.164-1.067,1.07,1.07,0,0,1,1.23-1.19,1.1,1.1,0,0,1,.944.452q5.743.287,8.82.287A1.106,1.106,0,0,1,526.9,333.348Z"/>
    </g>
    <g id="Group_343" data-name="Group 343" transform="translate(203 -24)">
      <path id="Path_2575" data-name="Path 2575" d="M1715.629,206.891l138.839,23.742" transform="translate(-1240.672 2032.281) rotate(-13)" fill="none" stroke="#007aa7" stroke-width="3"/>
      <g id="Group_341" data-name="Group 341" transform="translate(-520.126 2319.533)">
        <path id="Path_2571" data-name="Path 2571" d="M1005.947-514.071c-.886,2.547-1.845,5.094-2.879,7.6-.591,1.255-1.033,2.4-1.4,3.359-.3.627-.554,1.218-.849,1.809a8.885,8.885,0,0,1-1.219,2.325,6.86,6.86,0,0,1-2.472-1.292q3.1-7.973,6.164-14.727A6.489,6.489,0,0,1,1005.947-514.071Zm7.9-5.426c3.543.148,6.644.333,9.338.591a33.9,33.9,0,0,1,.518,7.456c0,.628-.149,1-.444,1.07-1.808.517-7.493.739-17.089.739a2.008,2.008,0,0,1-.332-1.292,5.461,5.461,0,0,1,.184-1.513c2.215-.075,6.977-.222,14.359-.48,0-.591-.075-1.662-.148-3.212q-5.758,0-17.053-.664a9.15,9.15,0,0,1-.074-1.4q.056-.774.11-1.328C1006.833-519.533,1010.377-519.5,1013.846-519.5Zm-5.2,25.506a25.117,25.117,0,0,0,3.211-.222,3.445,3.445,0,0,1,.222,1.255v1.477a33.347,33.347,0,0,1-6.128.517,57.7,57.7,0,0,1-.923-6.165,21.257,21.257,0,0,1,2.953-.516Q1008.31-495.763,1008.642-493.991Zm.959-12.66c.037-.739.074-1.366.148-1.957a12.286,12.286,0,0,0,1.513-.11,6.4,6.4,0,0,1,1.44.184c0,.664-.037,1.292-.037,1.956,1.181.037,2.436.074,3.691.111.037-.591.11-1.181.185-1.772a13.926,13.926,0,0,0,1.7-.074,9.532,9.532,0,0,1,1.328.222c0,.59-.036,1.181-.036,1.772l2.435.11a23.547,23.547,0,0,1-.184,2.7c-.849,0-1.661,0-2.4-.037-.073.738-.11,1.476-.147,2.141,1.329,0,2.731.037,4.134.037a5.553,5.553,0,0,1,.148,1.255,12.188,12.188,0,0,1-.074,1.476c-5.832-.111-11.774-.184-17.865-.184a15,15,0,0,1-.185-2.658c1.329,0,2.658.037,4.061.037,0-.886,0-1.7.037-2.473-.849-.037-1.661-.074-2.474-.148v-1.513a10.4,10.4,0,0,0,.074-1.07Zm2.879,5.2c1.182,0,2.362.037,3.544.037a21.2,21.2,0,0,1,.11-2.178c-1.18-.037-2.362-.074-3.543-.147C1012.554-502.961,1012.517-502.185,1012.48-501.447Zm11,4.466a28.444,28.444,0,0,1-1.735,2.584c.96.517,1.92,1.07,2.88,1.587a8.69,8.69,0,0,1-1.477,2.252,58.063,58.063,0,0,1-9.486-4.577,28.993,28.993,0,0,1,1.439-2.584c1.255.59,2.547,1.218,3.8,1.845a32.587,32.587,0,0,1,2.178-2.473A8.325,8.325,0,0,1,1023.48-496.981Z" fill="#007aa7"/>
        <path id="Path_2572" data-name="Path 2572" d="M1039.058-515.7c0,2.658-.037,4.8-.037,6.349,1.993.148,4.024.3,6.017.369v-.406c.037-2.916.147-5.979.3-9.228q.608-.111,1.439-.221a4.848,4.848,0,0,1,1.513.221c.184,3.285.3,6.275.3,9.006v.812q2.767.166,5.536.222c0,.96-.073,1.846-.148,2.732-2.14,0-3.949,0-5.425-.038-.075,3.618-.185,6.866-.332,9.782,2.214.111,4.428.185,6.643.258,0,.96-.073,1.846-.147,2.732-5.426,0-8.9-.037-10.447-.185a53.254,53.254,0,0,1-9.632-.849v-2.547c.036-1.882.183-3.764.405-5.647,1,0,1.993.074,2.953.148,0,2.362-.037,4.207-.074,5.573,2.473.148,4.946.3,7.42.369-.149-3.1-.259-6.348-.259-9.744a2.441,2.441,0,0,1-.554-.037,44.546,44.546,0,0,1-8.748-.849v-3.507a46.142,46.142,0,0,1,.443-5.462C1037.175-515.842,1038.1-515.769,1039.058-515.7Zm19.268,7.05a5.011,5.011,0,0,1-2.732.517,35.856,35.856,0,0,1-.7-7.53c.96-.147,1.919-.222,2.879-.295A71.537,71.537,0,0,1,1058.326-508.645Zm.886,12.366a5.182,5.182,0,0,1-2.732.516,19.87,19.87,0,0,1-.774-5.8c1-.148,1.956-.221,2.879-.295A42.935,42.935,0,0,1,1059.212-496.279Z" fill="#007aa7"/>
        <path id="Path_2573" data-name="Path 2573" d="M1076.377-507.242q-1.44.222-2.769.332c.074,1.4.185,2.732.259,4.023h1.475a8.519,8.519,0,0,1,.149,1.44v1.292a12.808,12.808,0,0,1-3.692.369,25.514,25.514,0,0,1-3.395-.148,3.1,3.1,0,0,1-.259-1.365,11.153,11.153,0,0,1,.185-1.366c.406-.074,1.218-.111,2.472-.185-.184-1.292-.332-2.584-.405-3.839q-1.716.111-3.322.111a27.963,27.963,0,0,1-.332-2.879c1.107-.073,2.251-.184,3.432-.3-.074-1.107-.147-2.252-.184-3.359,1-.074,2.066-.147,3.174-.222.074,1.145.184,2.252.258,3.359.923-.073,1.846-.11,2.806-.184C1076.3-509.272,1076.377-508.276,1076.377-507.242Zm15.17-9.007c.111,2.215.184,4.319.258,6.275,1.919-.073,3.8-.147,5.721-.221.148,1.624.222,3.544.3,5.8a12.025,12.025,0,0,1-2.732.258c-.147-.885-.295-1.771-.516-2.657-.96.037-1.846.037-2.732.037a19.752,19.752,0,0,1-.443,3.949,4.02,4.02,0,0,1-1.439.148,3.449,3.449,0,0,1-1.292-.148,21.027,21.027,0,0,1-.332-3.876c-1.182.038-2.4.038-3.58.038q.22,4.374.22,8.083c1.846,0,3.766.074,5.759.185a10.485,10.485,0,0,1,.147,1.328,3.735,3.735,0,0,1-.221,1.4,15.229,15.229,0,0,1-2.879.147c-2.953,0-4.946-.184-5.98-.627-.258-3.47-.369-6.349-.369-8.563v-1.92c-1.181.037-2.362.037-3.544.037a24.9,24.9,0,0,1-.147-2.731c1.255-.074,2.473-.111,3.654-.185,0-1.255-.037-2.62-.037-4.06q.775-.111,1.439-.222a5.159,5.159,0,0,1,1.514.222c.074,1.366.185,2.658.3,3.913,1.256-.074,2.547-.111,3.8-.185.036-2.067.11-4.208.184-6.423.443-.073.922-.147,1.44-.221A4.69,4.69,0,0,1,1091.547-516.249Z" fill="#007aa7"/>
        <path id="Path_2574" data-name="Path 2574" d="M1106.239-495.689a12.2,12.2,0,0,1-1.7,5.02,5.931,5.931,0,0,1-2.621-.849,17.914,17.914,0,0,1,1.624-5.057A19.132,19.132,0,0,1,1106.239-495.689Zm2.695-8.748v-1.144a23.272,23.272,0,0,1-6.091-.849c-.3-2.363-.479-5.2-.59-8.527.922-.073,1.845-.111,2.731-.184.222,2.1.443,4.282.591,6.57,1.107.074,2.215.148,3.322.148.037-2.215.11-4.541.222-6.9a14.353,14.353,0,0,1-1.957-.332c.037-.849.074-1.661.074-2.473,4.355.222,8.342.48,11.922.812a51.727,51.727,0,0,1-.923,11.295,31.816,31.816,0,0,1-6.274.443c0,.516-.038.959-.038,1.4,1.182.11,2.326.221,3.507.369a13.824,13.824,0,0,1-.3,2.583c-1.18,0-2.288-.037-3.358-.111-.037.37-.074.665-.074.96,1.255-.073,2.51-.184,3.8-.332.111.775.184,1.661.258,2.621-3.211.443-6.68.738-10.446.922a18.692,18.692,0,0,1-.405-2.509q1.992-.222,4.208-.443c-.037-.48-.074-.96-.074-1.44-1.477-.148-2.879-.332-4.208-.591,0-.848.037-1.7.037-2.509Zm-.369-5.5a3.988,3.988,0,0,1-1.92.591,8.093,8.093,0,0,1-.886-3.544,12.944,12.944,0,0,1,1.846-.516A9.818,9.818,0,0,1,1108.565-509.937Zm1.181,14.8a22.84,22.84,0,0,1-.332,3.691,5.725,5.725,0,0,1-1.4.147,2.615,2.615,0,0,1-1.513-.332,14.685,14.685,0,0,1,.295-3.543c.443-.037.96-.074,1.513-.148A6.4,6.4,0,0,1,1109.746-495.135Zm3.839,2.546a5.635,5.635,0,0,1-2.51.775,7.887,7.887,0,0,1-.85-3.4,18.9,18.9,0,0,1,2.474-.7A8.606,8.606,0,0,1,1113.585-492.589Zm-1.624-18.381a19.8,19.8,0,0,1,1.439-2.584,6.257,6.257,0,0,1,2.067.923,13.85,13.85,0,0,1-1.772,3.654,6.273,6.273,0,0,1-1.7-.664v1.328c1.255.037,2.472.037,3.654.037q0-2.436.332-6.422c-1.477-.074-2.843-.185-4.171-.332C1111.886-513.591,1111.923-512.225,1111.961-510.97Zm4.946,18.049a5.176,5.176,0,0,1-2.215.7,8.718,8.718,0,0,1-.849-3.286,16.474,16.474,0,0,1,2.178-.59A7.8,7.8,0,0,1,1116.907-492.921Zm15.65-9.19a34,34,0,0,1,.406,4.982c0,2.51-.074,4.135-.148,4.873a32.213,32.213,0,0,1-8.01.664,14.738,14.738,0,0,1-5.388-.7,21.07,21.07,0,0,1-.664-4.651c-.185-1.7-.3-3.211-.37-4.5a9.826,9.826,0,0,1,1.513-.259,12.48,12.48,0,0,0,1.4.075,37.98,37.98,0,0,1,.627,6.865,11.877,11.877,0,0,0,2.879.332,35.018,35.018,0,0,0,4.947-.3c0-1.55-.111-3.212-.259-4.909a28.3,28.3,0,0,1-3.137-.148,6.62,6.62,0,0,1-2.547-.554,9.111,9.111,0,0,1-.111-1.255,5.213,5.213,0,0,1,.111-1.144A50.04,50.04,0,0,1,1132.557-502.111Zm-6.57-13.658c.073,1.588.147,3.175.221,4.725a49.977,49.977,0,0,1,6.053.369,4.441,4.441,0,0,1,.148,1.218,4.256,4.256,0,0,1-.148,1.292,37.189,37.189,0,0,1-5.979.222c0,1.254.037,2.473.037,3.69a5.135,5.135,0,0,1-1.661.185c-.591,0-1.07,0-1.44-.037-.369-3.765-.59-7.64-.628-11.59a10.382,10.382,0,0,0,1.736-.147C1124.99-515.842,1125.544-515.8,1125.987-515.769Z" fill="#007aa7"/>
      </g>
    </g>
  </g>
</svg>
