<svg xmlns="http://www.w3.org/2000/svg" width="403.038" height="40.39" viewBox="0 0 403.038 40.39">
  <g id="Group_949" data-name="Group 949" transform="translate(-519 -5922.062)">
    <g id="Group_875" data-name="Group 875" transform="translate(250.925 5223.433)">
      <path id="Path_5266" data-name="Path 5266" d="M586.091,731.55V719.4c0-1.572-.025-3.746-1.4-4.809a3.082,3.082,0,0,0-3.22-.16,5.848,5.848,0,0,0-2.318,2.424c-1.064,1.882-2.347,5.954-3.291,7.9-1.85,3.815-1.626,4.172-3.495,0-.819-1.825-2.152-5.619-3.016-7.422-.661-1.372-1.543-2.944-3.162-3.3-2.906-.63-4.118,3.131-4.118,5.339v12.012c0,2.432.42,6.773,3.389,6.771,2.9-.006,3.085-3.337,3.177-5.505.008-.214.31-1.054.757-.129.9,1.848,2.9,5.2,4.827,5.066s2.867-1.567,4.609-4.944c.324-.628.746-.94.811.877.106,3.006,2.066,4.727,3.258,4.727C585.848,738.25,586.091,735.08,586.091,731.55Z" transform="translate(0 0)" fill="#ffd62e"/>
      <path id="Path_5267" data-name="Path 5267" d="M608.051,717.219a8.491,8.491,0,0,0-8.457,9c.081,5.808,4.84,8.58,9.047,8.517a9.412,9.412,0,0,0,5.029-1.391c1.06-.723,2.066-2.486.382-3.262a3.047,3.047,0,0,0-1.362-.177c-1.547.048-3.083.285-4.648.291-3.971.023-3.37-2.769-1.572-2.734,2.665.056,6.125-.22,8.3-1.879,1.4-1.069,1.6-3.256.389-5.05A8.613,8.613,0,0,0,608.051,717.219Zm2.434,7.147c-1.089.364-3.64.607-4.547.081-1.291-.744.256-2.8,2.21-3.131C610.525,720.915,613.034,723.524,610.485,724.366Z" transform="translate(40.478 3.512)" fill="#ffd62e"/>
      <g id="Group_874" data-name="Group 874" transform="translate(588.932 720.87)">
        <path id="Path_5268" data-name="Path 5268" d="M592.376,725.484c-.012-4.75-4.472-8.208-8.659-8.2-4.347.013-9.021,2.717-8.709,8.709.3,5.939,3.736,8.694,7.2,8.669a6.582,6.582,0,0,0,4.613-1.638c.362-.349.977-.79,1.31.094.358.954.946,1.434,1.553,1.43C591.559,734.434,592.387,730.235,592.376,725.484ZM583.081,728a1.645,1.645,0,0,1-1.686-1.95,2.149,2.149,0,0,1,1.753-2.083,1.781,1.781,0,0,1,1.881,1.9A2.072,2.072,0,0,1,583.081,728Z" transform="translate(-574.994 -717.285)" fill="#ffd62e"/>
      </g>
      <path id="Path_5269" data-name="Path 5269" d="M615.027,719.38c-1.231.582-.757-2.229-3.185-2.2-3.214.04-3.357,7.825-3.409,9.966a11.775,11.775,0,0,0,.844,5.453,3.442,3.442,0,0,0,3.305,2.17c2.306-.164,2.5-5.043,2.474-7.345-.025-2.193,2.125-2.532,3.584-3.26,2.054-1.019,3.037-3.2,2.129-4.852C619.914,717.754,617.519,718.2,615.027,719.38Z" transform="translate(50.005 3.469)" fill="#ffd62e"/>
      <path id="Path_5270" data-name="Path 5270" d="M603.979,720.964a2.129,2.129,0,0,1-1.127-2.218,3.758,3.758,0,0,0-.67-1.807,2.89,2.89,0,0,0-2.316-1.085c-.066,0-.133,0-.193,0a3.271,3.271,0,0,0-2.952,1.48,2.9,2.9,0,0,0-.518,1.314c-.121,1.788-.337,1.732-1.553,2.162a4.47,4.47,0,0,0-1.362.856,2.689,2.689,0,0,0-1.141,1.987,2.1,2.1,0,0,0,1.2,1.607,5.076,5.076,0,0,0,1.376.441c1.256.243,1.2.669,1.22,2.335a21.559,21.559,0,0,0,.513,4.761c.4,1.715,1.183,3.212,2.757,3.4,1.035.125,3.158-.574,3.187-3.929.017-1.5.073-3,.073-4.505a1.523,1.523,0,0,1,1.114-1.7c1.359-.362,2.646-.906,2.663-2.59C606.261,722.127,605.1,721.474,603.979,720.964Z" transform="translate(32.445 2.037)" fill="#ffd62e"/>
      <path id="Path_5271" data-name="Path 5271" d="M598.5,729.5c-.268-2.933-3.414-4.414-5.973-5.351-1.164-.426-2.025-.817-2.025-1.678,0-.289.293-1.087,1.453-1.135,1.742-.067,3.162,1.36,4.9,1.376a1.516,1.516,0,0,0,1.054-.366c.817-.782.3-2.42-.312-3.164-1.359-1.651-4.293-2.083-6.282-2.068-.143,0-.287,0-.43.008a9.537,9.537,0,0,0-3.9.9,3.907,3.907,0,0,0-1.713,1.6,4.623,4.623,0,0,0,1.145,5.27c1.534,1.628,3.742,1.8,5.422,3.164a1.667,1.667,0,0,1,.528.628.731.731,0,0,1-.094.773c-.684.719-2.351-.106-3.012-.447-1.092-.559-3.526-1.64-4.622-.536a1.783,1.783,0,0,0-.322,1.634A4.951,4.951,0,0,0,586.3,733a11.059,11.059,0,0,0,6.436,1.846C595.776,734.768,598.815,732.916,598.5,729.5Z" transform="translate(23.931 3.4)" fill="#ffd62e"/>
    </g>
    <g id="Group_876" data-name="Group 876" transform="translate(-746.86 6257.691)">
      <path id="Path_5272" data-name="Path 5272" d="M1283.386-335.273c.1,1.272.147,2.447.244,3.573,2.743.1,5.043.245,6.854.489a6.093,6.093,0,0,1,.2,1.665,6.106,6.106,0,0,1-.2,1.763c-.489.2-2.693.342-6.658.342.1,2.154.147,4.309.147,6.365a7.313,7.313,0,0,0,1.077-.1c3.28-2.791,6.609-5.63,10.037-8.518a12.825,12.825,0,0,1,2.791,2.594c-1.861,1.81-3.77,3.573-5.679,5.336,2.791-.245,5.58-.489,8.323-.686a14.66,14.66,0,0,1,.44,3.624c-4.7.735-9.351,1.321-13.953,1.812-5.776,5.091-11.945,10.182-18.407,15.274a6.308,6.308,0,0,1-2.447-2.938c4.259-3.819,8.665-7.686,13.218-11.652-4.211.393-8.47.637-12.681.784a6.782,6.782,0,0,1-.832-3.722c4.6-.489,9.3-.978,14.052-1.419q-.442-3.378-.589-6.756c-5.727,0-8.86-.146-9.449-.342a4.51,4.51,0,0,1-.244-1.763,7.739,7.739,0,0,1,.344-1.909c2.838-.1,5.873-.147,9.105-.2-.049-1.175-.1-2.35-.1-3.525a12.694,12.694,0,0,0,2.252-.195C1282.065-335.371,1282.8-335.322,1283.386-335.273Zm12.973,29.13a57.591,57.591,0,0,1-11.6,1.37c-.048,2.106-.1,3.329-.146,3.72a79.424,79.424,0,0,0,8.323.637,20.287,20.287,0,0,1-.244,3.427,27.72,27.72,0,0,1-5.581.344,17.788,17.788,0,0,1-6.267-.931c-.295,0-.44-2.35-.44-7.148a58.045,58.045,0,0,1,.586-6.022,31.7,31.7,0,0,1,3.77.245v2.007c3.673-.489,7.491-.93,11.408-1.273C1296.263-308.641,1296.359-307.417,1296.359-306.143Z" transform="translate(0 0.084)" fill="#007aa7"/>
      <path id="Path_5273" data-name="Path 5273" d="M1303.318-327.258c.2,4.015.344,7.735.344,11.064a38.046,38.046,0,0,1-.491,6.218,6.714,6.714,0,0,1-1.763.147,5.458,5.458,0,0,1-1.565-.147,27.98,27.98,0,0,1-.54-5.925c.049-3.622.2-7.392.391-11.358.489-.1,1.078-.146,1.763-.244A7.481,7.481,0,0,1,1303.318-327.258Zm13.463-6.315a133.061,133.061,0,0,1-1.026,14.687,5.959,5.959,0,0,1-3.576.93,36.259,36.259,0,0,1-5.58-.342c-.147-.1-.293-.539-.442-1.322v-1.566c1.862-.2,3.771-.44,5.681-.832.049-.588.1-1.224.195-1.812a29.5,29.5,0,0,1-7-1.224c.049-1.175.1-2.3.1-3.426a64.759,64.759,0,0,1,7.293.783c.049-.832.147-1.714.245-2.594-1.224-.294-4.5-.833-9.891-1.616a8.176,8.176,0,0,1-.195-2.057,13.316,13.316,0,0,1,.294-1.665A50.285,50.285,0,0,1,1316.78-333.573Zm-.342,37.7a82.8,82.8,0,0,1-9.84.637,76.509,76.509,0,0,1-1.126-9.007c3.427-.2,7-.344,10.673-.442Q1316.437-300.282,1316.438-295.876Zm-6.414-2.889,2.6-.342-.293-2.252-2.743.245Zm14.59-31.382c0,1.126,0,2.2.049,3.232,1.763.1,3.624.244,5.581.489a8.1,8.1,0,0,1-.686,3.329,44.392,44.392,0,0,1-4.847-.2v3.134h7a8.549,8.549,0,0,1,.2,1.517,12.625,12.625,0,0,1-.1,1.566c-.93.489-3.182.733-6.706.733a11.085,11.085,0,0,1-1.324-.049q.294,4.7.294,9.253c-4.112.393-8.274.589-12.387.589a87.519,87.519,0,0,1-1.174-9.694c3.575-.2,7.245-.293,11.016-.391a1.63,1.63,0,0,1-.637-.2c-.44-.881-.686-3.035-.686-6.511.1-2.154.245-4.455.489-6.806.637-.1,1.273-.195,1.861-.293A8.66,8.66,0,0,1,1324.614-330.147Zm-9.4,19.975,4.945-.342-.293-2.742-5.141.244Zm15.177,5.239c.1,1.174.2,2.447.2,3.819a28.434,28.434,0,0,1-.391,4.7,56.523,56.523,0,0,1-6.9.344,12.69,12.69,0,0,1-3.868-.54,22.112,22.112,0,0,1-.292-3.817q.071-1.836.292-4.553c1.568-.049,3.476-.1,5.73-.2A51.455,51.455,0,0,1,1330.391-304.933Zm-7.246,5.385h3.28v-2.2h-3.28Zm14.1-33.536c.489,8.958.784,16.988.784,24.136a35.188,35.188,0,0,1-5.385.489,12.709,12.709,0,0,1-.343-3.084l1.615-.44a132.036,132.036,0,0,0-1.175-17.479,30.487,30.487,0,0,1-6.657-.733,7.317,7.317,0,0,1-.2-1.91,13.612,13.612,0,0,1,.2-1.714A92.518,92.518,0,0,1,1337.245-333.083Z" transform="translate(10.915)" fill="#007aa7"/>
      <path id="Path_5274" data-name="Path 5274" d="M1337.607-315.364l-.245,3.77c-.489,6.855-.733,10.624-.832,11.212a5.688,5.688,0,0,1-2.056.342,8.2,8.2,0,0,1-2.008-.244,167.018,167.018,0,0,1,.637-18.653c.489-6.953.98-11.065,1.371-12.289.881-.1,1.517-.2,1.859-.2a5.216,5.216,0,0,1,2.2.538C1338.537-329.9,1338.195-324.764,1337.607-315.364Zm27.171,12.582a3.691,3.691,0,0,1-1.909.489,4.714,4.714,0,0,1-2.056-.342c-.44-8.519-.735-15.274-.833-20.317-6.071,2.742-10.427,4.847-13.169,6.218q-2.789-.955-7.637-5.434a13.227,13.227,0,0,1,.832-1.764,5.044,5.044,0,0,1,1.371-1.419,43.11,43.11,0,0,1,5.532,3.575,79.85,79.85,0,0,1,17.332-7.148c0,.489.1,2.545.342,6.217.2,3.72.293,8.176.293,13.268C1364.876-306.355,1364.827-304.152,1364.778-302.782Z" transform="translate(21.716 1.373)" fill="#007aa7"/>
      <path id="Path_5275" data-name="Path 5275" d="M1388.641-300.139a8.327,8.327,0,0,1-2.252-.293,67.442,67.442,0,0,0-1.909-16.058,33.833,33.833,0,0,0-2.594-6.609c-1.568-2.838-3.232-4.308-4.946-4.308-1.419,0-3.231,1.37-5.483,4.113a37.457,37.457,0,0,0-6.217,11.554l12.189,1.909a9.68,9.68,0,0,1,.2,1.763,4.018,4.018,0,0,1-.539,1.861,127.263,127.263,0,0,1-13.268-1.47l-2.106,7.588a10.6,10.6,0,0,1-3.719-.637,51.987,51.987,0,0,1,4.162-15.422,46.329,46.329,0,0,1,5.629-9.448c3.133-3.966,6.169-5.973,9.107-5.973,2.74,0,5.287,1.517,7.588,4.454a26.8,26.8,0,0,1,3.966,8.03c1.516,4.945,2.2,11.163,2.1,18.7A17.444,17.444,0,0,1,1388.641-300.139Z" transform="translate(30.069 1.325)" fill="#007aa7"/>
      <path id="Path_5276" data-name="Path 5276" d="M1409.248-325.414a3.013,3.013,0,0,1-1.273,1.322c-6.071-2.1-10.77-3.182-14.148-3.182a9.507,9.507,0,0,0-4.553.979,3.66,3.66,0,0,0-2.1,3.378c0,.979,1.273,2.007,3.868,3.182a83.265,83.265,0,0,1,8.03,3.966c2.984,2.1,4.5,4.7,4.5,7.784a7.1,7.1,0,0,1-3.035,5.924,9.881,9.881,0,0,1-6.267,2.1c-4.308,0-8.029-1.861-11.114-5.678.2-.98,1.029-1.861,2.5-2.742a28.984,28.984,0,0,0,4.161,3.035,8.866,8.866,0,0,0,4.455,1.126,5.359,5.359,0,0,0,3.329-1.126,3.459,3.459,0,0,0,1.519-2.742c0-2.056-1.273-3.72-3.82-5.043-1.761-.783-4.406-1.958-7.833-3.622-3.035-1.517-4.552-3.476-4.552-5.925a7.615,7.615,0,0,1,3.622-6.853,13.12,13.12,0,0,1,7.491-2.007,33.047,33.047,0,0,1,7.93,1.174,28.524,28.524,0,0,1,7.784,3.085A3.893,3.893,0,0,1,1409.248-325.414Z" transform="translate(38.2 1.337)" fill="#007aa7"/>
      <path id="Path_5277" data-name="Path 5277" d="M1433.958-327.394c-1.272.489-8.812.735-22.666.735-3.527,0-5.974-.049-7.344-.2a5.276,5.276,0,0,1-.44-1.958c0-.294.049-.833.146-1.714,1.419-.489,7.1-.784,16.988-.784,7.932,0,12.338.147,13.317.44a4.93,4.93,0,0,1,.293,1.861A4.3,4.3,0,0,1,1433.958-327.394ZM1420.2-300.517a5.537,5.537,0,0,1-2.007-.1c-.589-1.665-1.273-8.469-2.1-20.317a4.418,4.418,0,0,1,2.2-.635,7.255,7.255,0,0,1,1.761.244,70.94,70.94,0,0,1,1.419,9.938,87.025,87.025,0,0,1,.491,10.232A4.068,4.068,0,0,1,1420.2-300.517Z" transform="translate(44.923 1.41)" fill="#007aa7"/>
      <path id="Path_5278" data-name="Path 5278" d="M1448.748-301.08a38.8,38.8,0,0,1-8.274.637c-1.761,0-3.77-.049-6.022-.245-3.182-.195-5.043-.489-5.532-.881-.784-1.861-1.125-5.092-1.125-9.742a87.857,87.857,0,0,1,.733-12.24,6.748,6.748,0,0,1,1.812-.245,3.087,3.087,0,0,1,2.1.637l-.147,4.748c7.148.393,11.457.686,12.827.784a2.955,2.955,0,0,1,.391,1.566,13.208,13.208,0,0,1-.342,2.252c-1.468.1-2.5.1-2.987.1-1.566,0-3.329,0-5.336-.1q-3.3-.147-4.553-.147a53.379,53.379,0,0,0,.393,8.716,48.453,48.453,0,0,0,7.93.391,75.985,75.985,0,0,1,7.932.293,3.193,3.193,0,0,1,.44,1.714A7.267,7.267,0,0,1,1448.748-301.08Zm5.581-25.7c-2.791.146-8.958.2-18.458.2-3.524,0-6.022-.049-7.441-.146a7.568,7.568,0,0,1,.147-4.113c4.6-.245,8.958-.391,13.12-.391,4.553,0,8.814.2,12.729.539.1.93.195,1.566.195,1.861A6.946,6.946,0,0,1,1454.329-326.782Z" transform="translate(52.849 1.434)" fill="#007aa7"/>
      <path id="Path_5279" data-name="Path 5279" d="M1454.567-314.972c-.391,9.5-.537,14.345-.537,14.639a7.654,7.654,0,0,1-1.959.293,8.99,8.99,0,0,1-1.909-.2q-.3-5.656-.294-8.519c0-10.623.342-18.114,1.125-22.52a10.611,10.611,0,0,1,1.861-.147,7.533,7.533,0,0,1,2.2.491C1455.057-329.757,1454.86-324.469,1454.567-314.972Zm21.443,1.763a9.348,9.348,0,0,1-4.748,3.673,54.822,54.822,0,0,1,3.818,6.118A4.355,4.355,0,0,1,1472-301.41c-.93-.538-2.789-2.938-5.531-7.2-.931.049-1.813.049-2.645.049a28.324,28.324,0,0,1-4.455-.44,12.086,12.086,0,0,1-.1-1.566,8.558,8.558,0,0,1,.391-2.2,42.645,42.645,0,0,0,8.714-.586c3.477-.882,5.238-2.791,5.238-5.778,0-4.5-5.384-7.148-16.106-8.03a10.32,10.32,0,0,1-.245-1.86,8.507,8.507,0,0,1,.393-2.056,37.281,37.281,0,0,1,12.778,2.447c4.943,2.1,7.441,5.336,7.441,9.644A10.128,10.128,0,0,1,1476.01-313.21Z" transform="translate(60.053 1.373)" fill="#007aa7"/>
    </g>
  </g>
</svg>
