<svg xmlns="http://www.w3.org/2000/svg" width="232.443" height="96.5" viewBox="0 0 232.443 96.5">
  <g id="Group_782" data-name="Group 782" transform="translate(0 -71.14)">
    <g id="Group_705" data-name="Group 705" transform="translate(30.18 133.856)">
      <path id="Path_4309" data-name="Path 4309" d="M1882.394-652c-.554.711-1.106,1.381-1.659,2.053a13.215,13.215,0,0,1-1.814,2.012,4.891,4.891,0,0,1-2.685-2.171c.632-.671,1.224-1.342,1.816-1.973.79-.868,1.381-1.461,1.776-1.815A15.438,15.438,0,0,1,1882.394-652Zm6-18.983a28.943,28.943,0,0,1,.632,6.709c0,4.42-.119,7.617-.316,9.63a6.438,6.438,0,0,1-3.789.79,39.517,39.517,0,0,1-7.539-.553c-.276-2.289-.473-5.17-.631-8.643a68.826,68.826,0,0,1,.553-7.066h3.078v3.907c1.183.04,2.328.079,3.395.079a5.441,5.441,0,0,1,.157,1.185,5.94,5.94,0,0,1-.157,1.3c-.632.079-1.738.118-3.355.2v1.776l3.355-.119a4.929,4.929,0,0,1,.118,1.145,5.035,5.035,0,0,1-.118,1.184,17.015,17.015,0,0,1-3.355.474c0,.71.039,1.342.039,1.895a24.185,24.185,0,0,0,3.947.276.956.956,0,0,0,.907-.395c0-1.342-.079-5.013-.236-11.051a27.339,27.339,0,0,1-3.671-.711,12.267,12.267,0,0,1,.276-2.643A51.514,51.514,0,0,1,1888.393-670.987Zm-.079,20.6a4.549,4.549,0,0,1-1.618,2.131,14.224,14.224,0,0,1-3.474-1.934,13.545,13.545,0,0,1,1.382-2.17A16.845,16.845,0,0,1,1888.313-650.384Zm6.2-24.351c0-.513,0-1.026.04-1.54a13.406,13.406,0,0,1,1.421-.2,5.736,5.736,0,0,1,1.5.2c0,.553.041,1.1.08,1.578,1.1.04,2.209.08,3.315.08.078-.513.118-1.027.2-1.5a15.5,15.5,0,0,0,1.854-.079,9.987,9.987,0,0,1,1.46.236c0,.513-.038.987-.038,1.461.868.039,1.776.079,2.684.119a17.414,17.414,0,0,1-.237,2.763c-.907,0-1.776,0-2.6-.039-.04.631-.079,1.184-.12,1.7.75.04,1.5.079,2.289.079a22.056,22.056,0,0,1-.2,2.684c-.79,0-1.579,0-2.289-.04-.078.75-.117,1.461-.2,2.131,1.224.118,2.487.236,3.75.315a21.674,21.674,0,0,1-.2,2.644c-2.29,0-4.58-.038-6.829-.157v1.539c1.974.158,3.985.355,6.078.592q.237,4.143.355,7.7c.435,0,.868,0,1.342-.041a5.069,5.069,0,0,1,.158,1.224,10.566,10.566,0,0,1-.078,1.459c-.475.04-.948.079-1.382.079v.119a7.569,7.569,0,0,1-.237,2.131c-.158.315-1.342.474-3.593.474a4.418,4.418,0,0,1-.395-1.776,4.9,4.9,0,0,0,.869-.236v-.474c-3.039.158-6.079.276-9.077.355,0,.553.039,1.1.039,1.618a4.025,4.025,0,0,1-1.54.2,13.121,13.121,0,0,1-1.342-.039c-.078-.553-.157-1.144-.2-1.737-.593.039-1.185.039-1.736.039a13.969,13.969,0,0,1-.238-2.644c.554,0,1.066-.039,1.619-.079-.238-2.408-.395-4.855-.434-7.342a8.542,8.542,0,0,0,1.618-.157c.592,0,1.1.039,1.539.079.276,2.407.474,4.815.592,7.261l2.644-.118v-1.737a15.91,15.91,0,0,1-2.17-.474c.039-.868.078-1.7.078-2.565.711.039,1.421.079,2.092.158,0-.513.04-1.026.04-1.5-.631-.08-1.222-.158-1.776-.277a16.456,16.456,0,0,1,.277-2.446c.512,0,1.026.038,1.578.038,0-.552.04-1.1.08-1.618-2.407-.158-4.815-.355-7.183-.632v-1.5a9.742,9.742,0,0,0,.079-1.066c3.078,0,6.394.119,10.024.355,0-.67.039-1.3.079-1.933-.828,0-1.617,0-2.408-.039a2.151,2.151,0,0,1-.551,1.263,5.4,5.4,0,0,1-1.42.119,4.424,4.424,0,0,1-1.264-.119,2.088,2.088,0,0,1-.277-1.1v-.277c-.71,0-1.42-.039-2.092-.079v-1.539a9.619,9.619,0,0,0,.079-1.106h2.092c0-.553,0-1.144.039-1.776-1.1-.039-2.21-.078-3.275-.157v-1.54a11.121,11.121,0,0,0,.078-1.144C1892.26-674.775,1893.366-674.736,1894.51-674.736Zm6.078,3c-1.026,0-1.973,0-2.881-.079,0,.632.04,1.185.04,1.7.868.04,1.775.079,2.684.079C1900.47-670.592,1900.508-671.183,1900.587-671.736Zm-.276,15.432c.75.119,1.5.237,2.21.355a12.944,12.944,0,0,1-.315,2.606,15.6,15.6,0,0,1-1.974-.08,11.724,11.724,0,0,0-.04,1.185c1.066,0,2.172-.04,3.276-.119-.078-1.737-.2-3.513-.315-5.249a21.754,21.754,0,0,1-2.8-.2C1900.312-657.292,1900.312-656.779,1900.312-656.3Z" transform="translate(-1876.236 678.17)" fill="#007aa7"/>
      <path id="Path_4310" data-name="Path 4310" d="M1924.922-672.9c.039.553.08,1.066.158,1.54,1.106,0,2.21-.04,3.354-.079.041-.553.12-1.1.2-1.618.434-.079.908-.119,1.381-.2a4.179,4.179,0,0,1,1.224.2c.04.592.078,1.144.157,1.618a81.852,81.852,0,0,1,8.722.869,9.877,9.877,0,0,1,.553,3.63,29.005,29.005,0,0,1-.394,5.171c-.79.631-3.316.946-7.656.946-9.394-.236-15.432-.789-18.116-1.737a18.013,18.013,0,0,1-.395-4.577,29.542,29.542,0,0,1,.473-3.158q.712-.119,1.658-.237a5.94,5.94,0,0,1,1.736.237,48.175,48.175,0,0,1-.236,5.367c4.578.475,9.393.711,14.444.751,1.7,0,3.355,0,5.013-.079-.079-1.1-.158-2.289-.237-3.473-1.737-.158-3.551-.315-5.407-.434v.039a13.125,13.125,0,0,1-.314,3.2,2.541,2.541,0,0,1-1.224.2,2.877,2.877,0,0,1-1.381-.2,9.413,9.413,0,0,1-.473-3.2v-.2c-.948,0-1.934-.039-2.921-.079v.435a9.489,9.489,0,0,1-.316,2.723,2.485,2.485,0,0,1-1.222.236,2.678,2.678,0,0,1-1.381-.236,6.729,6.729,0,0,1-.475-2.723,2.2,2.2,0,0,1,.04-.513h-1.5a4.737,4.737,0,0,1-.2-1.5,9.024,9.024,0,0,1,.2-1.3c.553,0,1.144-.04,1.736-.04.039-.553.119-1.066.2-1.579.433-.078.907-.118,1.381-.2A4.2,4.2,0,0,1,1924.922-672.9Zm-4.262,23.76a13.075,13.075,0,0,1-1.618,1.736c-.316.276-.632.553-.947.868q-.473.356-1.067.83a9.13,9.13,0,0,1-2.407-2.211,29.817,29.817,0,0,1,3.394-3.2A11.248,11.248,0,0,1,1920.66-649.139Zm18.116-5.92a4.433,4.433,0,0,1,.119,1.224,4.339,4.339,0,0,1-.119,1.3,42.388,42.388,0,0,1-6.591.236h-3.118c.395,2.447.632,4.973.79,7.5a7.507,7.507,0,0,1-3.158.474,28.6,28.6,0,0,1-3.158-.157,6.315,6.315,0,0,1-.316-2.013c1.105-.039,2.172-.079,3.237-.119a35.056,35.056,0,0,1-.75-5.683,94.1,94.1,0,0,1-9.709-.236,3.882,3.882,0,0,1-.158-1.3,4.119,4.119,0,0,1,.237-1.421c4.894-.079,10.26-.119,16.1-.2A47.449,47.449,0,0,1,1938.776-655.06Zm-.947-21.864a6.365,6.365,0,0,1,.118,1.42,5.8,5.8,0,0,1-.118,1.5c-.514.2-3.078.276-7.657.276-8.013,0-12.392-.078-13.1-.276a4.034,4.034,0,0,1-.2-1.5,6.551,6.551,0,0,1,.276-1.618q5.92-.119,13.025-.237A55.97,55.97,0,0,1,1937.829-676.924Zm-3.078,17.6a4.711,4.711,0,0,1,.118,1.223,4.407,4.407,0,0,1-.118,1.3,42.944,42.944,0,0,1-6.59.237,68.323,68.323,0,0,1-8.487-.237,3.02,3.02,0,0,1-.2-1.3,4.781,4.781,0,0,1,.276-1.381c2.527-.079,5.328-.157,8.407-.2A48.688,48.688,0,0,1,1934.751-659.322Zm4.776,10.458a14.55,14.55,0,0,1-1.619,2.961,27.917,27.917,0,0,1-5.052-2.092,8.628,8.628,0,0,1,1.658-2.881A41.61,41.61,0,0,1,1939.526-648.863Z" transform="translate(-1873.613 678.109)" fill="#007aa7"/>
      <path id="Path_4311" data-name="Path 4311" d="M1957.372-667.916a16.2,16.2,0,0,1-6.591,3.156,8.491,8.491,0,0,1-1.421-2.6,45.388,45.388,0,0,1,6.708-3.237A9.9,9.9,0,0,1,1957.372-667.916Zm.039-7.617a7.98,7.98,0,0,1-.631,3.118,30.572,30.572,0,0,1-6.867-.553,18.373,18.373,0,0,1,.434-3.118A52.7,52.7,0,0,1,1957.411-675.533Zm12.946,4.1c-.316.751-.592,1.461-.909,2.171,1.5.513,2.921,1.026,4.342,1.579a7.771,7.771,0,0,1-1.263,2.724,20.893,20.893,0,0,1-4.342-1.342q-.354.889-.71,1.657c1.7.119,3.433.237,5.17.395.158,1.579.238,2.96.238,4.1a100.15,100.15,0,0,1-.238,10.1,60.626,60.626,0,0,1-10.458.672h-.789a24.693,24.693,0,0,1-1.736,4.617,6.629,6.629,0,0,1-3.118-.67,27.3,27.3,0,0,1,1.223-4.065,22.939,22.939,0,0,1-4.026-.513,86.464,86.464,0,0,1-.987-13.853h3c.079,1.026.117,2.013.157,2.96.632,0,1.421-.039,2.447-.078a16.707,16.707,0,0,1,2.25.119,7.81,7.81,0,0,1,.157,1.42v1.263a9.971,9.971,0,0,1-2.565.237c-.868,0-1.579,0-2.092-.039a8.835,8.835,0,0,0,.04,1.065c.631,0,1.421-.039,2.288-.078,1.342,0,2.369.039,3.157.078a8.7,8.7,0,0,1,.158,1.422v1.3a14.738,14.738,0,0,1-3.473.277c-.83,0-1.5,0-2.014-.04,0,.434.04.829.04,1.223a37.85,37.85,0,0,0,5.8.315,69.852,69.852,0,0,0,7.3-.276c-.079-3-.119-5.919-.157-8.762a76.259,76.259,0,0,1-10.538-.671v-2.841c1.737,0,3.512.039,5.368.119a60.531,60.531,0,0,1,2.96-7.223A21.182,21.182,0,0,1,1970.357-671.43Zm-3.908-5.723c-.157.4-.314.79-.474,1.145,3.867.315,7.775.75,11.722,1.382a15.451,15.451,0,0,1-.71,3.315,7.647,7.647,0,0,1-1.3,2.882,4.675,4.675,0,0,1-2.841-1.066c.237-.829.395-1.578.552-2.289-3.2-.395-6.156-.749-8.88-1.1-.553,1.184-1.144,2.288-1.776,3.394a8.281,8.281,0,0,1-2.882-1.223c1.026-2.368,2.172-4.815,3.513-7.342A9.555,9.555,0,0,1,1966.449-677.152Zm4.381,30.074a7.574,7.574,0,0,1-1.1,2.685,7.3,7.3,0,0,1-4.3-1.659,26.726,26.726,0,0,1,.869-2.841A11.969,11.969,0,0,1,1970.83-647.078Z" transform="translate(-1871.172 678.06)" fill="#007aa7"/>
      <path id="Path_4312" data-name="Path 4312" d="M1987.124-672.529a13,13,0,0,1,.394-2.6c.474-.04.987-.078,1.578-.157a4.868,4.868,0,0,1,1.54.236,24.06,24.06,0,0,1-.2,2.842c1.46.157,2.921.276,4.342.434a15.78,15.78,0,0,1-.394,3.118,83.129,83.129,0,0,1-12.985-1.026,14.767,14.767,0,0,1,.355-3.237C1983.571-672.8,1985.346-672.686,1987.124-672.529Zm6.787,24.234a37.171,37.171,0,0,1-9.511,1.3c-.79-1.776-1.3-4.658-1.46-8.6a50.866,50.866,0,0,1,10.182-1.144A46.014,46.014,0,0,1,1993.911-648.3ZM1990-661.241c0,.474-.04.947-.078,1.461a4.914,4.914,0,0,1-.356,1.538c-1.025,0-2.091-.038-3.156-.119a20.412,20.412,0,0,1-3.355-.552c.079-.987.2-2.013.355-3.118C1985.7-661.873,1987.873-661.6,1990-661.241Zm1.578-5.525a9.058,9.058,0,0,1,.159,1.539v1.382a13.429,13.429,0,0,1-2.96.236,26.979,26.979,0,0,1-3.631-.157,2.848,2.848,0,0,1-.315-1.461,6.954,6.954,0,0,1,.237-1.461c.551-.078,1.854-.157,3.868-.236A21.428,21.428,0,0,1,1991.582-666.766Zm-.986,16.1-.632-3-3.433.474.71,3.118Zm22.536-16.379c-.395,4.815-.907,9.551-1.54,14.129.71.237,1.5.434,2.369.632a9.578,9.578,0,0,1-.395,2.526,16.213,16.213,0,0,1-5.881-1.382c.434-4.341.947-8.682,1.54-13.064-1.737-.118-3.394-.314-5.013-.552q-.117,2.6-.355,5.092c1.026,0,1.854,0,2.565-.041a9.2,9.2,0,0,1,.158,1.54v1.421a17.536,17.536,0,0,1-3,.315c-.316,2.92-.67,5.841-1.1,8.761a3.349,3.349,0,0,1-1.539.2,3.666,3.666,0,0,1-1.579-.276c.118-2.921.316-5.8.593-8.6a20.621,20.621,0,0,1-2.684-.158,2.76,2.76,0,0,1-.315-1.461,7.4,7.4,0,0,1,.236-1.459,27.6,27.6,0,0,1,3.118-.2c.236-1.894.474-3.788.75-5.643-1.736-.276-3.394-.631-4.972-1.026a22.146,22.146,0,0,1,.434-2.683C2001.648-668.5,2007.173-667.871,2013.132-667.043Z" transform="translate(-1868.953 678.252)" fill="#007aa7"/>
    </g>
    <g id="Group_162" data-name="Group 162" transform="translate(0 49.578)">
      <g id="Group_159" data-name="Group 159" transform="translate(0 26.626)">
        <path id="Path_1885" data-name="Path 1885" d="M1347.242-261.582c-1.817.7-12.58,1.049-32.354,1.049-5.032,0-8.527-.07-10.483-.28a7.53,7.53,0,0,1-.628-2.794c0-.42.07-1.189.208-2.446,2.027-.7,10.134-1.119,24.25-1.119,11.319,0,17.61.21,19.007.63a7.062,7.062,0,0,1,.418,2.654A6.173,6.173,0,0,1,1347.242-261.582Zm-19.636,38.363a7.955,7.955,0,0,1-2.866-.138c-.839-2.378-1.817-12.09-3-29a6.317,6.317,0,0,1,3.145-.907,10.375,10.375,0,0,1,2.516.348c.628,2.236,1.327,6.988,2.025,14.186a124.047,124.047,0,0,1,.7,14.6A5.8,5.8,0,0,1,1327.606-223.219Z" transform="translate(-1303.777 267.173)" fill="#52362b"/>
        <path id="Path_1886" data-name="Path 1886" d="M1337.17-256.2a10.363,10.363,0,0,1-3.631-.909,6.216,6.216,0,0,1-3.074-1.956,13.457,13.457,0,0,1,1.746-4.752,11.806,11.806,0,0,1,3.425.909,12.609,12.609,0,0,1,3.074,1.818A19.7,19.7,0,0,1,1337.17-256.2Zm-.208,30.329a5.711,5.711,0,0,1-2.586.489,7.079,7.079,0,0,1-2.446-.278c-.559-1.119-.837-5.941-.837-14.4,0-.21-.072-1.049-.072-2.586v-3.285a20.944,20.944,0,0,1,.559-5.661,8.065,8.065,0,0,1,2.588-.418,6.576,6.576,0,0,1,2.724.7c.278,1.119.49,5.521.559,13.347C1337.451-230.831,1337.313-226.848,1336.962-225.869Z" transform="translate(-1279.94 270.173)" fill="#52362b"/>
        <path id="Path_1887" data-name="Path 1887" d="M1353.089-231.118a15.574,15.574,0,0,1-9.641-3.075,10.7,10.7,0,0,1-4.752-9.153,13.18,13.18,0,0,1,4.123-9.994,13.923,13.923,0,0,1,10.062-4.051,16.913,16.913,0,0,1,6.288,1.327,11.672,11.672,0,0,1,5.521,4.542q-.835.838-1.676,1.677a4.445,4.445,0,0,1-2.1,1.189,12.729,12.729,0,0,0-8.315-3.147,7.651,7.651,0,0,0-5.8,2.446,8.69,8.69,0,0,0-2.306,6.081,5.64,5.64,0,0,0,2.726,4.752,9.172,9.172,0,0,0,5.8,2.026c1.96,0,4.752-1.189,8.525-3.7,1.119.278,2.238,1.327,3.495,3.285C1361.407-233,1357.423-231.118,1353.089-231.118Z" transform="translate(-1272.588 275.91)" fill="#52362b"/>
        <path id="Path_1888" data-name="Path 1888" d="M1371.727-242.26c-4.75,2.236-8.733,4.051-11.947,5.31,0,2.026-.07,3.983-.07,5.939a27.558,27.558,0,0,1-.559,5.661,4.419,4.419,0,0,1-2.586.629,6.7,6.7,0,0,1-2.444-.348c-.56-1.259-.771-4.752-.771-10.552,0-9.153.351-18.657,1.12-28.511a7.88,7.88,0,0,1,2.8-.418,8.72,8.72,0,0,1,2.515.35c.278,1.4.278,8.245.07,20.4q6.812-3.041,19.285-7.966c1.049.7,1.818,2.1,2.376,4.121C1380.953-246.8,1377.668-245.056,1371.727-242.26Zm5.312,16.98c-1.049-.14-3-1.677-5.941-4.682-2.794-2.794-4.472-4.822-4.96-6.011a6.752,6.752,0,0,1,3.425-3.563c.977.35,2.863,1.958,5.8,4.892a46.867,46.867,0,0,1,5.1,6.009A7.265,7.265,0,0,1,1377.04-225.28Z" transform="translate(-1259.5 269.514)" fill="#52362b"/>
        <path id="Path_1889" data-name="Path 1889" d="M1396.48-242.236q-4.612,1.678-21.383,2.308,2.309,3.561,7.966,3.563a19.025,19.025,0,0,0,4.474-.558,7.512,7.512,0,0,1,1.116,3.493,3.444,3.444,0,0,1-.278,1.329,18.022,18.022,0,0,1-6.219,1.117,14.744,14.744,0,0,1-9.644-3.215,10.846,10.846,0,0,1-4.472-9.083,13.391,13.391,0,0,1,4.264-10.342,15.139,15.139,0,0,1,10.688-3.913,16.06,16.06,0,0,1,10.064,3.215,11.816,11.816,0,0,1,4.333,9.5C1397.391-243.283,1397.041-242.445,1396.48-242.236Zm-6.708-7.2q-2.306-2.516-6.709-2.516a9.562,9.562,0,0,0-5.8,1.816,7.827,7.827,0,0,0-3,4.962c2.1-.14,7.826-.558,17.12-1.4A7.051,7.051,0,0,0,1389.773-249.432Z" transform="translate(-1246.378 275.778)" fill="#52362b"/>
        <path id="Path_1890" data-name="Path 1890" d="M1415.365-247.265a21.822,21.822,0,0,1-4.68.42c-1.189,0-2.8,0-4.892-.14-2.238-.14-3.915-.21-4.892-.21a93.164,93.164,0,0,0-1.189,13q0,1.258,1.047,1.259c.072,0,.911,0,2.446-.14,1.539,0,2.8-.07,3.845-.07a6.071,6.071,0,0,1,.7,4.262,27.163,27.163,0,0,1-9.714,1.4c-2.235,0-3.495-.21-3.773-.769-.42-.7-.558-2.1-.558-4.333a130.554,130.554,0,0,1,1.187-14.744c-2.166-.07-5.87-.28-11.039-.559a6.934,6.934,0,0,1-.49-2.1,11.5,11.5,0,0,1,.558-2.656c4.055-.14,7.967-.28,11.88-.28.28-1.677.979-4.752,1.957-9.154a19.744,19.744,0,0,1,4.962.839c0,1.047-.35,3.843-.91,8.385a135.872,135.872,0,0,1,13.7,1.4,20.63,20.63,0,0,1,.278,2.166A6.523,6.523,0,0,1,1415.365-247.265Z" transform="translate(-1232.696 271.723)" fill="#52362b"/>
      </g>
      <g id="Component_2_6" data-name="Component 2 – 6" transform="translate(172 22.25)">
        <path id="Path_1898" data-name="Path 1898" d="M17.1,0A17.653,17.653,0,0,0,6.575,3.856,17.317,17.317,0,0,0,3.392,7.165,17.714,17.714,0,0,0,.038,15.87C-.337,19.908,2.089,26.027,6.8,29.275c3.908,2.7,8.891,2.429,13,1.049.366.934.865,2.177,1.384,3.375a1.975,1.975,0,0,0-.373.268h0c-.222.393.166,1.56,1.443,4.865.362.935.7,1.818.931,2.486a61.719,61.719,0,0,0,3.435,7.7c.554.586,3.773-.855,3.8-.87a10.13,10.13,0,0,0,3.68-2.311,1.694,1.694,0,0,0,.275-.546c.179-.653-.837-2.314-2.531-4.974-.357-.56-.705-1.107-1.01-1.6a69.2,69.2,0,0,0-5-7.076.827.827,0,0,0-.474.047c-.54-.851-1.23-1.966-1.851-3.046a20.8,20.8,0,0,0,5.721-5.433,16.191,16.191,0,0,0,3.015-6.2c.573-3.476-1.361-9.765-4.713-12.666S20.775.028,17.1,0ZM27.206,4.72c3.179,2.752,5.087,8.929,4.547,12.208a15.693,15.693,0,0,1-2.925,5.983,19.239,19.239,0,0,1-6.547,5.845c-4.306,2.154-10.56,3.313-15.2.11-4.5-3.1-6.9-9.137-6.546-12.949A17.212,17.212,0,0,1,3.794,7.46a16.8,16.8,0,0,1,3.09-3.212A17.135,17.135,0,0,1,17.1.5C20.7.526,23.91,1.868,27.206,4.72Zm3.2,34.254c.306.5.656,1.048,1.014,1.61,1.037,1.628,2.6,4.087,2.47,4.574a1.181,1.181,0,0,1-.2.383c-.6.813-2.269,1.588-3.488,2.154a10.644,10.644,0,0,1-3.231.981,65.042,65.042,0,0,1-3.327-7.515c-.231-.679-.574-1.566-.938-2.506a25.527,25.527,0,0,1-1.488-4.421,23.662,23.662,0,0,1,4.4-2.129C26.108,32.607,29.036,36.734,30.41,38.974Zm-8.8-5.531c-.5-1.167-.988-2.376-1.346-3.288A21.138,21.138,0,0,0,22.5,29.2c.191-.1.382-.208.573-.315.6,1.042,1.264,2.118,1.8,2.959A27.739,27.739,0,0,0,21.611,33.443ZM8,10.89q-.176.241-.344.495a8.914,8.914,0,0,0-.978,8.072,9.731,9.731,0,0,0,5.75,5.929c4.093,1.268,9.523-.968,12.631-5.2l.106-.146c3.052-4.28-.373-9.986-3.648-12.5A7.929,7.929,0,0,0,15.608,6.3,11.531,11.531,0,0,0,8,10.89Zm16.657,9c-2.988,4.071-8.182,6.229-12.081,5.02A9.208,9.208,0,0,1,7.15,19.289a8.421,8.421,0,0,1,.925-7.629c.107-.162.217-.321.329-.474A11.032,11.032,0,0,1,15.679,6.8a7.436,7.436,0,0,1,5.537,1.141c3.245,2.485,6.281,7.972,3.545,11.809Z" transform="translate(42.571 0) rotate(60)" fill="#52362b" stroke="#52362b" stroke-width="1"/>
      </g>
    </g>
  </g>
</svg>
