<svg xmlns="http://www.w3.org/2000/svg" width="216.915" height="101.064" viewBox="0 0 216.915 101.064">
  <g id="Group_951" data-name="Group 951" transform="translate(-525.989 -8562.999)">
    <g id="Group_645" data-name="Group 645" transform="translate(491.777 7697.102)">
      <path id="Path_3893" data-name="Path 3893" d="M94.262,999.726c.5-.066,2.752-.346,3.618-.453s5.178-.846,5.762-.912.543.045.109.305a45.276,45.276,0,0,1-5.7,3.142,2.313,2.313,0,0,1-2.556-.11c-.563-.28-2.186-1.277-2.925-1.733.693-.086.889-.13,1.691-.239" transform="translate(-18.685 -42.405)" fill="#da7c76"/>
      <path id="Path_3894" data-name="Path 3894" d="M114.807,914.411c-1.119,0-1.739.777-2.663,1.634a17.258,17.258,0,0,1-4.858,3.392,36.265,36.265,0,0,1-8.6,2.253c-1,.07-.812-.173-.127-.39a12.775,12.775,0,0,0,6.887-6.368c1.906-4.206,2.168-5.806,2.168-9.014s-1.381-7.631-4.074-9.491a19.775,19.775,0,0,0-2.73-1.687c-.521-.216-.348-.347-1,.128a38.333,38.333,0,0,1-5.073,2.861,12.57,12.57,0,0,1-5.718,1.473,5.526,5.526,0,0,1-2.339-.3c-.39-.086-.476-.563.084-.563a5.405,5.405,0,0,0,4.031-1.819c1.429-1.689,4.721-4.853,4.721-9.621a9.733,9.733,0,0,0-2.966-6.844,16.338,16.338,0,0,0-4.92-3.249,17.615,17.615,0,0,0-3.16-1.083c-.283-.066-.477-.116-.477-.274,0-.1,0-.171.275-.237a.211.211,0,0,0,.135-.109.127.127,0,0,1-.07-.012.134.134,0,0,1-.05-.171,1.855,1.855,0,0,0,.141-.8c-.183-4.776-4.113-6.559-6.03-7.252a5.459,5.459,0,0,1,.312.6,4.387,4.387,0,0,1,2.946,4.567,5.4,5.4,0,0,1-2.211,4.505,17.55,17.55,0,0,1-3.55,2.165,31.336,31.336,0,0,0-7.28,4.6,9.373,9.373,0,0,0-3.814,7.234c0,1.993.3,2.555,1.689,5.157a7.584,7.584,0,0,0,3.725,3.685c.523.173,1.042.779.22.779a15.586,15.586,0,0,1-5.893-.955c-2.547-.9-2.211-1.6-4.291-1.6-5.241,0-8.189,9.183-8.189,12.174,0,6.8,4.42,11.439,7.889,13.737a8.086,8.086,0,0,1-6.38-.712,26.659,26.659,0,0,1-7.012-5.528c-4.115,3.38-4.289,8.838-4.638,13.56s.436,6.891,1.042,8.492a23.476,23.476,0,0,0,4.7,7.371,40.8,40.8,0,0,0,6.154,2.462,56.434,56.434,0,0,0,6.564,1.485,78.833,78.833,0,0,0,12.06,1.213,111.918,111.918,0,0,0,16.454-1.5c10.013-1.573,16.62-3.55,22.092-6.607.177-.1.344-.2.519-.3a31,31,0,0,0,5.534-7.31c1.561-2.8,3.511-6.176,3.511-10.271s-2.233-11.461-5.741-11.461M71.315,944.819a6.93,6.93,0,0,1-6.176,3.411c-4.386,0-7.02-2.143-9.391-5.623a33.486,33.486,0,0,1-3.543-6.662c-.216-.454-.079-.816.411-.606,3.057,1.3,6.586,2.889,9.306,4.15,4.28,1.983,8.7,4.19,9.2,4.484s.483.441.2.846m33.667-12.739c-1.106,7.594-6.66,11.7-8.223,13.1A6.313,6.313,0,0,1,92.4,946.9a15.092,15.092,0,0,1-6.434-1.172,4.055,4.055,0,0,1-1.721-1.2c-.262-.369-.064-.543.615-1.071a102.95,102.95,0,0,1,9-6.11c1.464-.973,4.423-2.783,10.141-5.784.914-.479,1.105-.376.976.52" transform="translate(-2.442 -0.311)" fill="#1b1d19"/>
      <path id="Path_3895" data-name="Path 3895" d="M39.685,931.115c.347-4.722.521-10.182,4.636-13.561a26.664,26.664,0,0,0,7.012,5.526,8.069,8.069,0,0,0,6.377.711c-3.468-2.3-7.886-6.931-7.886-13.735,0-2.99,2.945-12.176,8.189-12.176,2.08,0,1.744.7,4.288,1.6a15.611,15.611,0,0,0,5.9.953c.821,0,.3-.6-.218-.78a7.541,7.541,0,0,1-3.727-3.682c-1.386-2.6-1.689-3.163-1.689-5.157a9.386,9.386,0,0,1,3.812-7.236,31.348,31.348,0,0,1,7.28-4.592,17.645,17.645,0,0,0,3.552-2.168,5.4,5.4,0,0,0,2.211-4.505,4.387,4.387,0,0,0-2.946-4.567,8.174,8.174,0,0,1,.691,3.352,6.1,6.1,0,0,1-1.245,3.445c-1.359,1.84-3.73,2.829-6.087,3.627-4.32,1.464-5.661,2.982-8.529,6.582-2.909,3.643-2.67,5.893-2.385,8.5a7.69,7.69,0,0,0,1.464,3.194.166.166,0,0,1-.022.235.17.17,0,0,1-.235-.023,8.008,8.008,0,0,1-1.555-3.071,21.423,21.423,0,0,0-8.9,6.585,17.332,17.332,0,0,0-3.552,10.981c0,.013.018.022.021.038v.007a22.837,22.837,0,0,0,.5,2.957c.226.988.547,1.925.789,2.932a4.275,4.275,0,0,1-.8-1.337c-.187-.481-.34-.975-.483-1.47a12.6,12.6,0,0,1-.463-2.747c-1.757.741-4.093,2.857-5.752,4.679a19.823,19.823,0,0,0-4.534,7.864,14.858,14.858,0,0,0-.554,4.275,24.125,24.125,0,0,0,1.575,8.679,19.72,19.72,0,0,0,3.144,5.52,18.16,18.16,0,0,0,5.861,4.428,23.483,23.483,0,0,1-4.7-7.366c-.606-1.605-1.385-3.771-1.04-8.495" transform="translate(-0.202 -0.593)" fill="#3b3a30"/>
      <path id="Path_3896" data-name="Path 3896" d="M141.66,916.659c-2.122-2.934-4.391-4.724-6.919-5.472a13.411,13.411,0,0,1-.81,3.58,12.512,12.512,0,0,1-2.027,3.369,15.893,15.893,0,0,1-2.868,2.683c-.533.381-1.088.723-1.653,1.056-.288.15-.57.318-.863.456a4.76,4.76,0,0,1-.937.31,11.125,11.125,0,0,1,1.621-1.071c.543-.345,1.074-.7,1.58-1.1a15.776,15.776,0,0,0,2.793-2.613,12.059,12.059,0,0,0,1.969-3.251,14.34,14.34,0,0,0,.844-3.655.208.208,0,0,1-.016-.065c.077-.882.141-4.091-2.424-8.224-2.118-3.418-5.944-6.112-11.361-8.016a4.975,4.975,0,0,1-.969,1.879,5.462,5.462,0,0,1-.87.834,1.839,1.839,0,0,1-1.129.417,7.769,7.769,0,0,1,.859-.761,4.839,4.839,0,0,0,.775-.789,7.048,7.048,0,0,0,1.069-1.879c.884-3.933-.139-7.482-3.222-11.171a13.567,13.567,0,0,0-4.361-2.829,29.72,29.72,0,0,0-8.082-2.46c-.018.08-.032.16-.057.241a1.911,1.911,0,0,1-.22.431l0,.01a.125.125,0,0,1-.114.054.2.2,0,0,1-.135.109c-.28.066-.275.13-.275.239,0,.155.194.205.477.269a18.087,18.087,0,0,1,3.162,1.085,16.353,16.353,0,0,1,4.918,3.249,9.737,9.737,0,0,1,2.966,6.844c0,4.768-3.29,7.932-4.721,9.621a5.4,5.4,0,0,1-4.031,1.819c-.56,0-.474.477-.086.566a5.6,5.6,0,0,0,2.341.3,12.6,12.6,0,0,0,5.718-1.473,38.291,38.291,0,0,0,5.073-2.863c.647-.475.474-.344,1-.128a19.516,19.516,0,0,1,2.73,1.689c2.69,1.856,4.074,6.284,4.074,9.489s-.262,4.811-2.168,9.012a12.773,12.773,0,0,1-6.887,6.37c-.685.219-.869.46.127.39a36.076,36.076,0,0,0,8.6-2.253A17.26,17.26,0,0,0,132,919.574c.924-.855,1.544-1.634,2.663-1.634,3.509,0,5.741,7.366,5.741,11.461s-1.95,7.475-3.509,10.271a30.947,30.947,0,0,1-5.536,7.31,32.447,32.447,0,0,0,9.149-7.542c3-3.671,4.651-7.708,4.651-11.37a20.128,20.128,0,0,0-3.5-11.41" transform="translate(-22.298 -3.84)" fill="#3b3a30"/>
      <path id="Path_3897" data-name="Path 3897" d="M118.824,974.453a5.385,5.385,0,0,0,2.565-1.375,8.217,8.217,0,0,0,2.248-7.558l-.02.011c-2.005,1.158-3.964,2.177-4.924,2.846-1.056.731-2.946,1.94-4.594,3,.305,1.114,1.582,3.807,4.725,3.073" transform="translate(-25.577 -31.896)" fill="#65a0b9"/>
      <path id="Path_3898" data-name="Path 3898" d="M118.74,972.409a5.848,5.848,0,0,1-2.7,1.5c-3.447.894-4.959-2.227-5.226-3.305l-.02.014c-1.194.771-2.216,1.434-2.608,1.733a23.721,23.721,0,0,0-3.26,2.567c.587.583,2.969,2.177,7.45,2.177a6.436,6.436,0,0,0,3.513-1.04c1.473-1.181,7.084-5.772,8.251-10.854a16.6,16.6,0,0,0,.545-2.8c-.689.383-2.157,1.067-3.612,1.91,1.163,3.995-1.54,7.337-2.33,8.1" transform="translate(-22.639 -30.896)" fill="#f0f1f2"/>
      <path id="Path_3899" data-name="Path 3899" d="M68.361,980.1a10.3,10.3,0,0,1-5.932-3.713,34.4,34.4,0,0,1-4.421-7.278c-.355-.8-.1-.741.2-.621,1.247.52,7.15,3.274,8.253,3.787a10.954,10.954,0,0,0,.511,3.267c.736,2.318,1.949,3.552,3.534,4.095a6.637,6.637,0,0,0,1.9.377,8.73,8.73,0,0,1-4.044.086" transform="translate(-7.563 -32.825)" fill="#f0f1f2"/>
      <path id="Path_3900" data-name="Path 3900" d="M80.309,979.273a6.944,6.944,0,0,1-2.7,2.351,6.473,6.473,0,0,1-4.193-1.473,7.3,7.3,0,0,1-1.689-3.023,10.148,10.148,0,0,1-.375-2.647c.551.253,8.488,4.033,8.847,4.2s.273.315.107.595" transform="translate(-11.892 -34.765)" fill="#65a0b9"/>
      <path id="Path_3901" data-name="Path 3901" d="M105.28,987.391c-2.474.538-5.2,1.018-8.242,1.5a112.311,112.311,0,0,1-16.52,1.5,76.1,76.1,0,0,1-12.06-1.129c-.447-.077-.912-.162-1.384-.251a33.083,33.083,0,0,0,5.319,6.058c2.239,1.986,7.49,4.511,9.643,5.505.98.454,1.808.882,2.606,1.3.6.31,1.2.623,1.874.951l.274.137a2.817,2.817,0,0,0,2.547.244,21.98,21.98,0,0,0,5.312-2.357,83.639,83.639,0,0,0,8.148-5.429,41.13,41.13,0,0,0,4.729-3.951c2.088-2.271,2.9-3.518,3.485-5.583-1.762.568-3.659,1.061-5.732,1.511m-7.785,6.4c-.3.152-1.279.912-1.929,1.342-.2.131-.914.557-1.427.869-1.192.721-2.653,1.473-3.273,1.774a5.032,5.032,0,0,1-2.3.8,3.355,3.355,0,0,1-1.927-.759,25.5,25.5,0,0,0-2.426-1.432c-.347-.127-.455-.322-.759-.388s-.779-.153-.757-.369.041-.15,1.235-.171a25.814,25.814,0,0,0,3.53-.262c1.192-.173,1.995-.326,3.228-.477a46.188,46.188,0,0,0,5.5-1c.759-.283,1.1-.283,1.689-.563l.456.26c-.283.109-.543.216-.846.367" transform="translate(-10.521 -38.415)" fill="#f5dbe2"/>
      <path id="Path_3902" data-name="Path 3902" d="M70.518,973.98a11.02,11.02,0,0,0,.511,3.267c.736,2.318,1.949,3.552,3.532,4.095a5.294,5.294,0,0,0,2.515.345c.269-.082.276-.192.519-.3,0,0-2.859.11-4.443-1.473a7.294,7.294,0,0,1-1.689-3.021,10.161,10.161,0,0,1-.375-2.647c-.134-.061-.18-.442-.319-.506-.052-.025-.2.267-.251.245" transform="translate(-11.624 -34.526)" fill="#28647b"/>
      <path id="Path_3903" data-name="Path 3903" d="M90.812,999.3c.3.064.413.26.759.388A25.93,25.93,0,0,1,94,1001.119a3.35,3.35,0,0,0,1.929.759,5.049,5.049,0,0,0,2.3-.8c.618-.3,2.081-1.051,3.269-1.774.513-.312,1.234-.736,1.432-.869.65-.43,1.623-1.19,1.927-1.342s.563-.258.843-.367a.37.37,0,0,0,.262-.477c-.066-.107-.13-.067-.716.216s-.93.28-1.691.563a46.039,46.039,0,0,1-5.5,1c-1.238.152-2.038.3-3.229.477a25.844,25.844,0,0,1-3.534.262c-1.19.02-1.213-.046-1.233.171s.453.3.757.369m2.645-.262c.5-.066,2.752-.346,3.618-.453s5.178-.846,5.762-.912.543.045.109.305a45.275,45.275,0,0,1-5.7,3.142,2.313,2.313,0,0,1-2.556-.11c-.563-.28-2.186-1.277-2.925-1.733.693-.086.889-.13,1.691-.239" transform="translate(-17.879 -41.716)" fill="#4b322a"/>
      <path id="Path_3904" data-name="Path 3904" d="M69.974,980.448a6.921,6.921,0,0,0,6.174-3.413c.288-.4.3-.549-.193-.844s-4.919-2.5-9.2-4.487c-2.717-1.256-6.251-2.847-9.3-4.147-.492-.207-.627.151-.413.606a33.621,33.621,0,0,0,3.541,6.664c2.376,3.475,5.007,5.62,9.393,5.62M57.918,968.2c1.331.555,7.98,3.661,8.41,3.86l.413.189c.551.255,8.488,4.033,8.844,4.2s.276.317.107.595a6.93,6.93,0,0,1-2.923,2.462,8.251,8.251,0,0,1-4.7.31,10.34,10.34,0,0,1-5.93-3.711,34.258,34.258,0,0,1-4.418-7.28c-.358-.8-.1-.741.194-.621" transform="translate(-7.277 -32.529)" fill="#161717"/>
      <path id="Path_3905" data-name="Path 3905" d="M108.545,943.441c-5.474,3.057-12.081,5.034-22.092,6.607A111.958,111.958,0,0,1,70,951.544a78.755,78.755,0,0,1-12.058-1.213,55.979,55.979,0,0,1-6.568-1.487,40.554,40.554,0,0,1-6.149-2.46,18.208,18.208,0,0,1-5.861-4.428,19.825,19.825,0,0,1-3.141-5.52,24.035,24.035,0,0,1-1.578-8.681,14.771,14.771,0,0,1,.554-4.275,19.8,19.8,0,0,1,4.534-7.864c1.662-1.819,4-3.937,5.754-4.676a12.417,12.417,0,0,0,.463,2.747c.141.495.294.987.479,1.47a4.271,4.271,0,0,0,.8,1.334c-.245-1.01-.563-1.942-.787-2.929a22.594,22.594,0,0,1-.506-2.962l0-.006c0-.014-.014-.024-.018-.037a17.346,17.346,0,0,1,3.552-10.978,21.443,21.443,0,0,1,8.9-6.591,8.009,8.009,0,0,0,1.555,3.073.168.168,0,0,0,.26-.212,7.64,7.64,0,0,1-1.464-3.194c-.286-2.6-.527-4.849,2.38-8.5,2.873-3.6,4.211-5.118,8.531-6.582,2.358-.8,4.728-1.79,6.089-3.63a6.086,6.086,0,0,0,1.243-3.44,8.124,8.124,0,0,0-.693-3.354,6.678,6.678,0,0,0-.308-.6c1.915.693,5.843,2.479,6.028,7.255a1.828,1.828,0,0,1-.141.8.134.134,0,0,0,.05.171.128.128,0,0,0,.072.012.124.124,0,0,0,.112-.054l0-.01a1.729,1.729,0,0,0,.218-.431,2.17,2.17,0,0,0,.061-.241,29.731,29.731,0,0,1,8.08,2.46,13.539,13.539,0,0,1,4.361,2.829c3.085,3.689,4.106,7.236,3.224,11.171a7.111,7.111,0,0,1-1.071,1.879,4.861,4.861,0,0,1-.775.789,8.024,8.024,0,0,0-.859.761,1.839,1.839,0,0,0,1.129-.417,5.7,5.7,0,0,0,.873-.834,5.038,5.038,0,0,0,.967-1.879c5.417,1.9,9.245,4.6,11.361,8.014,2.565,4.135,2.5,7.344,2.422,8.226a.155.155,0,0,0,.018.065,14.34,14.34,0,0,1-.844,3.655,12.059,12.059,0,0,1-1.969,3.251,15.847,15.847,0,0,1-2.793,2.613c-.506.392-1.039.751-1.578,1.1a11.01,11.01,0,0,0-1.621,1.071,4.86,4.86,0,0,0,.937-.31c.292-.139.574-.306.864-.456.561-.333,1.118-.674,1.648-1.056a15.886,15.886,0,0,0,2.871-2.683,12.512,12.512,0,0,0,2.027-3.369,13.307,13.307,0,0,0,.81-3.58c2.528.748,4.794,2.536,6.917,5.472a20.114,20.114,0,0,1,3.5,11.41c0,3.662-1.653,7.7-4.651,11.37a32.473,32.473,0,0,1-9.151,7.542c-.171.1-.34.2-.515.3m-18.47,15.74c.851-.591,1.6-1.139,2.517-1.833a41.609,41.609,0,0,0,4.755-3.98c2.246-2.444,3.092-3.927,3.7-6.2a41.91,41.91,0,0,0,6.36-2.625l.506-.262c.25-.129.591-.323.835-.459a33.213,33.213,0,0,0,9.792-7.946c3.063-3.751,4.75-7.884,4.75-11.643a20.569,20.569,0,0,0-3.585-11.663,15.078,15.078,0,0,0-5.535-4.977,11.275,11.275,0,0,0-1.657-.679,14.459,14.459,0,0,0-2.5-8.31c-2-3.233-5.558-5.921-10.418-7.827-.388-.15-.7-.209-1.108-.351a12.213,12.213,0,0,0-1.915-9.562,19.345,19.345,0,0,0-1.441-1.793,8.306,8.306,0,0,0-.9-.79,16.911,16.911,0,0,0-3.6-2.15,30.215,30.215,0,0,0-8.223-2.5c-.292-5.157-4.713-6.922-6.563-7.562-.1-.037-.56-.274-.7-.1s.084.194.131.294a1.721,1.721,0,0,0,.129.241,7.078,7.078,0,0,1,1.069,3.967,5.7,5.7,0,0,1-1.1,3.233c-1.29,1.747-3.589,2.7-5.883,3.479a14.84,14.84,0,0,0-4.908,2.435,28.205,28.205,0,0,0-3.819,4.287c-2.963,3.714-2.777,6.027-2.49,8.66a21.89,21.89,0,0,0-9.146,6.76,16.595,16.595,0,0,0-3.653,11.069c-1.846.706-4.323,3.035-6.064,4.942a20.242,20.242,0,0,0-4.629,8.032,15.241,15.241,0,0,0-.57,4.4,24.589,24.589,0,0,0,1.6,8.836,20.338,20.338,0,0,0,3.217,5.641c2.581,3.021,5.606,4.4,8.271,5.617l.657.3a20.007,20.007,0,0,0,2.061.809l.57.16c1.316.4,2.732.743,4.133,1.035.362.078.611.132.971.2.05.012.183.266.216.318.089.122.181.248.272.369.175.235.356.465.536.695.347.447.7.883,1.065,1.318A34.646,34.646,0,0,0,61.56,957a14.094,14.094,0,0,0,1.2.932,59.37,59.37,0,0,0,8.029,4.4,3.406,3.406,0,0,1,.532.245l.98.53c.549.271,1.079.483,1.605.759.6.31,1.2.625,1.886.957l.269.13a3.2,3.2,0,0,0,1.569.474,5.611,5.611,0,0,0,1.3-.192,22.546,22.546,0,0,0,5.43-2.407c.3-.173,2.207-1.194,4.857-3ZM70,951.973a112.353,112.353,0,0,0,16.522-1.5c3.044-.479,5.766-.958,8.24-1.5,2.073-.451,3.967-.944,5.732-1.511-.589,2.065-1.4,3.313-3.485,5.586A41.144,41.144,0,0,1,92.276,957a82.25,82.25,0,0,1-8.148,5.429,22.028,22.028,0,0,1-5.314,2.359,2.821,2.821,0,0,1-2.544-.244l-.274-.137c-.677-.328-1.277-.641-1.874-.948-.8-.419-1.628-.846-2.606-1.3-2.154-.994-7.4-3.52-9.643-5.5a33.152,33.152,0,0,1-5.316-6.06c.469.089.935.173,1.381.251A75.862,75.862,0,0,0,70,951.973" fill="#4b322a"/>
      <path id="Path_3906" data-name="Path 3906" d="M71.462,977.005a10.158,10.158,0,0,1-.375-2.645c-.134-.063-.273-.127-.413-.191-.027-.012-.082-.038-.157-.073a10.92,10.92,0,0,0,.511,3.265c.736,2.319,1.949,3.554,3.532,4.1a6.57,6.57,0,0,0,1.906.375,5.89,5.89,0,0,0,.653-.224c.075-.029.152-.073.226-.11a6.461,6.461,0,0,1-4.193-1.473,7.271,7.271,0,0,1-1.689-3.02" transform="translate(-11.624 -34.642)" fill="#28647b"/>
      <path id="Path_3907" data-name="Path 3907" d="M75.954,976.191c-.5-.294-4.919-2.5-9.2-4.484-2.719-1.261-6.248-2.848-9.3-4.15-.492-.209-.63.152-.413.606a33.486,33.486,0,0,0,3.543,6.662c2.371,3.479,5,5.625,9.391,5.625a6.935,6.935,0,0,0,6.176-3.413c.288-.407.3-.553-.2-.846m-.26.846a6.944,6.944,0,0,1-2.7,2.351c-.075.034-.151.078-.226.107a5.675,5.675,0,0,1-.653.224,8.7,8.7,0,0,1-4.044.088,10.316,10.316,0,0,1-5.932-3.713,34.409,34.409,0,0,1-4.421-7.28c-.353-.8-.1-.742.2-.617,1.247.515,7.152,3.272,8.253,3.785l.159.073c.137.064.274.128.411.189.551.253,8.488,4.033,8.847,4.2s.273.315.107.595" transform="translate(-7.277 -32.529)" fill="#161717"/>
      <path id="Path_3908" data-name="Path 3908" d="M118.81,974.808a5.847,5.847,0,0,0,2.7-1.5c.789-.766,3.493-4.108,2.33-8.1l-.02.012-.351.2a8.224,8.224,0,0,1-2.248,7.558,5.368,5.368,0,0,1-2.565,1.375c-3.144.734-4.42-1.959-4.725-3.073-.035.022-.073.045-.107.068l-.242.155c.267,1.078,1.779,4.2,5.226,3.305" transform="translate(-25.413 -31.795)" fill="#28647b"/>
      <path id="Path_3909" data-name="Path 3909" d="M123.926,961.893c-5.72,3-8.677,4.811-10.139,5.784a102.551,102.551,0,0,0-9,6.11c-.681.529-.88.7-.615,1.074a4.1,4.1,0,0,0,1.721,1.2,15.116,15.116,0,0,0,6.434,1.17,6.3,6.3,0,0,0,4.356-1.723c1.562-1.391,7.118-5.5,8.219-13.1.133-.9-.057-1-.973-.52m-.064,3.056c-1.173,5.078-6.781,9.673-8.256,10.851a6.41,6.41,0,0,1-3.509,1.043c-4.486,0-6.866-1.591-7.453-2.177a24.032,24.032,0,0,1,3.258-2.57c.4-.3,1.416-.962,2.611-1.73l.023-.016.239-.153c.035-.023.073-.048.107-.068,1.648-1.063,3.538-2.271,4.594-3,.96-.671,2.916-1.685,4.924-2.846l.018-.011.354-.2a.092.092,0,0,1,.02-.012c1.455-.846,2.923-1.53,3.612-1.915a16.477,16.477,0,0,1-.543,2.807" transform="translate(-22.362 -30.645)" fill="#161717"/>
    </g>
    <g id="Group_651" data-name="Group 651" transform="translate(78.989 451)">
      <g id="Group_646" data-name="Group 646" transform="translate(558.982 8149)">
        <path id="Path_3910" data-name="Path 3910" d="M1655.658-236.641c-.078-.929-.154-1.9-.193-2.9q1.392-.175,3.017-.349.174,1.742.348,3.367c1.277.077,2.4.154,3.366.309a5.5,5.5,0,0,1,.117,1.354,5.4,5.4,0,0,1-.117,1.432,10.582,10.582,0,0,1-3.057.232c.079,1.084.156,2.167.233,3.211.7,0,1.393-.038,2.051-.077a6.394,6.394,0,0,1,.156,1.277,6.217,6.217,0,0,1-.156,1.354,11.817,11.817,0,0,1-1.857.387q.116,1.973.232,3.831a8.648,8.648,0,0,1-3.1.426c-.154-1.316-.27-2.593-.348-3.869q-1.275.116-2.67.232a5.762,5.762,0,0,1-.7-3.018c1.083-.115,2.129-.232,3.134-.309-.115-1.16-.193-2.283-.269-3.405h-.929c-1.78,0-2.748-.078-2.9-.27a3.9,3.9,0,0,1-.193-1.432,5.03,5.03,0,0,1,.27-1.587c.851-.077,1.78-.116,2.825-.193Zm22.559-8.745c-.039.851-.078,1.625-.116,2.4q1.742.175,3.6.348a24.641,24.641,0,0,1-.194,2.786c-1.237,0-2.476,0-3.637-.039-.078.62-.155,1.238-.233,1.78a3.639,3.639,0,0,1-1.586.233,3.467,3.467,0,0,1-1.665-.309,14.7,14.7,0,0,1,.118-1.858c-1.587-.039-3.136-.116-4.644-.272.039.812.078,1.626.078,2.438a2.748,2.748,0,0,1-1.509.309,5.722,5.722,0,0,1-1.472-.155c-.193-.929-.348-1.9-.464-2.863-1.354-.116-2.709-.27-4.025-.464v-1.587a10.18,10.18,0,0,0,.078-1.122c1.16,0,2.4.039,3.637.039a15.839,15.839,0,0,1-.154-1.934,5.891,5.891,0,0,1,1.509-.388,3.768,3.768,0,0,1,1.587.233c.154.774.271,1.51.387,2.206q2.554.173,5.34.348c.078-.774.154-1.509.309-2.283a13.564,13.564,0,0,0,1.7-.077A8.178,8.178,0,0,1,1678.217-245.387Zm-14.008,16.136a10.418,10.418,0,0,1-1.432-2.709q6.386-3.134,12.77-5.688a7.13,7.13,0,0,1,1.354,2.515,3.315,3.315,0,0,1-.657.31c2.166,1.9,4.295,3.831,6.307,5.8a5.306,5.306,0,0,1-2.089,2.245,91.19,91.19,0,0,1-7.237-6.54C1670.207-231.843,1667.188-230.489,1664.209-229.25Zm14.434,12.654a53.04,53.04,0,0,1-10.719,1.122,22.161,22.161,0,0,1-1.392-7.584,73.132,73.132,0,0,1,11.377-1.006A39.812,39.812,0,0,1,1678.643-216.6Zm-2.322-11.067a15.923,15.923,0,0,1-.271,2.554,40.55,40.55,0,0,1-8.823-.929c.039-.851.078-1.664.078-2.515A83.609,83.609,0,0,1,1676.321-227.664Zm-.774,8.978-.581-2.67-5.03.387.62,2.787Z" transform="translate(-1651.827 246.045)" fill="#007aa7"/>
        <path id="Path_3911" data-name="Path 3911" d="M1689.3-240.4c.93-.154,1.935-.27,3.019-.387.115,1.162.232,2.245.348,3.327,1.664.079,3.1.194,4.256.349a5.79,5.79,0,0,1,.116,1.354,5.47,5.47,0,0,1-.116,1.432,16.766,16.766,0,0,1-3.908.232c.078,1.122.194,2.206.272,3.29.773-.04,1.508-.079,2.283-.116a6.47,6.47,0,0,1,.154,1.276,6.586,6.586,0,0,1-.154,1.354,15.367,15.367,0,0,1-2.129.388c.077,1.238.155,2.4.232,3.56a8.408,8.408,0,0,1-3.095.463c-.155-1.238-.272-2.437-.348-3.676-.93.078-1.9.155-2.98.232a5.761,5.761,0,0,1-.7-3.018c1.161-.077,2.322-.193,3.444-.27-.116-1.161-.193-2.322-.271-3.444h-.077c-2.206,0-3.406-.078-3.56-.27a3.555,3.555,0,0,1-.232-1.432,6.088,6.088,0,0,1,.271-1.548c1.045-.077,2.167-.155,3.366-.193C1689.421-238.461,1689.343-239.428,1689.3-240.4Zm11.223,16.756c0,1.9-.039,3.405-.078,4.488,4.488.388,8.978.658,13.543.814,0,1.005-.078,1.973-.154,2.979-4.567,0-7.469-.078-8.784-.233a38.405,38.405,0,0,1-8.088-.928v-1.393a50.689,50.689,0,0,1,.464-5.882C1698.475-223.8,1699.52-223.718,1700.526-223.64Zm4.18-19.193q0-1.161.115-2.322a11.986,11.986,0,0,0,1.587-.078,5.871,5.871,0,0,1,1.624.233v2.283c2.477.154,5.107.309,7.856.464a19.086,19.086,0,0,1-.233,2.863c-2.593,0-5.146-.039-7.623-.155v1.432c2.09.233,4.334.464,6.733.774a30.764,30.764,0,0,1,.427,4.025c.773.078,1.546.116,2.282.194v1.277a5.379,5.379,0,0,1-.155,1.353h-2.089a10.1,10.1,0,0,1-.464,3.521q-1.219.813-5.107.814h-1.741c0,.619-.039,1.161-.039,1.664a32.405,32.405,0,0,1,4.488.812,14.506,14.506,0,0,1-.309,2.709,16.685,16.685,0,0,1-4.256-.5c0,.657-.037,1.277-.037,1.858h-1.587a8.54,8.54,0,0,1-1.51-.116c-.193-2.167-.309-4.334-.387-6.5q-1.974-.058-3.368-.233a6.744,6.744,0,0,1-.076-1.277,5.05,5.05,0,0,1,.194-1.2l3.211-.116v-1.664c-2.476-.077-4.72-.232-6.655-.426a2.632,2.632,0,0,1-.194-1.354,11.249,11.249,0,0,1,.233-1.47c2.244,0,4.488.038,6.694.116,0-.427,0-.852.039-1.278-1.51-.154-3.057-.387-4.682-.657a14.482,14.482,0,0,1,.232-2.787c1.393,0,2.9.078,4.567.155,0-.426,0-.851.039-1.277-2.013-.078-3.948-.233-5.882-.426v-1.625a11.7,11.7,0,0,0,.078-1.2C1700.6-242.95,1702.616-242.911,1704.706-242.833Zm3.211,13.621c1.2,0,2.4-.039,3.56-.078,0-.426-.04-.851-.04-1.238-1.237,0-2.4,0-3.52-.078Zm.076-4.528c1.123.078,2.246.116,3.328.193-.039-.387-.078-.735-.078-1.083-1.083,0-2.167-.078-3.251-.155Z" transform="translate(-1650.182 246.084)" fill="#007aa7"/>
        <path id="Path_3912" data-name="Path 3912" d="M1730.437-231.91a25.967,25.967,0,0,1-2.206,5.959c1.238.194,2.593.426,3.986.658a26.414,26.414,0,0,1-1.239,5.533c2.013.232,4.141.464,6.347.7a8.3,8.3,0,0,1-.463,2.67,72.427,72.427,0,0,1-9.752-1.122c.387-1.9.813-3.753,1.277-5.611-1.7-.348-3.173-.7-4.411-1.006.735-1.7,1.393-3.444,2.012-5.224a23.661,23.661,0,0,1-4.063-.812,17.219,17.219,0,0,1,.272-2.864C1725.368-232.723,1728.115-232.375,1730.437-231.91Zm-.078-6.734a7.3,7.3,0,0,1-1.084,2.67,11.391,11.391,0,0,1-5.958-1.857,18.079,18.079,0,0,1,.889-2.786A20.112,20.112,0,0,1,1730.359-238.644Zm5.8-6.578c-.232,2.477-.618,4.953-1.084,7.353a24.5,24.5,0,0,1-3.135-.427c.31-2.476.658-4.836,1.045-7.158C1734.152-245.376,1735.2-245.3,1736.164-245.222Zm4.372,15.207v-.27a9.5,9.5,0,0,1,.04-1.083c-1.354-.078-2.283-.194-2.825-.272a3.111,3.111,0,0,1-.193-1.431c0-.349.039-.736.039-1.162,1.005,0,2.051.039,3.057.039a11.52,11.52,0,0,1,.039-1.161c-1.355-.116-2.67-.309-3.909-.542.039-.812.079-1.625.079-2.437,1.315.077,2.591.116,3.907.193,0-.619.039-1.2.078-1.819q.638-.115,1.51-.232a5.075,5.075,0,0,1,1.585.232c.04.7.078,1.393.117,2.052,1.393.115,2.824.27,4.294.426a15.607,15.607,0,0,1-.27,2.515c-1.354,0-2.67-.039-3.909-.116,0,.387.039.736.039,1.045q3.018.231,5.921.464a14.008,14.008,0,0,1,.426,4.41c0,2.4-.078,4.141-.155,5.225a30.86,30.86,0,0,1-6.385.58,4.274,4.274,0,0,0-.078.7c1.472.078,2.749.155,3.755.31a3.981,3.981,0,0,1,.115,1.122,3.724,3.724,0,0,1-.115,1.2,17.143,17.143,0,0,1-4.025.232c-.078.7-.155,1.354-.233,1.935a4.249,4.249,0,0,1-1.509.154,3.645,3.645,0,0,1-1.354-.154V-219.8a10.113,10.113,0,0,1-3.173-.232,2.7,2.7,0,0,1-.193-1.2,6.252,6.252,0,0,1,.232-1.277c.968-.039,2.012-.078,3.095-.155v-.7a42,42,0,0,1-6.849-.657,13.48,13.48,0,0,1-.581-4.8c.117-1.006.272-2.825.5-5.494.348-.079.811-.155,1.431-.233a4.371,4.371,0,0,1,1.393.233c0,1.083-.078,3.714-.154,7.893,1.392.078,2.824.078,4.255.078v-1.2c-1.005,0-1.972-.078-2.9-.155v-1.354c0-.309.038-.657.038-1.005C1738.563-230.053,1739.53-230.015,1740.535-230.015Zm12.035-14.278a54.54,54.54,0,0,1-.387,6.617,6.672,6.672,0,0,1-1.586.155,3.463,3.463,0,0,1-1.665-.309v-3.832a106.113,106.113,0,0,1-11.144-.851,2.964,2.964,0,0,1-.193-1.277,11.843,11.843,0,0,1,.193-1.238C1742.548-244.99,1747.463-244.758,1752.57-244.293Zm-8.4,17.994c1.007.039,2.051.039,3.057.039a13.048,13.048,0,0,0,.233-2.9,17.923,17.923,0,0,0-.155-1.857c-1.161-.039-2.167-.078-3.057-.155v1.239c.542.038,1.123.077,1.664.077a18.316,18.316,0,0,1-.193,2.437h-1.51C1744.212-227.035,1744.173-226.648,1744.173-226.3Z" transform="translate(-1648.438 246.074)" fill="#007aa7"/>
      </g>
      <g id="Group_650" data-name="Group 650" transform="translate(71 6349)">
        <path id="Path_2575" data-name="Path 2575" d="M1715.629,206.891l103.3,17.665" transform="translate(-1230.49 2029.698) rotate(-13)" fill="none" stroke="#007aa7" stroke-width="3"/>
      </g>
    </g>
  </g>
</svg>
