<svg id="Group_450" data-name="Group 450" xmlns="http://www.w3.org/2000/svg" width="255.342" height="46.933" viewBox="0 0 255.342 46.933">
  <path id="Path_3073" data-name="Path 3073" d="M1366.179-523.545a19.06,19.06,0,0,1,2.682-3.407q12.656,8.129,25.365,17.264a6.523,6.523,0,0,1-2.793,3.465,152.513,152.513,0,0,1-20.226-13.3q-8.885,7.627-20.617,16.035a11.52,11.52,0,0,1-2.793-3.239,134.78,134.78,0,0,1,19.89-15.59A10.939,10.939,0,0,1,1366.179-523.545Zm3.129,24.137c-.112-1.231-.168-2.46-.223-3.689,1.508-.111,3.127-.223,4.8-.335.112,1.4.278,2.793.447,4.135,2.906.11,5.979.167,9.22.222a31.974,31.974,0,0,1-.336,4.47c-2.849,0-5.643,0-8.436-.056.222,2.236.389,4.47.558,6.594,2.458-.056,4.917-.112,7.487-.168.054.558.111,1.229.111,1.956v2.068a160.722,160.722,0,0,1-19.386,1.172,17.487,17.487,0,0,1-.448-4.3c2.458-.224,5.029-.392,7.6-.5-.391-2.29-.727-4.58-.951-6.928q-4.943-.084-9.721-.335v-2.514c.056-.615.112-1.229.112-1.844C1363-499.463,1366.069-499.407,1369.308-499.407Zm12.515-10.337a7.47,7.47,0,0,1,.222,1.956,7.171,7.171,0,0,1-.222,2.068c-.669.279-4.134.391-10.5.391-6.258,0-9.611-.112-10.169-.391a5.248,5.248,0,0,1-.28-2.068,8.9,8.9,0,0,1,.392-2.234q4.525-.168,10.057-.336A74.123,74.123,0,0,1,1381.823-509.744Z" transform="translate(-1347.798 526.952)" fill="#007aa7"/>
  <path id="Path_3074" data-name="Path 3074" d="M1401.089-520.528c.056.783.112,1.509.224,2.18,1.565,0,3.129-.056,4.749-.112.056-.783.17-1.565.28-2.29.615-.112,1.285-.168,1.956-.28a5.9,5.9,0,0,1,1.732.28c.057.837.112,1.62.224,2.29a115.956,115.956,0,0,1,12.347,1.229,13.993,13.993,0,0,1,.782,5.141,41.026,41.026,0,0,1-.558,7.319c-1.119.893-4.694,1.341-10.839,1.341-13.3-.335-21.846-1.117-25.645-2.458a25.563,25.563,0,0,1-.559-6.482,41.743,41.743,0,0,1,.669-4.469q1.008-.17,2.348-.336a8.41,8.41,0,0,1,2.458.336,67.674,67.674,0,0,1-.336,7.6c6.483.671,13.3,1.007,20.45,1.063,2.4,0,4.75,0,7.1-.114-.114-1.564-.224-3.239-.336-4.916-2.458-.222-5.027-.445-7.655-.613v.055a18.5,18.5,0,0,1-.447,4.526,3.589,3.589,0,0,1-1.732.28,4.074,4.074,0,0,1-1.956-.28,13.344,13.344,0,0,1-.669-4.526v-.278c-1.343,0-2.738-.056-4.135-.112v.615a13.43,13.43,0,0,1-.448,3.855,3.5,3.5,0,0,1-1.73.334,3.775,3.775,0,0,1-1.956-.334,9.527,9.527,0,0,1-.672-3.855,3.186,3.186,0,0,1,.056-.727h-2.122a6.71,6.71,0,0,1-.28-2.124,12.968,12.968,0,0,1,.28-1.842c.782,0,1.62-.056,2.458-.056.055-.783.167-1.509.28-2.236.613-.112,1.284-.167,1.956-.279A5.948,5.948,0,0,1,1401.089-520.528Zm-6.034,33.636a18.746,18.746,0,0,1-2.292,2.458c-.447.391-.893.781-1.341,1.229q-.668.5-1.508,1.173a12.9,12.9,0,0,1-3.409-3.129,42.007,42.007,0,0,1,4.806-4.526A15.912,15.912,0,0,1,1395.055-486.892Zm25.645-8.381a6.321,6.321,0,0,1,.168,1.732,6.179,6.179,0,0,1-.168,1.844c-.559.224-3.687.336-9.33.336h-4.414c.558,3.463.894,7.039,1.117,10.616a10.638,10.638,0,0,1-4.47.671,40.051,40.051,0,0,1-4.47-.224,8.936,8.936,0,0,1-.447-2.849c1.564-.056,3.074-.112,4.582-.168a49.873,49.873,0,0,1-1.063-8.045q-12.318,0-13.744-.336a5.542,5.542,0,0,1-.223-1.844,5.839,5.839,0,0,1,.336-2.012c6.928-.11,14.526-.167,22.795-.278A66.954,66.954,0,0,1,1420.7-495.274Zm-1.34-30.954a9.039,9.039,0,0,1,.167,2.012,8.224,8.224,0,0,1-.167,2.124c-.728.279-4.358.391-10.841.391-11.342,0-17.542-.112-18.549-.391a5.742,5.742,0,0,1-.278-2.124,9.222,9.222,0,0,1,.391-2.29q8.38-.168,18.437-.336A79.5,79.5,0,0,1,1419.361-526.227ZM1415-501.307a6.685,6.685,0,0,1,.167,1.732,6.273,6.273,0,0,1-.167,1.844c-.616.223-3.745.335-9.331.335-7.378,0-11.344-.112-12.014-.335a4.28,4.28,0,0,1-.28-1.844,6.826,6.826,0,0,1,.392-1.956c3.577-.112,7.543-.224,11.9-.28A68.907,68.907,0,0,1,1415-501.307Zm6.759,14.806a20.549,20.549,0,0,1-2.29,4.191,39.527,39.527,0,0,1-7.152-2.962,12.2,12.2,0,0,1,2.348-4.078A58.517,58.517,0,0,1,1421.762-486.5Z" transform="translate(-1328.286 527.009)" fill="#007aa7"/>
  <path id="Path_3075" data-name="Path 3075" d="M1439.384-501c3.577,3.018,5.363,5.867,5.363,8.661,0,2.01-1.4,3.575-4.19,4.636a18.453,18.453,0,0,1-6.48,1.175,25.83,25.83,0,0,1-2.962-.168,6.051,6.051,0,0,1-.5-2.124,8.226,8.226,0,0,1,.225-2.012c5.978-.559,8.995-1.285,8.995-2.234,0-.671-2.348-3.129-7.039-7.319,1.674-2.124,3.407-4.3,5.139-6.482,2.346-3.241,3.577-5.531,3.577-6.816a3.374,3.374,0,0,0-2.4-3.073,12.266,12.266,0,0,0-4.248-.727c-3.52,0-8.213,1.844-14.136,5.475a6.13,6.13,0,0,1-2.569-3.91c5.865-4.359,11.341-6.538,16.483-6.538a15.512,15.512,0,0,1,7.877,1.9,7.752,7.752,0,0,1,3.911,7.039C1446.424-510.436,1444.077-506.246,1439.384-501Z" transform="translate(-1311.656 529.265)" fill="#007aa7"/>
  <path id="Path_3076" data-name="Path 3076" d="M1464.085-505.073c-1.451,2.4-4.246,6.816-8.268,13.3,1.228.112,2.4.168,3.63.168a45.24,45.24,0,0,0,6.594-.5,3.192,3.192,0,0,1,.95,1.956,6.306,6.306,0,0,1,.111,2.236c-1.788.893-4.749,1.34-8.772,1.34-3.966,0-7.039-.669-9.274-2.01.783-2.124,3.633-7.264,8.492-15.422q6.707-11.23,6.706-11.733c0-1.117-1.732-1.732-5.085-1.732-4.079,0-9.108,1.62-15.141,4.86a7.786,7.786,0,0,1-2.066-3.911,29.786,29.786,0,0,1,8.325-4.246,27.424,27.424,0,0,1,8.828-1.676c6.7,0,10.112,2.178,10.112,6.48C1469.226-514.292,1467.494-510.66,1464.085-505.073Z" transform="translate(-1299.426 529.265)" fill="#007aa7"/>
  <path id="Path_3077" data-name="Path 3077" d="M1492.857-491.44a16.966,16.966,0,0,1-11.955,5.085,17.975,17.975,0,0,1-12.851-5.029,16.461,16.461,0,0,1-5.307-12.571,18.768,18.768,0,0,1,4.917-12.962,16.362,16.362,0,0,1,12.571-5.643q5.531,0,8.381,2.514a3.571,3.571,0,0,1-.672,1.9,5.807,5.807,0,0,1-1.508,1.565,14.608,14.608,0,0,0-6.426-1.287,11.22,11.22,0,0,0-8.94,4.526,15.1,15.1,0,0,0-3.519,9.722,11.965,11.965,0,0,0,4.023,9.05,12.956,12.956,0,0,0,9.331,3.8c3.017,0,5.865-1.34,8.6-4.078,2.682-2.682,4.024-5.587,4.024-8.605a16.055,16.055,0,0,0-1.119-6.368,36.028,36.028,0,0,0-3.8-5.643,7.228,7.228,0,0,1,2.961-2.85c4.358,3.743,6.592,8.772,6.592,15.142A15.746,15.746,0,0,1,1492.857-491.44Z" transform="translate(-1288.75 529.208)" fill="#007aa7"/>
  <path id="Path_3078" data-name="Path 3078" d="M1529.625-504.486v2.346c-12.627.783-25.366,1.341-38.328,1.621a29.744,29.744,0,0,1-.39-4.582c6.314-.28,12.683-.559,19.108-.783,6.315-.279,12.739-.5,19.331-.671A7.636,7.636,0,0,1,1529.625-504.486Zm-4.134-18.438a30.834,30.834,0,0,1-.336,4.358c-10,0-19.946-.223-29.779-.781v-2.458c.054-.559.11-1.175.11-1.788Q1508.394-523.593,1525.491-522.924Zm-20.5,30.227a34.3,34.3,0,0,1-4.191,8.828,9.606,9.606,0,0,1-4.022-1.9,78.094,78.094,0,0,1,3.855-8.436Q1502.64-493.619,1504.986-492.7Zm12.626-1.508q.337,3.351.336,6.034h4.189v-1.956a8.173,8.173,0,0,0,1.732-.112c.726,0,1.4.056,2.068.112.112,1.229.224,2.4.224,3.465a7.425,7.425,0,0,1-.224,1.956,15.452,15.452,0,0,1-5.307.669q-5.867,0-7.544-.669c0-3.074-.056-6.259-.166-9.61.446-.056,1.227-.112,2.458-.224A9.384,9.384,0,0,1,1517.612-494.2Z" transform="translate(-1274.283 528.678)" fill="#007aa7"/>
</svg>
