<svg xmlns="http://www.w3.org/2000/svg" width="305.217" height="47.134" viewBox="0 0 305.217 47.134">
  <g id="Group_561" data-name="Group 561" transform="translate(-1571.875 566.167)">
    <path id="Path_3554" data-name="Path 3554" d="M1580.338-555.821c-.442,1.77-1,3.651-1.548,5.532,1.216.111,2.379.277,3.54.388-.055-1.439-.055-2.822-.055-4.206a12.63,12.63,0,0,0,2.379-.222c.885,0,1.659.057,2.324.112.055,1.659.109,3.318.165,4.922,1.383.222,2.711.388,4.039.553a20.819,20.819,0,0,1-.442,3.873c-1.163,0-2.323,0-3.431-.109,0,1.548.055,3.1.111,4.535.773-.111,1.494-.277,2.268-.387a21.311,21.311,0,0,1,.83,4.315c-1.051.277-2.047.5-3.042.664,0,1.6.055,3.153.055,4.648a6.333,6.333,0,0,1-2.269.276,11.058,11.058,0,0,1-2.046-.111c-.111-1.328-.166-2.656-.22-3.928-1.993.333-4.041.664-6.031.886a28.309,28.309,0,0,1-.719-4.426q3.318-.58,6.473-1.161c-.111-1.881-.222-3.818-.277-5.754a47.392,47.392,0,0,1-4.87-.773q-.829,2.736-1.824,5.641a8.1,8.1,0,0,1-3.873-1.106,113.671,113.671,0,0,1,4.591-15.545A18.978,18.978,0,0,1,1580.338-555.821Zm23.015-8.464c.662-.111,1.382-.222,2.212-.333a7.336,7.336,0,0,1,2.323.333c.055,1.548.111,2.987.22,4.369a72.32,72.32,0,0,1,8.909.555,6.943,6.943,0,0,1,.22,1.881,6.4,6.4,0,0,1-.22,1.992c-.608.276-3.542.387-8.741.387,0,1.659.054,3.209.054,4.646h1.33a30.478,30.478,0,0,1,5.475.333v3.873c-.442.387-2.268.553-5.588.553a95.24,95.24,0,0,1-12.558-.553,5.583,5.583,0,0,1-.276-2.047c.055-.775.111-1.439.111-2.047,1.77,0,3.817,0,6.085-.054,0-1.55.055-3.153.111-4.7-5.421,0-8.408-.166-8.963-.387a5.106,5.106,0,0,1-.276-1.992,8.786,8.786,0,0,1,.387-2.158c2.765-.055,5.809-.111,9.017-.222C1603.186-561.3,1603.241-562.792,1603.354-564.284Zm5.919,24.618a25.925,25.925,0,0,1-.111-2.932c1.328-.222,2.765-.333,4.315-.442.111,1.271.277,2.488.387,3.6,1.328.109,2.656.165,4.039.276a36.242,36.242,0,0,1-.277,4.095c-1.16,0-2.268,0-3.374-.055.333,3.982.553,7.911.719,11.837a6.447,6.447,0,0,1-3.431.719,37.11,37.11,0,0,1-4.26-.22,10.235,10.235,0,0,1-.5-2.987c1.217-.055,2.379-.111,3.54-.222-.387-3.1-.662-6.14-.83-9.238-5.2-.111-10.4-.442-15.49-.886v-2.323c0-.553.055-1.106.055-1.659C1598.6-540.109,1603.685-539.943,1609.272-539.667Zm-6.2,12.17a8.364,8.364,0,0,1-4.15,1.272,9.214,9.214,0,0,1-2.046-5.033,24.573,24.573,0,0,1,4.093-1.161A10.42,10.42,0,0,1,1603.076-527.5Z" transform="translate(0 0.773)" fill="#007aa7"/>
    <path id="Path_3555" data-name="Path 3555" d="M1620.3-529.711a38.676,38.676,0,0,1-2.987,3.928c-.553.664-1.106,1.272-1.715,1.936-.609.609-1.272,1.272-1.992,1.936a11.639,11.639,0,0,1-3.485-3.32,67.23,67.23,0,0,1,6.307-7.413A15.754,15.754,0,0,1,1620.3-529.711Zm5.976-27.937a10.051,10.051,0,0,1,.054-1.272c-6.03-.222-11.284-.553-15.71-1a3.9,3.9,0,0,1-.222-1.77,6.122,6.122,0,0,1,.333-1.881q7.882,0,15.767.331c0-.884,0-1.715.055-2.6.663-.112,1.382-.222,2.157-.333a6.979,6.979,0,0,1,2.268.333c.055,1,.111,1.935.166,2.765,5.2.276,10.346.609,15.49,1.051v1.659a7.041,7.041,0,0,1-.167,1.772c-5.532,0-10.622-.055-15.157-.166,0,.5.055.941.055,1.383,4.315.22,8.686.553,13,.884.5.941.773,2.767.773,5.532,0,2.878-.109,5.534-.22,7.857q-.664,1-13.942,1.162c-.109,1-.222,1.881-.333,2.767,2.324-.222,4.648-.388,6.972-.555a3.071,3.071,0,0,1-.167-1,28.229,28.229,0,0,1,3.707-1.051,13.609,13.609,0,0,1,3.042,6.86,7.387,7.387,0,0,1-3.817,1.217,9.61,9.61,0,0,1-1.6-2.49c-7.966,1-15.934,1.659-24.01,1.99a18.372,18.372,0,0,1-.331-3.54c3.928-.442,7.855-.775,11.783-1.051-.055-1-.055-2.047-.055-3.1h-3.485a61.871,61.871,0,0,1-10.235-.609c-.386-4.039-.553-8.8-.553-14.217h4.481c0,1.659.055,3.209.055,4.646,2.987.055,6.251.166,9.681.277v-.222c0-.553,0-1.161.055-1.715-1.881-.111-3.707-.277-5.532-.5.055-1.273.111-2.489.22-3.651C1622.62-557.759,1624.444-557.7,1626.271-557.648Zm-.166,9.737c-3.264-.111-6.473-.277-9.681-.5v2.268a78.638,78.638,0,0,0,9.681.442Zm1.328,18.7c.22,1.881.442,3.76.719,5.641,2.213,0,4.535-.109,7.082-.331a5.265,5.265,0,0,1,.385,1.936c0,.884-.055,1.6-.11,2.158-1.106.5-3.375.773-6.8.773a16.448,16.448,0,0,1-4.759-.442,59.1,59.1,0,0,1-.829-9.627,17.075,17.075,0,0,0,2.156-.222C1626.1-529.324,1626.824-529.267,1627.432-529.212Zm8.077.22a8.066,8.066,0,0,1-2.987,1.6,21.578,21.578,0,0,1-3.486-5.641,16.232,16.232,0,0,1,3.264-1.605A27.8,27.8,0,0,1,1635.509-528.991Zm-4.093-22.57c1.328.109,2.654.165,4.038.22a28.583,28.583,0,0,1-.276,3.6c-1.328,0-2.6,0-3.873-.056,0,.775-.057,1.439-.057,2.1,3.985,0,7.026-.111,9.129-.222a61.89,61.89,0,0,0-.444-6.969c-2.876-.111-5.7-.222-8.518-.444Zm13.774,25a10.2,10.2,0,0,1-3.982.775,26.59,26.59,0,0,1-1.716-5.976c1.219-.22,2.434-.442,3.652-.607A22.155,22.155,0,0,1,1645.19-526.557Z" transform="translate(19.074)" fill="#007aa7"/>
    <path id="Path_3556" data-name="Path 3556" d="M1659.971-559.584c.057.775.112,1.493.222,2.158,1.55,0,3.1-.055,4.7-.111.055-.775.166-1.55.276-2.269.609-.109,1.272-.165,1.937-.276a5.9,5.9,0,0,1,1.716.276c.055.83.109,1.605.22,2.269a114.737,114.737,0,0,1,12.226,1.217,13.852,13.852,0,0,1,.775,5.09,40.643,40.643,0,0,1-.553,7.247c-1.106.884-4.648,1.328-10.731,1.328-13.168-.331-21.632-1.108-25.394-2.434a25.3,25.3,0,0,1-.553-6.418,41.025,41.025,0,0,1,.664-4.426q1-.166,2.323-.331a8.33,8.33,0,0,1,2.434.331,67.42,67.42,0,0,1-.331,7.524c6.418.664,13.167,1,20.247,1.052,2.379,0,4.7,0,7.026-.112-.111-1.548-.222-3.207-.333-4.868-2.434-.22-4.978-.442-7.578-.607v.054a18.4,18.4,0,0,1-.442,4.481,3.566,3.566,0,0,1-1.716.276,4.039,4.039,0,0,1-1.937-.276,13.22,13.22,0,0,1-.662-4.481v-.276c-1.329,0-2.711-.055-4.095-.111v.609a13.29,13.29,0,0,1-.444,3.817,3.481,3.481,0,0,1-1.713.331,3.759,3.759,0,0,1-1.937-.331,9.442,9.442,0,0,1-.665-3.817,3.06,3.06,0,0,1,.057-.719h-2.1a6.646,6.646,0,0,1-.276-2.1,12.7,12.7,0,0,1,.276-1.826c.775,0,1.605-.055,2.434-.055.054-.773.166-1.493.277-2.212.607-.111,1.271-.166,1.937-.276A5.838,5.838,0,0,1,1659.971-559.584Zm-5.974,33.3a18.483,18.483,0,0,1-2.269,2.434c-.442.387-.883.773-1.326,1.217q-.664.5-1.493,1.162a12.751,12.751,0,0,1-3.375-3.1,41.466,41.466,0,0,1,4.757-4.481A15.727,15.727,0,0,1,1654-526.279Zm25.392-8.3a6.2,6.2,0,0,1,.166,1.715,6.085,6.085,0,0,1-.166,1.826c-.553.222-3.651.331-9.239.331h-4.37c.554,3.431.886,6.971,1.108,10.512a10.549,10.549,0,0,1-4.426.662,39.726,39.726,0,0,1-4.427-.22,8.852,8.852,0,0,1-.442-2.821c1.55-.056,3.044-.112,4.537-.166a49.2,49.2,0,0,1-1.051-7.967q-12.2,0-13.609-.331a5.439,5.439,0,0,1-.222-1.826,5.772,5.772,0,0,1,.333-1.992c6.86-.109,14.384-.166,22.57-.276A66.258,66.258,0,0,1,1679.389-534.578Zm-1.326-30.649a8.944,8.944,0,0,1,.165,1.992,8.144,8.144,0,0,1-.165,2.1c-.721.276-4.315.387-10.733.387-11.232,0-17.371-.111-18.366-.387a5.65,5.65,0,0,1-.277-2.1,9.118,9.118,0,0,1,.387-2.268q8.3-.166,18.257-.333A78.723,78.723,0,0,1,1678.063-565.227Zm-4.315,24.674a6.621,6.621,0,0,1,.165,1.715,6.213,6.213,0,0,1-.165,1.826c-.609.22-3.708.331-9.239.331-7.3,0-11.23-.111-11.9-.331a4.247,4.247,0,0,1-.276-1.826,6.705,6.705,0,0,1,.387-1.936c3.542-.111,7.468-.222,11.785-.277A68.226,68.226,0,0,1,1673.748-540.552Zm6.693,14.66a20.432,20.432,0,0,1-2.269,4.149,39.124,39.124,0,0,1-7.082-2.932,12.1,12.1,0,0,1,2.325-4.039A58.3,58.3,0,0,1,1680.441-525.893Z" transform="translate(36.38 0.166)" fill="#007aa7"/>
    <path id="Path_3557" data-name="Path 3557" d="M1691.224-526.091a6.639,6.639,0,0,1-1.824.276,5.6,5.6,0,0,1-2.711-.664c.607-8.243,1.659-17.813,3.152-28.767-2.875.719-5.088,1.217-6.583,1.439a9.212,9.212,0,0,1-1.051-4.149,65.371,65.371,0,0,1,6.583-2.158,35.75,35.75,0,0,1,5.256-1.217c.72,0,1.106.5,1.106,1.383Q1695.152-555.3,1691.224-526.091Z" transform="translate(55.031 2.412)" fill="#007aa7"/>
    <path id="Path_3558" data-name="Path 3558" d="M1724.636-528.711a12.132,12.132,0,0,1-8.3,2.876c-4.814,0-8.519-1.162-11.175-3.6-2.821-2.545-4.2-6.307-4.2-11.286,0-3.651,1.494-7.524,4.535-11.728,3.32-4.535,7.192-7.579,11.728-9.072a6.965,6.965,0,0,1,2.1,3.485q-13.444,8.215-13.444,17.593c0,6.749,3.375,10.124,10.234,10.124a7.413,7.413,0,0,0,5.256-1.827,6.672,6.672,0,0,0,1.937-5.088c0-1.716-1.106-3.209-3.264-4.426a47.776,47.776,0,0,0-5.532-2.158,14.672,14.672,0,0,1,1.217-3.982c8.188,1.493,12.338,5.144,12.338,10.9A10.486,10.486,0,0,1,1724.636-528.711Z" transform="translate(64.384 2.32)" fill="#007aa7"/>
    <path id="Path_3559" data-name="Path 3559" d="M1751.594-530.74a16.805,16.805,0,0,1-11.839,5.034,17.8,17.8,0,0,1-12.725-4.979,16.308,16.308,0,0,1-5.255-12.448,18.583,18.583,0,0,1,4.868-12.834,16.2,16.2,0,0,1,12.447-5.587q5.477,0,8.3,2.489a3.544,3.544,0,0,1-.664,1.881,5.744,5.744,0,0,1-1.494,1.548,14.483,14.483,0,0,0-6.362-1.272,11.11,11.11,0,0,0-8.852,4.481,14.944,14.944,0,0,0-3.485,9.627,11.853,11.853,0,0,0,3.984,8.961,12.831,12.831,0,0,0,9.239,3.762c2.987,0,5.808-1.328,8.519-4.038,2.656-2.656,3.984-5.533,3.984-8.521a15.926,15.926,0,0,0-1.106-6.305,35.675,35.675,0,0,0-3.762-5.587,7.155,7.155,0,0,1,2.932-2.822c4.315,3.706,6.527,8.685,6.527,14.992A15.6,15.6,0,0,1,1751.594-530.74Z" transform="translate(74.767 2.301)" fill="#007aa7"/>
    <path id="Path_3560" data-name="Path 3560" d="M1788.277-543.666v2.323c-12.5.775-25.117,1.328-37.949,1.605a29.266,29.266,0,0,1-.388-4.537c6.251-.277,12.558-.553,18.919-.775,6.251-.276,12.614-.5,19.142-.664A7.613,7.613,0,0,1,1788.277-543.666Zm-4.093-18.257a30.361,30.361,0,0,1-.333,4.315c-9.9,0-19.749-.22-29.486-.773v-2.434c.054-.555.109-1.163.109-1.771Q1767.256-562.587,1784.184-561.923Zm-20.3,29.929a33.959,33.959,0,0,1-4.15,8.741,9.511,9.511,0,0,1-3.982-1.881,77.269,77.269,0,0,1,3.817-8.354Q1761.558-532.906,1763.882-531.994Zm12.5-1.494q.331,3.321.332,5.976h4.148v-1.936a8.085,8.085,0,0,0,1.715-.111c.719,0,1.383.056,2.049.111.109,1.217.22,2.379.22,3.429a7.439,7.439,0,0,1-.22,1.937,15.276,15.276,0,0,1-5.256.664q-5.809,0-7.47-.664c0-3.043-.055-6.2-.165-9.514.442-.055,1.217-.111,2.434-.222A9.377,9.377,0,0,1,1776.384-533.488Z" transform="translate(88.815 1.786)" fill="#007aa7"/>
  </g>
</svg>
